time,latitude[unit="degrees_north"],longitude[unit="degrees_east"],air_temperature[unit="C"]
1970-01-01T00:00:00Z,-33.61,150.81,17.02488136291504
1970-02-01T00:00:00Z,-33.61,150.81,17.29747772216797
1970-03-01T00:00:00Z,-33.61,150.81,14.147871017456055
1970-04-01T00:00:00Z,-33.61,150.81,11.482070922851562
1970-05-01T00:00:00Z,-33.61,150.81,6.873111724853516
1970-06-01T00:00:00Z,-33.61,150.81,4.583925724029541
1970-07-01T00:00:00Z,-33.61,150.81,1.370355248451233
1970-08-01T00:00:00Z,-33.61,150.81,3.9367480278015137
1970-09-01T00:00:00Z,-33.61,150.81,7.158012866973877
1970-10-01T00:00:00Z,-33.61,150.81,11.498093605041504
1970-11-01T00:00:00Z,-33.61,150.81,13.110445022583008
1970-12-01T00:00:00Z,-33.61,150.81,16.497838973999023
1971-01-01T00:00:00Z,-33.61,150.81,17.42279052734375
1971-02-01T00:00:00Z,-33.61,150.81,18.358720779418945
1971-03-01T00:00:00Z,-33.61,150.81,16.046255111694336
1971-04-01T00:00:00Z,-33.61,150.81,11.571209907531738
1971-05-01T00:00:00Z,-33.61,150.81,7.572380542755127
1971-06-01T00:00:00Z,-33.61,150.81,4.652222156524658
1971-07-01T00:00:00Z,-33.61,150.81,2.522702932357788
1971-08-01T00:00:00Z,-33.61,150.81,4.524544715881348
1971-09-01T00:00:00Z,-33.61,150.81,7.507263660430908
1971-10-01T00:00:00Z,-33.61,150.81,10.186264991760254
1971-11-01T00:00:00Z,-33.61,150.81,12.237173080444336
1971-12-01T00:00:00Z,-33.61,150.81,15.689532279968262
1972-01-01T00:00:00Z,-33.61,150.81,16.31977653503418
1972-02-01T00:00:00Z,-33.61,150.81,16.5343074798584
1972-03-01T00:00:00Z,-33.61,150.81,15.11246109008789
1972-04-01T00:00:00Z,-33.61,150.81,10.934017181396484
1972-05-01T00:00:00Z,-33.61,150.81,8.861947059631348
1972-06-01T00:00:00Z,-33.61,150.81,5.318385601043701
1972-07-01T00:00:00Z,-33.61,150.81,3.377023696899414
1972-08-01T00:00:00Z,-33.61,150.81,5.500113487243652
1972-09-01T00:00:00Z,-33.61,150.81,7.878098487854004
1972-10-01T00:00:00Z,-33.61,150.81,11.360254287719727
1972-11-01T00:00:00Z,-33.61,150.81,13.770106315612793
1972-12-01T00:00:00Z,-33.61,150.81,16.369850158691406
1973-01-01T00:00:00Z,-33.61,150.81,17.84869384765625
1973-02-01T00:00:00Z,-33.61,150.81,18.711091995239258
1973-03-01T00:00:00Z,-33.61,150.81,16.059886932373047
1973-04-01T00:00:00Z,-33.61,150.81,12.273571968078613
1973-05-01T00:00:00Z,-33.61,150.81,7.83595085144043
1973-06-01T00:00:00Z,-33.61,150.81,6.090776443481445
1973-07-01T00:00:00Z,-33.61,150.81,6.4398369789123535
1973-08-01T00:00:00Z,-33.61,150.81,5.568086624145508
1973-09-01T00:00:00Z,-33.61,150.81,8.557561874389648
1973-10-01T00:00:00Z,-33.61,150.81,12.689186096191406
1973-11-01T00:00:00Z,-33.61,150.81,14.244417190551758
1973-12-01T00:00:00Z,-33.61,150.81,17.42259979248047
1974-01-01T00:00:00Z,-33.61,150.81,18.417831420898438
1974-02-01T00:00:00Z,-33.61,150.81,16.78727912902832
1974-03-01T00:00:00Z,-33.61,150.81,16.15088653564453
1974-04-01T00:00:00Z,-33.61,150.81,14.6072359085083
1974-05-01T00:00:00Z,-33.61,150.81,9.716524124145508
1974-06-01T00:00:00Z,-33.61,150.81,6.0225443840026855
1974-07-01T00:00:00Z,-33.61,150.81,4.795129776000977
1974-08-01T00:00:00Z,-33.61,150.81,4.706827640533447
1974-09-01T00:00:00Z,-33.61,150.81,7.1407976150512695
1974-10-01T00:00:00Z,-33.61,150.81,10.680623054504395
1974-11-01T00:00:00Z,-33.61,150.81,12.461501121520996
1974-12-01T00:00:00Z,-33.61,150.81,14.982246398925781
1975-01-01T00:00:00Z,-33.61,150.81,16.255285263061523
1975-02-01T00:00:00Z,-33.61,150.81,16.785539627075195
1975-03-01T00:00:00Z,-33.61,150.81,15.479409217834473
1975-04-01T00:00:00Z,-33.61,150.81,11.230758666992188
1975-05-01T00:00:00Z,-33.61,150.81,7.887986183166504
1975-06-01T00:00:00Z,-33.61,150.81,6.078312397003174
1975-07-01T00:00:00Z,-33.61,150.81,4.506618499755859
1975-08-01T00:00:00Z,-33.61,150.81,5.696976184844971
1975-09-01T00:00:00Z,-33.61,150.81,9.465917587280273
1975-10-01T00:00:00Z,-33.61,150.81,11.442826271057129
1975-11-01T00:00:00Z,-33.61,150.81,14.691557884216309
1975-12-01T00:00:00Z,-33.61,150.81,17.66103172302246
1976-01-01T00:00:00Z,-33.61,150.81,17.594167709350586
1976-02-01T00:00:00Z,-33.61,150.81,18.380252838134766
1976-03-01T00:00:00Z,-33.61,150.81,16.58286476135254
1976-04-01T00:00:00Z,-33.61,150.81,11.679243087768555
1976-05-01T00:00:00Z,-33.61,150.81,7.25094747543335
1976-06-01T00:00:00Z,-33.61,150.81,6.0380425453186035
1976-07-01T00:00:00Z,-33.61,150.81,4.350820541381836
1976-08-01T00:00:00Z,-33.61,150.81,4.832812309265137
1976-09-01T00:00:00Z,-33.61,150.81,7.298940181732178
1976-10-01T00:00:00Z,-33.61,150.81,10.998220443725586
1976-11-01T00:00:00Z,-33.61,150.81,13.177254676818848
1976-12-01T00:00:00Z,-33.61,150.81,15.926370620727539
1977-01-01T00:00:00Z,-33.61,150.81,17.393625259399414
1977-02-01T00:00:00Z,-33.61,150.81,18.26850700378418
1977-03-01T00:00:00Z,-33.61,150.81,16.215492248535156
1977-04-01T00:00:00Z,-33.61,150.81,11.479832649230957
1977-05-01T00:00:00Z,-33.61,150.81,8.990762710571289
1977-06-01T00:00:00Z,-33.61,150.81,5.894006729125977
1977-07-01T00:00:00Z,-33.61,150.81,3.5317764282226562
1977-08-01T00:00:00Z,-33.61,150.81,4.320103645324707
1977-09-01T00:00:00Z,-33.61,150.81,7.726653575897217
1977-10-01T00:00:00Z,-33.61,150.81,11.598817825317383
1977-11-01T00:00:00Z,-33.61,150.81,14.253711700439453
1977-12-01T00:00:00Z,-33.61,150.81,16.560728073120117
1978-01-01T00:00:00Z,-33.61,150.81,18.556991577148438
1978-02-01T00:00:00Z,-33.61,150.81,18.02774429321289
1978-03-01T00:00:00Z,-33.61,150.81,17.125652313232422
1978-04-01T00:00:00Z,-33.61,150.81,12.229486465454102
1978-05-01T00:00:00Z,-33.61,150.81,9.255853652954102
1978-06-01T00:00:00Z,-33.61,150.81,6.731386184692383
1978-07-01T00:00:00Z,-33.61,150.81,3.7034411430358887
1978-08-01T00:00:00Z,-33.61,150.81,4.56915807723999
1978-09-01T00:00:00Z,-33.61,150.81,8.423666954040527
1978-10-01T00:00:00Z,-33.61,150.81,10.595390319824219
1978-11-01T00:00:00Z,-33.61,150.81,14.096640586853027
1978-12-01T00:00:00Z,-33.61,150.81,15.524752616882324
1979-01-01T00:00:00Z,-33.61,150.81,18.540679931640625
1979-02-01T00:00:00Z,-33.61,150.81,18.236637115478516
1979-03-01T00:00:00Z,-33.61,150.81,16.093400955200195
1979-04-01T00:00:00Z,-33.61,150.81,11.942182540893555
1979-05-01T00:00:00Z,-33.61,150.81,8.886631965637207
1979-06-01T00:00:00Z,-33.61,150.81,5.820150852203369
1979-07-01T00:00:00Z,-33.61,150.81,3.5461490154266357
1979-08-01T00:00:00Z,-33.61,150.81,4.566196441650391
1979-09-01T00:00:00Z,-33.61,150.81,8.713863372802734
1979-10-01T00:00:00Z,-33.61,150.81,11.380301475524902
1979-11-01T00:00:00Z,-33.61,150.81,15.151277542114258
1979-12-01T00:00:00Z,-33.61,150.81,17.295259475708008
1980-01-01T00:00:00Z,-33.61,150.81,18.111650466918945
1980-02-01T00:00:00Z,-33.61,150.81,17.45993423461914
1980-03-01T00:00:00Z,-33.61,150.81,16.442426681518555
1980-04-01T00:00:00Z,-33.61,150.81,12.066786766052246
1980-05-01T00:00:00Z,-33.61,150.81,10.599374771118164
1980-06-01T00:00:00Z,-33.61,150.81,6.65969181060791
1980-07-01T00:00:00Z,-33.61,150.81,4.624923229217529
1980-08-01T00:00:00Z,-33.61,150.81,5.213988780975342
1980-09-01T00:00:00Z,-33.61,150.81,8.504012107849121
1980-10-01T00:00:00Z,-33.61,150.81,12.648873329162598
1980-11-01T00:00:00Z,-33.61,150.81,14.526337623596191
1980-12-01T00:00:00Z,-33.61,150.81,17.2164363861084
1981-01-01T00:00:00Z,-33.61,150.81,19.462051391601562
1981-02-01T00:00:00Z,-33.61,150.81,19.313148498535156
1981-03-01T00:00:00Z,-33.61,150.81,15.462560653686523
1981-04-01T00:00:00Z,-33.61,150.81,13.400818824768066
1981-05-01T00:00:00Z,-33.61,150.81,9.484987258911133
1981-06-01T00:00:00Z,-33.61,150.81,5.859315395355225
1981-07-01T00:00:00Z,-33.61,150.81,4.0601019859313965
1981-08-01T00:00:00Z,-33.61,150.81,4.92367696762085
1981-09-01T00:00:00Z,-33.61,150.81,8.598382949829102
1981-10-01T00:00:00Z,-33.61,150.81,12.652138710021973
1981-11-01T00:00:00Z,-33.61,150.81,13.917722702026367
1981-12-01T00:00:00Z,-33.61,150.81,16.76622200012207
1982-01-01T00:00:00Z,-33.61,150.81,18.628690719604492
1982-02-01T00:00:00Z,-33.61,150.81,17.91346549987793
1982-03-01T00:00:00Z,-33.61,150.81,16.716121673583984
1982-04-01T00:00:00Z,-33.61,150.81,12.073119163513184
1982-05-01T00:00:00Z,-33.61,150.81,7.295531749725342
1982-06-01T00:00:00Z,-33.61,150.81,4.917800426483154
1982-07-01T00:00:00Z,-33.61,150.81,3.7011024951934814
1982-08-01T00:00:00Z,-33.61,150.81,4.879947185516357
1982-09-01T00:00:00Z,-33.61,150.81,7.699824810028076
1982-10-01T00:00:00Z,-33.61,150.81,10.305219650268555
1982-11-01T00:00:00Z,-33.61,150.81,13.908567428588867
1982-12-01T00:00:00Z,-33.61,150.81,16.833660125732422
1983-01-01T00:00:00Z,-33.61,150.81,17.793399810791016
1983-02-01T00:00:00Z,-33.61,150.81,19.604732513427734
1983-03-01T00:00:00Z,-33.61,150.81,17.6643009185791
1983-04-01T00:00:00Z,-33.61,150.81,12.55979061126709
1983-05-01T00:00:00Z,-33.61,150.81,10.90827465057373
1983-06-01T00:00:00Z,-33.61,150.81,5.805679798126221
1983-07-01T00:00:00Z,-33.61,150.81,3.8153133392333984
1983-08-01T00:00:00Z,-33.61,150.81,5.711713790893555
1983-09-01T00:00:00Z,-33.61,150.81,9.10345458984375
1983-10-01T00:00:00Z,-33.61,150.81,12.3414945602417
1983-11-01T00:00:00Z,-33.61,150.81,13.961860656738281
1983-12-01T00:00:00Z,-33.61,150.81,16.050294876098633
1984-01-01T00:00:00Z,-33.61,150.81,17.022647857666016
1984-02-01T00:00:00Z,-33.61,150.81,17.556062698364258
1984-03-01T00:00:00Z,-33.61,150.81,14.292523384094238
1984-04-01T00:00:00Z,-33.61,150.81,12.235589027404785
1984-05-01T00:00:00Z,-33.61,150.81,7.92494010925293
1984-06-01T00:00:00Z,-33.61,150.81,5.324571132659912
1984-07-01T00:00:00Z,-33.61,150.81,5.07016134262085
1984-08-01T00:00:00Z,-33.61,150.81,5.84086799621582
1984-09-01T00:00:00Z,-33.61,150.81,7.399988174438477
1984-10-01T00:00:00Z,-33.61,150.81,11.110468864440918
1984-11-01T00:00:00Z,-33.61,150.81,15.115622520446777
1984-12-01T00:00:00Z,-33.61,150.81,15.370565414428711
1985-01-01T00:00:00Z,-33.61,150.81,16.46582794189453
1985-02-01T00:00:00Z,-33.61,150.81,16.4315242767334
1985-03-01T00:00:00Z,-33.61,150.81,16.042985916137695
1985-04-01T00:00:00Z,-33.61,150.81,13.302114486694336
1985-05-01T00:00:00Z,-33.61,150.81,9.803182601928711
1985-06-01T00:00:00Z,-33.61,150.81,4.752375602722168
1985-07-01T00:00:00Z,-33.61,150.81,4.74884033203125
1985-08-01T00:00:00Z,-33.61,150.81,5.290449619293213
1985-09-01T00:00:00Z,-33.61,150.81,8.075347900390625
1985-10-01T00:00:00Z,-33.61,150.81,11.963987350463867
1985-11-01T00:00:00Z,-33.61,150.81,14.257594108581543
1985-12-01T00:00:00Z,-33.61,150.81,16.801790237426758
1986-01-01T00:00:00Z,-33.61,150.81,16.55470848083496
1986-02-01T00:00:00Z,-33.61,150.81,17.1268310546875
1986-03-01T00:00:00Z,-33.61,150.81,16.107341766357422
1986-04-01T00:00:00Z,-33.61,150.81,12.279009819030762
1986-05-01T00:00:00Z,-33.61,150.81,9.399088859558105
1986-06-01T00:00:00Z,-33.61,150.81,4.538279056549072
1986-07-01T00:00:00Z,-33.61,150.81,4.59401273727417
1986-08-01T00:00:00Z,-33.61,150.81,5.516373157501221
1986-09-01T00:00:00Z,-33.61,150.81,9.172965049743652
1986-10-01T00:00:00Z,-33.61,150.81,10.502922058105469
1986-11-01T00:00:00Z,-33.61,150.81,13.049405097961426
1986-12-01T00:00:00Z,-33.61,150.81,15.136375427246094
1987-01-01T00:00:00Z,-33.61,150.81,18.405048370361328
1987-02-01T00:00:00Z,-33.61,150.81,17.988264083862305
1987-03-01T00:00:00Z,-33.61,150.81,14.657846450805664
1987-04-01T00:00:00Z,-33.61,150.81,12.017952919006348
1987-05-01T00:00:00Z,-33.61,150.81,9.641617774963379
1987-06-01T00:00:00Z,-33.61,150.81,6.536738872528076
1987-07-01T00:00:00Z,-33.61,150.81,3.8458926677703857
1987-08-01T00:00:00Z,-33.61,150.81,7.7337164878845215
1987-09-01T00:00:00Z,-33.61,150.81,8.064321517944336
1987-10-01T00:00:00Z,-33.61,150.81,11.110016822814941
1987-11-01T00:00:00Z,-33.61,150.81,14.176453590393066
1987-12-01T00:00:00Z,-33.61,150.81,16.334365844726562
1988-01-01T00:00:00Z,-33.61,150.81,17.972780227661133
1988-02-01T00:00:00Z,-33.61,150.81,16.58010482788086
1988-03-01T00:00:00Z,-33.61,150.81,14.899691581726074
1988-04-01T00:00:00Z,-33.61,150.81,14.265710830688477
1988-05-01T00:00:00Z,-33.61,150.81,10.501481056213379
1988-06-01T00:00:00Z,-33.61,150.81,6.648658752441406
1988-07-01T00:00:00Z,-33.61,150.81,6.166292667388916
1988-08-01T00:00:00Z,-33.61,150.81,5.803487777709961
1988-09-01T00:00:00Z,-33.61,150.81,9.794290542602539
1988-10-01T00:00:00Z,-33.61,150.81,12.298846244812012
1988-11-01T00:00:00Z,-33.61,150.81,14.342744827270508
1988-12-01T00:00:00Z,-33.61,150.81,17.96833038330078
1989-01-01T00:00:00Z,-33.61,150.81,16.92256736755371
1989-02-01T00:00:00Z,-33.61,150.81,16.868337631225586
1989-03-01T00:00:00Z,-33.61,150.81,17.363767623901367
1989-04-01T00:00:00Z,-33.61,150.81,15.18596076965332
1989-05-01T00:00:00Z,-33.61,150.81,11.862919807434082
1989-06-01T00:00:00Z,-33.61,150.81,7.467142581939697
1989-07-01T00:00:00Z,-33.61,150.81,4.933536529541016
1989-08-01T00:00:00Z,-33.61,150.81,4.751399993896484
1989-09-01T00:00:00Z,-33.61,150.81,7.2769775390625
1989-10-01T00:00:00Z,-33.61,150.81,11.480339050292969
1989-11-01T00:00:00Z,-33.61,150.81,13.909313201904297
1989-12-01T00:00:00Z,-33.61,150.81,16.288570404052734
1990-01-01T00:00:00Z,-33.61,150.81,17.53200340270996
1990-02-01T00:00:00Z,-33.61,150.81,17.916946411132812
1990-03-01T00:00:00Z,-33.61,150.81,16.214046478271484
1990-04-01T00:00:00Z,-33.61,150.81,14.88451862335205
1990-05-01T00:00:00Z,-33.61,150.81,10.386892318725586
1990-06-01T00:00:00Z,-33.61,150.81,5.788262367248535
1990-07-01T00:00:00Z,-33.61,150.81,5.388670921325684
1990-08-01T00:00:00Z,-33.61,150.81,5.746978759765625
1990-09-01T00:00:00Z,-33.61,150.81,8.151476860046387
1990-10-01T00:00:00Z,-33.61,150.81,11.014324188232422
1990-11-01T00:00:00Z,-33.61,150.81,13.863646507263184
1990-12-01T00:00:00Z,-33.61,150.81,18.42302894592285
1991-01-01T00:00:00Z,-33.61,150.81,19.327486038208008
1991-02-01T00:00:00Z,-33.61,150.81,19.03346061706543
1991-03-01T00:00:00Z,-33.61,150.81,15.212845802307129
1991-04-01T00:00:00Z,-33.61,150.81,11.172454833984375
1991-05-01T00:00:00Z,-33.61,150.81,9.943526268005371
1991-06-01T00:00:00Z,-33.61,150.81,8.92832088470459
1991-07-01T00:00:00Z,-33.61,150.81,5.272720813751221
1991-08-01T00:00:00Z,-33.61,150.81,5.250831127166748
1991-09-01T00:00:00Z,-33.61,150.81,7.644343376159668
1991-10-01T00:00:00Z,-33.61,150.81,12.107343673706055
1991-11-01T00:00:00Z,-33.61,150.81,13.459686279296875
1991-12-01T00:00:00Z,-33.61,150.81,15.58377456665039
1992-01-01T00:00:00Z,-33.61,150.81,17.067138671875
1992-02-01T00:00:00Z,-33.61,150.81,17.45965003967285
1992-03-01T00:00:00Z,-33.61,150.81,16.390897750854492
1992-04-01T00:00:00Z,-33.61,150.81,12.567028045654297
1992-05-01T00:00:00Z,-33.61,150.81,9.539377212524414
1992-06-01T00:00:00Z,-33.61,150.81,5.079057216644287
1992-07-01T00:00:00Z,-33.61,150.81,4.471363544464111
1992-08-01T00:00:00Z,-33.61,150.81,5.092263221740723
1992-09-01T00:00:00Z,-33.61,150.81,7.245363712310791
1992-10-01T00:00:00Z,-33.61,150.81,11.19022274017334
1992-11-01T00:00:00Z,-33.61,150.81,12.953933715820312
1992-12-01T00:00:00Z,-33.61,150.81,16.181964874267578
1993-01-01T00:00:00Z,-33.61,150.81,18.795204162597656
1993-02-01T00:00:00Z,-33.61,150.81,17.5902156829834
1993-03-01T00:00:00Z,-33.61,150.81,14.916799545288086
1993-04-01T00:00:00Z,-33.61,150.81,12.146601676940918
1993-05-01T00:00:00Z,-33.61,150.81,8.512845039367676
1993-06-01T00:00:00Z,-33.61,150.81,5.043715476989746
1993-07-01T00:00:00Z,-33.61,150.81,6.666436195373535
1993-08-01T00:00:00Z,-33.61,150.81,5.785902500152588
1993-09-01T00:00:00Z,-33.61,150.81,8.313809394836426
1993-10-01T00:00:00Z,-33.61,150.81,11.362703323364258
1993-11-01T00:00:00Z,-33.61,150.81,13.394265174865723
1993-12-01T00:00:00Z,-33.61,150.81,16.394365310668945
1994-01-01T00:00:00Z,-33.61,150.81,17.818710327148438
1994-02-01T00:00:00Z,-33.61,150.81,18.33662986755371
1994-03-01T00:00:00Z,-33.61,150.81,14.66784381866455
1994-04-01T00:00:00Z,-33.61,150.81,11.89937686920166
1994-05-01T00:00:00Z,-33.61,150.81,8.47475814819336
1994-06-01T00:00:00Z,-33.61,150.81,6.101778030395508
1994-07-01T00:00:00Z,-33.61,150.81,3.737607479095459
1994-08-01T00:00:00Z,-33.61,150.81,3.9767062664031982
1994-09-01T00:00:00Z,-33.61,150.81,6.700920581817627
1994-10-01T00:00:00Z,-33.61,150.81,10.09340763092041
1994-11-01T00:00:00Z,-33.61,150.81,14.520116806030273
1994-12-01T00:00:00Z,-33.61,150.81,16.745893478393555
1995-01-01T00:00:00Z,-33.61,150.81,17.18135643005371
1995-02-01T00:00:00Z,-33.61,150.81,16.733484268188477
1995-03-01T00:00:00Z,-33.61,150.81,15.17243480682373
1995-04-01T00:00:00Z,-33.61,150.81,10.652591705322266
1995-05-01T00:00:00Z,-33.61,150.81,10.920909881591797
1995-06-01T00:00:00Z,-33.61,150.81,6.357623100280762
1995-07-01T00:00:00Z,-33.61,150.81,3.569831371307373
1995-08-01T00:00:00Z,-33.61,150.81,5.598454475402832
1995-09-01T00:00:00Z,-33.61,150.81,8.634909629821777
1995-10-01T00:00:00Z,-33.61,150.81,11.84655475616455
1995-11-01T00:00:00Z,-33.61,150.81,14.700196266174316
1995-12-01T00:00:00Z,-33.61,150.81,15.179289817810059
1996-01-01T00:00:00Z,-33.61,150.81,17.98935890197754
1996-02-01T00:00:00Z,-33.61,150.81,15.926922798156738
1996-03-01T00:00:00Z,-33.61,150.81,14.817112922668457
1996-04-01T00:00:00Z,-33.61,150.81,10.354442596435547
1996-05-01T00:00:00Z,-33.61,150.81,10.106571197509766
1996-06-01T00:00:00Z,-33.61,150.81,6.6831254959106445
1996-07-01T00:00:00Z,-33.61,150.81,4.764196872711182
1996-08-01T00:00:00Z,-33.61,150.81,5.54797887802124
1996-09-01T00:00:00Z,-33.61,150.81,9.195441246032715
1996-10-01T00:00:00Z,-33.61,150.81,11.524669647216797
1996-11-01T00:00:00Z,-33.61,150.81,12.864226341247559
1996-12-01T00:00:00Z,-33.61,150.81,15.406842231750488
1997-01-01T00:00:00Z,-33.61,150.81,15.816459655761719
1997-02-01T00:00:00Z,-33.61,150.81,18.93242835998535
1997-03-01T00:00:00Z,-33.61,150.81,15.894413948059082
1997-04-01T00:00:00Z,-33.61,150.81,11.123199462890625
1997-05-01T00:00:00Z,-33.61,150.81,10.263751983642578
1997-06-01T00:00:00Z,-33.61,150.81,4.989787578582764
1997-07-01T00:00:00Z,-33.61,150.81,4.374433517456055
1997-08-01T00:00:00Z,-33.61,150.81,4.400269985198975
1997-09-01T00:00:00Z,-33.61,150.81,9.018506050109863
1997-10-01T00:00:00Z,-33.61,150.81,11.171177864074707
1997-11-01T00:00:00Z,-33.61,150.81,15.818211555480957
1997-12-01T00:00:00Z,-33.61,150.81,17.771648406982422
1998-01-01T00:00:00Z,-33.61,150.81,18.8713436126709
1998-02-01T00:00:00Z,-33.61,150.81,18.66469955444336
1998-03-01T00:00:00Z,-33.61,150.81,16.964147567749023
1998-04-01T00:00:00Z,-33.61,150.81,13.362722396850586
1998-05-01T00:00:00Z,-33.61,150.81,10.158806800842285
1998-06-01T00:00:00Z,-33.61,150.81,7.13911771774292
1998-07-01T00:00:00Z,-33.61,150.81,5.4803619384765625
1998-08-01T00:00:00Z,-33.61,150.81,7.5330119132995605
1998-09-01T00:00:00Z,-33.61,150.81,10.347249984741211
1998-10-01T00:00:00Z,-33.61,150.81,11.343426704406738
1998-11-01T00:00:00Z,-33.61,150.81,13.118827819824219
1998-12-01T00:00:00Z,-33.61,150.81,17.102970123291016
1999-01-01T00:00:00Z,-33.61,150.81,18.968671798706055
1999-02-01T00:00:00Z,-33.61,150.81,17.7203311920166
1999-03-01T00:00:00Z,-33.61,150.81,16.782827377319336
1999-04-01T00:00:00Z,-33.61,150.81,11.557143211364746
1999-05-01T00:00:00Z,-33.61,150.81,8.836221694946289
1999-06-01T00:00:00Z,-33.61,150.81,6.658149719238281
1999-07-01T00:00:00Z,-33.61,150.81,6.035726547241211
1999-08-01T00:00:00Z,-33.61,150.81,5.748898029327393
1999-09-01T00:00:00Z,-33.61,150.81,9.136332511901855
1999-10-01T00:00:00Z,-33.61,150.81,12.81086254119873
1999-11-01T00:00:00Z,-33.61,150.81,12.25599479675293
1999-12-01T00:00:00Z,-33.61,150.81,15.67458438873291
2000-01-01T00:00:00Z,-33.61,150.81,15.938003540039062
2000-02-01T00:00:00Z,-33.61,150.81,17.383071899414062
2000-03-01T00:00:00Z,-33.61,150.81,17.72388458251953
2000-04-01T00:00:00Z,-33.61,150.81,12.726644515991211
2000-05-01T00:00:00Z,-33.61,150.81,8.619194030761719
2000-06-01T00:00:00Z,-33.61,150.81,4.310818672180176
2000-07-01T00:00:00Z,-33.61,150.81,4.480181694030762
2000-08-01T00:00:00Z,-33.61,150.81,5.141994953155518
2000-09-01T00:00:00Z,-33.61,150.81,8.76767349243164
2000-10-01T00:00:00Z,-33.61,150.81,11.87122631072998
2000-11-01T00:00:00Z,-33.61,150.81,15.542948722839355
2000-12-01T00:00:00Z,-33.61,150.81,17.26904296875
2001-01-01T00:00:00Z,-33.61,150.81,18.5374755859375
2001-02-01T00:00:00Z,-33.61,150.81,19.1660099029541
2001-03-01T00:00:00Z,-33.61,150.81,16.14834976196289
2001-04-01T00:00:00Z,-33.61,150.81,12.487916946411133
2001-05-01T00:00:00Z,-33.61,150.81,8.25732421875
2001-06-01T00:00:00Z,-33.61,150.81,5.233969688415527
2001-07-01T00:00:00Z,-33.61,150.81,5.857917308807373
2001-08-01T00:00:00Z,-33.61,150.81,5.152497291564941
2001-09-01T00:00:00Z,-33.61,150.81,9.439240455627441
2001-10-01T00:00:00Z,-33.61,150.81,10.683349609375
2001-11-01T00:00:00Z,-33.61,150.81,13.517142295837402
2001-12-01T00:00:00Z,-33.61,150.81,16.484100341796875
2002-01-01T00:00:00Z,-33.61,150.81,17.430330276489258
2002-02-01T00:00:00Z,-33.61,150.81,17.746204376220703
2002-03-01T00:00:00Z,-33.61,150.81,15.612868309020996
2002-04-01T00:00:00Z,-33.61,150.81,13.468250274658203
2002-05-01T00:00:00Z,-33.61,150.81,8.71687126159668
2002-06-01T00:00:00Z,-33.61,150.81,5.627058506011963
2002-07-01T00:00:00Z,-33.61,150.81,2.941324234008789
2002-08-01T00:00:00Z,-33.61,150.81,5.3043718338012695
2002-09-01T00:00:00Z,-33.61,150.81,8.024435043334961
2002-10-01T00:00:00Z,-33.61,150.81,11.12889289855957
2002-11-01T00:00:00Z,-33.61,150.81,15.036487579345703
2002-12-01T00:00:00Z,-33.61,150.81,16.152606964111328
2003-01-01T00:00:00Z,-33.61,150.81,17.84737205505371
2003-02-01T00:00:00Z,-33.61,150.81,18.834026336669922
2003-03-01T00:00:00Z,-33.61,150.81,15.17612075805664
2003-04-01T00:00:00Z,-33.61,150.81,12.636067390441895
2003-05-01T00:00:00Z,-33.61,150.81,10.184259414672852
2003-06-01T00:00:00Z,-33.61,150.81,6.747218132019043
2003-07-01T00:00:00Z,-33.61,150.81,4.747928142547607
2003-08-01T00:00:00Z,-33.61,150.81,4.993710041046143
2003-09-01T00:00:00Z,-33.61,150.81,8.296137809753418
2003-10-01T00:00:00Z,-33.61,150.81,10.43653678894043
2003-11-01T00:00:00Z,-33.61,150.81,13.268350601196289
2003-12-01T00:00:00Z,-33.61,150.81,17.215124130249023
2004-01-01T00:00:00Z,-33.61,150.81,18.33661651611328
2004-02-01T00:00:00Z,-33.61,150.81,18.549213409423828
2004-03-01T00:00:00Z,-33.61,150.81,16.024471282958984
2004-04-01T00:00:00Z,-33.61,150.81,12.834181785583496
2004-05-01T00:00:00Z,-33.61,150.81,7.083628177642822
2004-06-01T00:00:00Z,-33.61,150.81,4.905094623565674
2004-07-01T00:00:00Z,-33.61,150.81,4.460524559020996
2004-08-01T00:00:00Z,-33.61,150.81,5.968292236328125
2004-09-01T00:00:00Z,-33.61,150.81,8.388837814331055
2004-10-01T00:00:00Z,-33.61,150.81,12.032832145690918
2004-11-01T00:00:00Z,-33.61,150.81,14.141825675964355
2004-12-01T00:00:00Z,-33.61,150.81,16.53976821899414
2005-01-01T00:00:00Z,-33.61,150.81,17.84746551513672
2005-02-01T00:00:00Z,-33.61,150.81,17.16942024230957
2005-03-01T00:00:00Z,-33.61,150.81,14.682236671447754
2005-04-01T00:00:00Z,-33.61,150.81,13.300301551818848
2005-05-01T00:00:00Z,-33.61,150.81,8.334258079528809
2005-06-01T00:00:00Z,-33.61,150.81,6.485589027404785
2005-07-01T00:00:00Z,-33.61,150.81,5.3109636306762695
2005-08-01T00:00:00Z,-33.61,150.81,4.4602813720703125
2005-09-01T00:00:00Z,-33.61,150.81,8.861924171447754
2005-10-01T00:00:00Z,-33.61,150.81,12.92805004119873
2005-11-01T00:00:00Z,-33.61,150.81,15.186391830444336
2005-12-01T00:00:00Z,-33.61,150.81,16.583152770996094
2006-01-01T00:00:00Z,-33.61,150.81,19.295337677001953
2006-02-01T00:00:00Z,-33.61,150.81,18.587738037109375
2006-03-01T00:00:00Z,-33.61,150.81,17.191852569580078
2006-04-01T00:00:00Z,-33.61,150.81,10.451325416564941
2006-05-01T00:00:00Z,-33.61,150.81,7.1521220207214355
2006-06-01T00:00:00Z,-33.61,150.81,4.6506171226501465
2006-07-01T00:00:00Z,-33.61,150.81,5.089420795440674
2006-08-01T00:00:00Z,-33.61,150.81,5.143100261688232
2006-09-01T00:00:00Z,-33.61,150.81,9.187883377075195
2006-10-01T00:00:00Z,-33.61,150.81,11.37935733795166
2006-11-01T00:00:00Z,-33.61,150.81,14.155344009399414
2006-12-01T00:00:00Z,-33.61,150.81,15.81601619720459
2007-01-01T00:00:00Z,-33.61,150.81,17.906253814697266
2007-02-01T00:00:00Z,-33.61,150.81,18.479625701904297
2007-03-01T00:00:00Z,-33.61,150.81,16.701337814331055
2007-04-01T00:00:00Z,-33.61,150.81,12.672280311584473
2007-05-01T00:00:00Z,-33.61,150.81,9.631725311279297
2007-06-01T00:00:00Z,-33.61,150.81,6.246196746826172
2007-07-01T00:00:00Z,-33.61,150.81,4.1310811042785645
2007-08-01T00:00:00Z,-33.61,150.81,7.361200332641602
2007-09-01T00:00:00Z,-33.61,150.81,8.575955390930176
2007-10-01T00:00:00Z,-33.61,150.81,11.998332023620605
2007-11-01T00:00:00Z,-33.61,150.81,15.633139610290527
2007-12-01T00:00:00Z,-33.61,150.81,16.781396865844727
2008-01-01T00:00:00Z,-33.61,150.81,18.3411922454834
2008-02-01T00:00:00Z,-33.61,150.81,16.781871795654297
2008-03-01T00:00:00Z,-33.61,150.81,14.543577194213867
2008-04-01T00:00:00Z,-33.61,150.81,10.95649242401123
2008-05-01T00:00:00Z,-33.61,150.81,7.271610260009766
2008-06-01T00:00:00Z,-33.61,150.81,8.39113712310791
2008-07-01T00:00:00Z,-33.61,150.81,3.9582581520080566
2008-08-01T00:00:00Z,-33.61,150.81,3.6473376750946045
2008-09-01T00:00:00Z,-33.61,150.81,8.531068801879883
2008-10-01T00:00:00Z,-33.61,150.81,11.823397636413574
2008-11-01T00:00:00Z,-33.61,150.81,14.576844215393066
2008-12-01T00:00:00Z,-33.61,150.81,16.041879653930664
2009-01-01T00:00:00Z,-33.61,150.81,17.527055740356445
2009-02-01T00:00:00Z,-33.61,150.81,18.307199478149414
2009-03-01T00:00:00Z,-33.61,150.81,15.823823928833008
2009-04-01T00:00:00Z,-33.61,150.81,13.15503978729248
2009-05-01T00:00:00Z,-33.61,150.81,9.31490707397461
2009-06-01T00:00:00Z,-33.61,150.81,6.771100044250488
2009-07-01T00:00:00Z,-33.61,150.81,4.847457408905029
2009-08-01T00:00:00Z,-33.61,150.81,5.366922855377197
2009-09-01T00:00:00Z,-33.61,150.81,9.278773307800293
2009-10-01T00:00:00Z,-33.61,150.81,11.424774169921875
2009-11-01T00:00:00Z,-33.61,150.81,16.474838256835938
2009-12-01T00:00:00Z,-33.61,150.81,17.24424934387207
2010-01-01T00:00:00Z,-33.61,150.81,19.024059295654297
2010-02-01T00:00:00Z,-33.61,150.81,19.097248077392578
2010-03-01T00:00:00Z,-33.61,150.81,16.544837951660156
2010-04-01T00:00:00Z,-33.61,150.81,12.615341186523438
2010-05-01T00:00:00Z,-33.61,150.81,8.530454635620117
2010-06-01T00:00:00Z,-33.61,150.81,5.623291492462158
2010-07-01T00:00:00Z,-33.61,150.81,5.715258598327637
2010-08-01T00:00:00Z,-33.61,150.81,5.466034889221191
2010-09-01T00:00:00Z,-33.61,150.81,8.561177253723145
2010-10-01T00:00:00Z,-33.61,150.81,12.121369361877441
2010-11-01T00:00:00Z,-33.61,150.81,14.995975494384766
2010-12-01T00:00:00Z,-33.61,150.81,16.968416213989258
2011-01-01T00:00:00Z,-33.61,150.81,19.150068283081055
2011-02-01T00:00:00Z,-33.61,150.81,19.190332412719727
2011-03-01T00:00:00Z,-33.61,150.81,16.88698387145996
2011-04-01T00:00:00Z,-33.61,150.81,11.851613998413086
2011-05-01T00:00:00Z,-33.61,150.81,7.169008731842041
2011-06-01T00:00:00Z,-33.61,150.81,6.283456325531006
2011-07-01T00:00:00Z,-33.61,150.81,4.738579273223877
2011-08-01T00:00:00Z,-33.61,150.81,5.9880051612854
2011-09-01T00:00:00Z,-33.61,150.81,8.649770736694336
2011-10-01T00:00:00Z,-33.61,150.81,11.396427154541016
2011-11-01T00:00:00Z,-33.61,150.81,15.805704116821289
2011-12-01T00:00:00Z,-33.61,150.81,14.887296676635742
2012-01-01T00:00:00Z,-33.61,150.81,17.47235679626465
2012-02-01T00:00:00Z,-33.61,150.81,17.29981231689453
2012-03-01T00:00:00Z,-33.61,150.81,15.701191902160645
2012-04-01T00:00:00Z,-33.61,150.81,12.646573066711426
2012-05-01T00:00:00Z,-33.61,150.81,6.725966930389404
2012-06-01T00:00:00Z,-33.61,150.81,6.054441928863525
2012-07-01T00:00:00Z,-33.61,150.81,4.862499713897705
2012-08-01T00:00:00Z,-33.61,150.81,4.340758323669434
2012-09-01T00:00:00Z,-33.61,150.81,7.477191925048828
2012-10-01T00:00:00Z,-33.61,150.81,10.208100318908691
2012-11-01T00:00:00Z,-33.61,150.81,14.671310424804688
2012-12-01T00:00:00Z,-33.61,150.81,16.842426300048828
