"","year","doy","Tmin","Tmax","Tmean","DateTime"
"1",2013,1,28.23745117,41.24932251,35.8104047133333,2013-01-01 11:00:00
"2",2013,2,27.45440063,41.45351563,34.7842823029167,2013-01-02 11:00:00
"3",2013,3,27.41219482,38.62832031,33.1402196254167,2013-01-03 11:00:00
"4",2013,4,19.37557373,31.41973267,25.7943054204167,2013-01-04 11:00:00
"5",2013,5,19.54293213,35.57885132,27.93079973875,2013-01-05 11:00:00
"6",2013,6,27.97649536,32.48516235,30.373330688125,2013-01-06 11:00:00
"7",2013,7,28.16097412,43.68770752,36.2057872772917,2013-01-07 11:00:00
"8",2013,8,28.22957764,44.95879517,37.57888438,2013-01-08 11:00:00
"9",2013,9,27.71404419,45.7618042,37.0465115858333,2013-01-09 11:00:00
"10",2013,10,21.1447998,33.10534058,27.33536555,2013-01-10 11:00:00
"11",2013,11,20.64870605,28.06743774,24.57516123375,2013-01-11 11:00:00
"12",2013,12,15.78685913,24.85335693,19.1513350164583,2013-01-12 11:00:00
"13",2013,13,15.73388062,20.63720093,18.4734747564583,2013-01-13 11:00:00
"14",2013,14,19.16060791,35.17174683,26.12294731125,2013-01-14 11:00:00
"15",2013,15,26.25979004,40.93404541,33.788422520625,2013-01-15 11:00:00
"16",2013,16,25.16970215,38.29628906,31.3922808325,2013-01-16 11:00:00
"17",2013,17,21.21810303,30.01946411,24.4277835845833,2013-01-17 11:00:00
"18",2013,18,13.21349487,26.14818726,19.9126169839583,2013-01-18 11:00:00
"19",2013,19,16.34707031,28.05959473,22.3904974622917,2013-01-19 11:00:00
"20",2013,20,16.97789917,33.98540649,26.1132548010417,2013-01-20 11:00:00
"21",2013,21,23.71758423,39.02614746,31.6352567039583,2013-01-21 11:00:00
"22",2013,22,19.70012817,36.58083496,28.4994280495833,2013-01-22 11:00:00
"23",2013,23,23.03206787,35.70015869,28.0826456714583,2013-01-23 11:00:00
"24",2013,24,19.56624756,29.10143433,24.347908910625,2013-01-24 11:00:00
"25",2013,25,14.73485718,28.57232056,21.6629768377083,2013-01-25 11:00:00
"26",2013,26,16.61531982,30.59307251,24.190461094375,2013-01-26 11:00:00
"27",2013,27,19.41103516,32.06139526,26.1705401104167,2013-01-27 11:00:00
"28",2013,28,17.04046021,26.95189819,21.7556638077083,2013-01-28 11:00:00
"29",2013,29,15.79723511,29.73513184,23.0764817552083,2013-01-29 11:00:00
"30",2013,30,17.77022705,33.93828735,26.9817920683333,2013-01-30 11:00:00
"31",2013,31,17.09349976,29.21456299,23.392697270625,2013-01-31 11:00:00
"32",2013,32,15.30251465,29.03740845,22.3075665783333,2013-02-01 11:00:00
"33",2013,33,17.1307312,31.08754883,24.5319305429167,2013-02-02 11:00:00
"34",2013,34,19.14748535,33.42699585,26.7443080902083,2013-02-03 11:00:00
"35",2013,35,21.76506958,38.21734009,30.7047191620833,2013-02-04 11:00:00
"36",2013,36,21.08284912,36.26696167,29.9251953133333,2013-02-05 11:00:00
"37",2013,37,24.53814087,30.62972412,27.0038359329167,2013-02-06 11:00:00
"38",2013,38,17.90145264,30.72542725,24.6025380447917,2013-02-07 11:00:00
"39",2013,39,17.71004639,32.73516235,25.693132654375,2013-02-08 11:00:00
"40",2013,40,19.43267212,33.02227173,26.4966274258333,2013-02-09 11:00:00
"41",2013,41,17.61434326,31.96956787,25.1647830964583,2013-02-10 11:00:00
"42",2013,42,19.14556274,34.74489746,27.3280356083333,2013-02-11 11:00:00
"43",2013,43,20.5810791,35.60622559,28.6917822520833,2013-02-12 11:00:00
"44",2013,44,22.20800171,37.04174194,30.274842834375,2013-02-13 11:00:00
"45",2013,45,24.12203369,40.39129028,32.2765975945833,2013-02-14 11:00:00
"46",2013,46,23.64351807,39.91277466,32.2387144729167,2013-02-15 11:00:00
"47",2013,47,24.21773682,41.53969727,34.5724305479167,2013-02-16 11:00:00
"48",2013,48,22.63482056,40.29717407,34.237499491875,2013-02-17 11:00:00
"49",2013,49,17.09536133,27.22942505,21.8391529085417,2013-02-18 11:00:00
"50",2013,50,14.91814575,29.0928894,22.1847218829167,2013-02-19 11:00:00
"51",2013,51,18.48943481,27.95751343,23.499259566875,2013-02-20 11:00:00
"52",2013,52,20.99038086,35.65560303,28.3025051114583,2013-02-21 11:00:00
"53",2013,53,27.12844238,37.50985107,31.7739209502083,2013-02-22 11:00:00
"54",2013,54,20.3857666,26.99120483,23.5884058625,2013-02-23 11:00:00
"55",2013,55,16.47557983,30.03121338,23.6291678114583,2013-02-24 11:00:00
"56",2013,56,20.40856323,33.26195679,26.8954044341667,2013-02-25 11:00:00
"57",2013,57,22.29567871,30.4861084,26.1397796639583,2013-02-26 11:00:00
"58",2013,58,18.19606934,28.15392456,23.7202170052083,2013-02-27 11:00:00
"59",2013,59,16.03029785,25.78988037,21.2108620964583,2013-02-28 11:00:00
"60",2013,60,13.94121704,21.83519897,15.509765243125,2013-03-01 11:00:00
"61",2013,61,14.65731201,19.75963745,17.2439787545833,2013-03-02 11:00:00
"62",2013,62,18.52773438,29.95818481,23.7396249127083,2013-03-03 11:00:00
"63",2013,63,19.85964355,35.39959106,27.7827125541667,2013-03-04 11:00:00
"64",2013,64,20.25463257,34.08736572,27.49173762,2013-03-05 11:00:00
"65",2013,65,20.29586182,29.20736084,24.4754285175,2013-03-06 11:00:00
"66",2013,66,17.27443848,21.18840942,19.3750256847917,2013-03-07 11:00:00
"67",2013,67,15.45372925,26.35350952,21.0519367220833,2013-03-08 11:00:00
"68",2013,68,16.48546753,27.51220093,22.0869988764583,2013-03-09 11:00:00
"69",2013,69,19.54973755,31.26015625,24.990560785625,2013-03-10 11:00:00
"70",2013,70,18.87792358,26.39623413,22.31823946625,2013-03-11 11:00:00
"71",2013,71,13.94985352,22.30950317,18.327722805,2013-03-12 11:00:00
"72",2013,72,11.69616089,23.26696167,17.4837305704167,2013-03-13 11:00:00
"73",2013,73,14.16613159,23.33794556,18.6870876310417,2013-03-14 11:00:00
"74",2013,74,18.42962036,33.98656616,24.28769200625,2013-03-15 11:00:00
"75",2013,75,18.03939209,31.92635498,23.6118427275,2013-03-16 11:00:00
"76",2013,76,19.91900024,35.36940918,25.4695615125,2013-03-17 11:00:00
"77",2013,77,18.83040771,35.99181519,26.850878015625,2013-03-18 11:00:00
"78",2013,78,20.40731201,36.52211914,29.03145306875,2013-03-19 11:00:00
"79",2013,79,21.01372681,30.00011597,25.6962746935417,2013-03-20 11:00:00
"80",2013,80,15.07738647,22.89275513,18.73604418375,2013-03-21 11:00:00
"81",2013,81,14.85482178,27.52150879,20.91075286875,2013-03-22 11:00:00
"82",2013,82,16.01287231,30.61705933,23.9802522016667,2013-03-23 11:00:00
"83",2013,83,16.51891479,30.64949951,24.6720310208333,2013-03-24 11:00:00
"84",2013,84,19.7484375,37.16509399,28.1087203975,2013-03-25 11:00:00
"85",2013,85,11.83797607,24.6039978,18.5395834610417,2013-03-26 11:00:00
"86",2013,86,8.840325928,20.27001343,15.020694351,2013-03-27 11:00:00
"87",2013,87,10.59777222,20.87548218,16.10960032125,2013-03-28 11:00:00
"88",2013,88,11.59642944,23.83202515,17.8881647752083,2013-03-29 11:00:00
"89",2013,89,13.03225098,25.3979126,19.21068153375,2013-03-30 11:00:00
"90",2013,90,12.66497192,25.53395996,19.14932657875,2013-03-31 11:00:00
"91",2013,91,14.44909058,24.78130493,20.2278190614583,2013-04-01 11:00:00
"92",2013,92,14.96010742,27.60714111,21.6751724241667,2013-04-02 11:00:00
"93",2013,93,15.35247192,28.95327148,22.3936585741667,2013-04-03 11:00:00
"94",2013,94,17.01885376,30.55587158,24.00815417,2013-04-04 11:00:00
"95",2013,95,19.05278931,33.80864868,26.3180391952083,2013-04-05 11:00:00
"96",2013,96,20.13167725,33.19411621,26.2856829327083,2013-04-06 11:00:00
"97",2013,97,17.19606934,29.70357666,23.354489263125,2013-04-07 10:00:00
"98",2013,98,18.91872559,32.69707642,26.4959554039583,2013-04-08 10:00:00
"99",2013,99,21.56960449,33.40081177,27.3650464377083,2013-04-09 10:00:00
"100",2013,100,20.80916748,33.67788086,27.5128996525,2013-04-10 10:00:00
"101",2013,101,20.65831909,34.04537354,27.894951120625,2013-04-11 10:00:00
"102",2013,102,22.02266846,33.34093628,28.0165770214583,2013-04-12 10:00:00
"103",2013,103,21.14187012,27.8225647,24.8767645527083,2013-04-13 10:00:00
"104",2013,104,22.20180664,29.86031494,25.5616425835417,2013-04-14 10:00:00
"105",2013,105,18.39931641,29.62398682,24.0435621895833,2013-04-15 10:00:00
"106",2013,106,20.76452026,28.99120483,24.8189776102083,2013-04-16 10:00:00
"107",2013,107,16.731073,22.375177,19.3629718777083,2013-04-17 10:00:00
"108",2013,108,15.76436768,24.72478638,20.2670227047917,2013-04-18 10:00:00
"109",2013,109,17.23580322,25.22258911,20.7407082877083,2013-04-19 10:00:00
"110",2013,110,15.5671936,22.38399658,19.2240342460417,2013-04-20 10:00:00
"111",2013,111,11.534021,20.40648804,15.7767832445833,2013-04-21 10:00:00
"112",2013,112,10.8795105,21.21239624,16.30476468375,2013-04-22 10:00:00
"113",2013,113,13.824823,24.12151489,19.4009293872917,2013-04-23 10:00:00
"114",2013,114,14.16661987,25.45107422,19.9689517977083,2013-04-24 10:00:00
"115",2013,115,14.7675415,26.17723999,21.2590328216667,2013-04-25 10:00:00
"116",2013,116,20.51784668,30.07848511,24.7920795441667,2013-04-26 10:00:00
"117",2013,117,17.46306763,28.73156128,23.5626433058333,2013-04-27 10:00:00
"118",2013,118,15.10888062,24.16106567,19.6609696710417,2013-04-28 10:00:00
"119",2013,119,14.47438965,24.06426392,18.527808125625,2013-04-29 10:00:00
"120",2013,120,14.59069214,27.95256958,20.9812452958333,2013-04-30 10:00:00
"121",2013,121,17.81209717,32.34627686,25.2646760304167,2013-05-01 10:00:00
"122",2013,122,18.17739258,28.75084839,23.6418707527083,2013-05-02 10:00:00
"123",2013,123,16.1071106,23.92418823,19.1561396279167,2013-05-03 10:00:00
"124",2013,124,14.21685181,25.61696777,19.3935066222917,2013-05-04 10:00:00
"125",2013,125,13.88210449,27.03933105,20.5576492304167,2013-05-05 10:00:00
"126",2013,126,16.49196777,29.82149658,22.9721472425,2013-05-06 10:00:00
"127",2013,127,20.57650146,28.56276855,24.2903826397917,2013-05-07 10:00:00
"128",2013,128,14.5664917,22.77877197,19.5668801627083,2013-05-08 10:00:00
"129",2013,129,11.49935303,18.65950928,14.7752109529167,2013-05-09 10:00:00
"130",2013,130,11.77422485,18.51342163,14.6890337620833,2013-05-10 10:00:00
"131",2013,131,9.52855835,17.57595215,13.4813463842917,2013-05-11 10:00:00
"132",2013,132,7.920953369,17.66744385,13.0153270714583,2013-05-12 10:00:00
"133",2013,133,10.4427124,15.27718506,12.5057362872917,2013-05-13 10:00:00
"134",2013,134,9.292016602,15.15667114,12.322516378125,2013-05-14 10:00:00
"135",2013,135,9.508325195,18.83251343,13.9563073480208,2013-05-15 10:00:00
"136",2013,136,8.460748291,20.48314819,14.5576416021042,2013-05-16 10:00:00
"137",2013,137,10.10820923,22.64959106,16.774667994375,2013-05-17 10:00:00
"138",2013,138,13.14815674,21.92876587,17.074199930625,2013-05-18 10:00:00
"139",2013,139,12.17324219,23.82769165,17.4501796720833,2013-05-19 10:00:00
"140",2013,140,10.30916748,19.28051147,14.7593322758333,2013-05-20 10:00:00
"141",2013,141,9.20836792,17.86583862,13.4961722059792,2013-05-21 10:00:00
"142",2013,142,7.782800293,15.26082764,11.2692256925417,2013-05-22 10:00:00
"143",2013,143,5.802331543,17.81060181,11.4115348815625,2013-05-23 10:00:00
"144",2013,144,5.379937744,17.04949341,11.4934345243125,2013-05-24 10:00:00
"145",2013,145,7.574639893,19.55996094,13.35118255675,2013-05-25 10:00:00
"146",2013,146,9.662774658,22.78408203,16.0497540797292,2013-05-26 10:00:00
"147",2013,147,13.20671997,23.67565308,18.6064296725,2013-05-27 10:00:00
"148",2013,148,13.75969849,18.8935791,16.2020533254167,2013-05-28 10:00:00
"149",2013,149,10.82085571,16.09725342,13.3684523264583,2013-05-29 10:00:00
"150",2013,150,6.941888428,15.85003052,11.2204516092083,2013-05-30 10:00:00
"151",2013,151,5.242028809,12.10054932,8.37033551566667,2013-05-31 10:00:00
"152",2013,152,5.914880371,14.92070923,10.3129370367708,2013-06-01 10:00:00
"153",2013,153,9.338830566,12.68099365,11.2500587464583,2013-06-02 10:00:00
"154",2013,154,10.40337524,15.08178101,12.404943084375,2013-06-03 10:00:00
"155",2013,155,9.510552979,14.15001831,11.80018895525,2013-06-04 10:00:00
"156",2013,156,9.901483154,17.92098389,13.5664535525417,2013-06-05 10:00:00
"157",2013,157,6.90960083,17.55535278,13.0400793707708,2013-06-06 10:00:00
"158",2013,158,8.401116943,17.75985107,13.3016754144375,2013-06-07 10:00:00
"159",2013,159,7.067803955,20.61721191,14.548479334,2013-06-08 10:00:00
"160",2013,160,11.41719971,21.19954834,16.373108165,2013-06-09 10:00:00
"161",2013,161,9.410943604,16.61062012,13.7129506426042,2013-06-10 10:00:00
"162",2013,162,4.960290527,13.97393188,9.4615112301875,2013-06-11 10:00:00
"163",2013,163,4.703179932,10.1050354,7.85389162702083,2013-06-12 10:00:00
"164",2013,164,4.403833008,15.75899658,10.21606788675,2013-06-13 10:00:00
"165",2013,165,6.282617188,11.9125,9.09806976320833,2013-06-14 10:00:00
"166",2013,166,7.803613281,15.41735229,11.1325419104583,2013-06-15 10:00:00
"167",2013,167,9.15960083,16.3878418,12.7274147033125,2013-06-16 10:00:00
"168",2013,168,8.017297363,15.85180054,12.0627965290625,2013-06-17 10:00:00
"169",2013,169,6.415155029,15.57784424,10.6931936896458,2013-06-18 10:00:00
"170",2013,170,6.865777588,15.95769653,10.9436342877083,2013-06-19 10:00:00
"171",2013,171,6.04644165,16.8328186,11.2629816684167,2013-06-20 10:00:00
"172",2013,172,5.727624512,16.40905151,10.232048924375,2013-06-21 10:00:00
"173",2013,173,3.903192139,17.62474976,10.4241195679792,2013-06-22 10:00:00
"174",2013,174,4.879815674,19.31655273,12.4825944257708,2013-06-23 10:00:00
"175",2013,175,10.45070801,17.26836548,13.8722009025,2013-06-24 10:00:00
"176",2013,176,11.88741455,18.06801758,13.8012443547917,2013-06-25 10:00:00
"177",2013,177,10.5057312,16.6291748,13.3561855310417,2013-06-26 10:00:00
"178",2013,178,10.39318237,17.08468018,13.2205921177083,2013-06-27 10:00:00
"179",2013,179,8.685754395,18.24053345,12.9554897308125,2013-06-28 10:00:00
"180",2013,180,9.098687744,18.86397705,13.5335727689792,2013-06-29 10:00:00
"181",2013,181,7.921990967,18.9822937,13.318577067375,2013-06-30 10:00:00
"182",2013,182,7.80324707,19.65734253,13.5676392872292,2013-07-01 10:00:00
"183",2013,183,6.163293457,20.51571045,14.1125675205,2013-07-02 10:00:00
"184",2013,184,11.05236206,18.50048218,14.5294300085417,2013-07-03 10:00:00
"185",2013,185,4.372888184,13.65084229,9.0720649718125,2013-07-04 10:00:00
"186",2013,186,4.491693115,13.28341064,8.10839106225,2013-07-05 10:00:00
"187",2013,187,2.803918457,13.39742432,8.1012804666875,2013-07-06 10:00:00
"188",2013,188,3.754663086,13.41414795,8.43503850289583,2013-07-07 10:00:00
"189",2013,189,3.06105957,15.47371826,9.3288951874375,2013-07-08 10:00:00
"190",2013,190,5.667779541,21.23668823,13.6227146147917,2013-07-09 10:00:00
"191",2013,191,10.28759155,21.10241089,15.4802611033333,2013-07-10 10:00:00
"192",2013,192,9.752099609,20.8713623,15.3013104748333,2013-07-11 10:00:00
"193",2013,193,9.491418457,14.63796387,11.6142027535208,2013-07-12 10:00:00
"194",2013,194,8.240472412,16.32952271,11.1352961224583,2013-07-13 10:00:00
"195",2013,195,8.51986084,19.42510376,13.4842569986458,2013-07-14 10:00:00
"196",2013,196,7.952203369,24.36651001,16.3826360073542,2013-07-15 10:00:00
"197",2013,197,9.917108154,19.8461853,15.5415874472708,2013-07-16 10:00:00
"198",2013,198,7.626550293,11.62865601,9.365305201625,2013-07-17 10:00:00
"199",2013,199,4.401696777,11.05065308,8.09458376529167,2013-07-18 10:00:00
"200",2013,200,3.957147217,11.77453003,8.23895289102083,2013-07-19 10:00:00
"201",2013,201,3.411584473,10.82439575,7.900355275375,2013-07-20 10:00:00
"202",2013,202,5.966699219,12.36708984,9.27309888160417,2013-07-21 10:00:00
"203",2013,203,3.74276123,15.16335449,9.33413721679167,2013-07-22 10:00:00
"204",2013,204,4.259423828,21.0095459,13.111739731625,2013-07-23 10:00:00
"205",2013,205,11.85466919,16.38512573,14.3190335589583,2013-07-24 10:00:00
"206",2013,206,7.293206787,20.63863525,14.2719748175833,2013-07-25 10:00:00
"207",2013,207,10.71099243,17.3376709,14.0615732835417,2013-07-26 10:00:00
"208",2013,208,8.913598633,15.20769653,12.1099589036875,2013-07-27 10:00:00
"209",2013,209,7.24743042,16.10500488,11.7411418914167,2013-07-28 10:00:00
"210",2013,210,10.48638306,17.60872803,13.7704158785417,2013-07-29 10:00:00
"211",2013,211,7.2277771,18.07631836,13.537112172875,2013-07-30 10:00:00
"212",2013,212,9.523217773,19.67504272,14.7109422044375,2013-07-31 10:00:00
"213",2013,213,10.96047363,18.54754028,14.4012631735417,2013-08-01 10:00:00
"214",2013,214,8.453973389,20.24157104,14.5247455594375,2013-08-02 10:00:00
"215",2013,215,9.538323975,22.36660156,15.6188446045417,2013-08-03 10:00:00
"216",2013,216,10.19359741,24.86504517,18.0472560885417,2013-08-04 10:00:00
"217",2013,217,10.47969971,21.10048828,16.49918518125,2013-08-05 10:00:00
"218",2013,218,10.03243408,21.63613281,16.296442286875,2013-08-06 10:00:00
"219",2013,219,13.37853394,25.30507813,19.6132083895833,2013-08-07 10:00:00
"220",2013,220,13.34386597,26.46218262,18.3872257239583,2013-08-08 10:00:00
"221",2013,221,9.735864258,17.66799316,13.4670813240208,2013-08-09 10:00:00
"222",2013,222,8.332666016,20.28545532,14.1501174932292,2013-08-10 10:00:00
"223",2013,223,9.032983398,17.77874146,12.8539787297708,2013-08-11 10:00:00
"224",2013,224,6.533197021,17.88106689,12.2238123574167,2013-08-12 10:00:00
"225",2013,225,7.784570313,18.83614502,13.4643945055208,2013-08-13 10:00:00
"226",2013,226,8.620874023,19.77437744,14.0614798232292,2013-08-14 10:00:00
"227",2013,227,9.164178467,20.22069702,14.5557622271667,2013-08-15 10:00:00
"228",2013,228,4.256677246,13.44411621,9.54432767222917,2013-08-16 10:00:00
"229",2013,229,6.09697876,15.92336426,11.4649018609792,2013-08-17 10:00:00
"230",2013,230,10.98882446,16.06078491,13.4789164225,2013-08-18 10:00:00
"231",2013,231,10.06923828,17.57851563,13.2389420835417,2013-08-19 10:00:00
"232",2013,232,8.885339355,20.35354004,14.3385063177917,2013-08-20 10:00:00
"233",2013,233,7.647821045,19.23916016,13.55788319875,2013-08-21 10:00:00
"234",2013,234,8.116418457,19.88826904,13.94417915375,2013-08-22 10:00:00
"235",2013,235,8.545007324,21.03615723,14.8772547414792,2013-08-23 10:00:00
"236",2013,236,10.5447937,24.17348633,17.36858838375,2013-08-24 10:00:00
"237",2013,237,10.64556274,25.09429321,18.7158638,2013-08-25 10:00:00
"238",2013,238,11.40102539,19.71099243,15.88717104625,2013-08-26 10:00:00
"239",2013,239,8.321160889,20.49361572,15.3071380615625,2013-08-27 10:00:00
"240",2013,240,9.698846436,15.26671753,12.0279594430208,2013-08-28 10:00:00
"241",2013,241,8.065484619,18.8956543,13.7218522388542,2013-08-29 10:00:00
"242",2013,242,9.691125488,21.08760986,15.4511250811458,2013-08-30 10:00:00
"243",2013,243,11.14022217,23.4225708,17.3068843841667,2013-08-31 10:00:00
"244",2013,244,11.40508423,24.5710083,18.5943307247917,2013-09-01 10:00:00
"245",2013,245,13.10994873,29.03252563,21.19201113375,2013-09-02 10:00:00
"246",2013,246,14.68175659,23.57576904,19.0461561841667,2013-09-03 10:00:00
"247",2013,247,9.959741211,17.50936279,14.1310503646042,2013-09-04 10:00:00
"248",2013,248,7.748834229,17.49978027,12.7953824358333,2013-09-05 10:00:00
"249",2013,249,7.772698975,20.28881226,13.8124163312292,2013-09-06 10:00:00
"250",2013,250,12.62355957,17.28157959,14.7847508754167,2013-09-07 10:00:00
"251",2013,251,10.25591431,18.28170166,14.1487728120833,2013-09-08 10:00:00
"252",2013,252,8.5347229,19.32439575,14.1794906615208,2013-09-09 10:00:00
"253",2013,253,10.19100342,26.76339111,18.8544460297917,2013-09-10 10:00:00
"254",2013,254,13.64370117,21.31813965,16.3769368491667,2013-09-11 10:00:00
"255",2013,255,10.36879883,17.92745361,13.8527561189583,2013-09-12 10:00:00
"256",2013,256,8.086938477,20.76351318,15.07847429925,2013-09-13 10:00:00
"257",2013,257,11.3638855,15.67046509,13.3313423154167,2013-09-14 10:00:00
"258",2013,258,9.851586914,15.62835083,12.5036083218958,2013-09-15 10:00:00
"259",2013,259,9.976617432,22.63143311,15.976882553375,2013-09-16 10:00:00
"260",2013,260,8.152947998,15.5921875,11.7123561862292,2013-09-17 10:00:00
"261",2013,261,7.279443359,19.33599243,13.4805262248958,2013-09-18 10:00:00
"262",2013,262,9.39019165,22.39064941,16.2699714665,2013-09-19 10:00:00
"263",2013,263,10.18581543,25.01168213,18.880557631875,2013-09-20 10:00:00
"264",2013,264,11.78078613,25.20473633,18.464891051875,2013-09-21 10:00:00
"265",2013,265,13.33794556,20.10872803,17.1942834216667,2013-09-22 10:00:00
"266",2013,266,12.9293457,21.52800903,16.7401856739583,2013-09-23 10:00:00
"267",2013,267,14.98769531,23.21843872,18.9420435579167,2013-09-24 10:00:00
"268",2013,268,11.49749146,21.88555298,16.7177584325,2013-09-25 10:00:00
"269",2013,269,11.54821167,25.24877319,18.858904775,2013-09-26 10:00:00
"270",2013,270,9.118463135,22.47350464,16.2271959939167,2013-09-27 10:00:00
"271",2013,271,11.34401855,27.99727783,20.1276699077083,2013-09-28 10:00:00
"272",2013,272,10.46724854,26.06594238,18.7967887879167,2013-09-29 10:00:00
"273",2013,273,10.73656616,17.72493896,14.5993750252083,2013-09-30 10:00:00
"274",2013,274,6.769158936,23.27752075,15.3432600656042,2013-10-01 10:00:00
"275",2013,275,10.4053894,26.39803467,18.6144411722917,2013-10-02 10:00:00
"276",2013,276,13.56905518,32.26506958,23.604580815625,2013-10-03 10:00:00
"277",2013,277,18.10180054,27.80043945,23.1441277829167,2013-10-04 10:00:00
"278",2013,278,14.1874939,26.92766724,21.00977096625,2013-10-05 10:00:00
"279",2013,279,13.89281616,27.76552734,21.329386011875,2013-10-06 11:00:00
"280",2013,280,14.23119507,31.92693481,23.7918716427083,2013-10-07 11:00:00
"281",2013,281,19.0078064,34.99639282,26.5144369764583,2013-10-08 11:00:00
"282",2013,282,9.818994141,23.20931396,15.0693381003958,2013-10-09 11:00:00
"283",2013,283,8.341394043,22.81932983,15.7776332857917,2013-10-10 11:00:00
"284",2013,284,13.19411621,28.46889648,20.8635294591667,2013-10-11 11:00:00
"285",2013,285,12.14946899,19.15535889,15.14993120875,2013-10-12 11:00:00
"286",2013,286,7.150445557,20.12508545,13.9226833340625,2013-10-13 11:00:00
"287",2013,287,9.057885742,24.26848755,17.436198807,2013-10-14 11:00:00
"288",2013,288,14.98687134,31.07320557,23.196565246875,2013-10-15 11:00:00
"289",2013,289,13.6607605,25.27745972,20.0483299258333,2013-10-16 11:00:00
"290",2013,290,11.77428589,29.39476929,21.1842870070833,2013-10-17 11:00:00
"291",2013,291,17.85,33.45385132,26.1145136516667,2013-10-18 11:00:00
"292",2013,292,16.16994629,28.32357178,21.6712998704167,2013-10-19 11:00:00
"293",2013,293,9.663232422,17.59560547,13.5742101028333,2013-10-20 11:00:00
"294",2013,294,8.051293945,19.27364502,13.2173299155417,2013-10-21 11:00:00
"295",2013,295,7.658959961,21.49627075,14.8220624284167,2013-10-22 11:00:00
"296",2013,296,9.922418213,23.38979492,17.2688982649583,2013-10-23 11:00:00
"297",2013,297,13.23650513,23.2651001,18.015939331875,2013-10-24 11:00:00
"298",2013,298,15.63210449,34.1696106,25.6979226441667,2013-10-25 11:00:00
"299",2013,299,17.86083374,31.51021729,25.11088206,2013-10-26 11:00:00
"300",2013,300,14.018396,30.24382935,22.56700032625,2013-10-27 11:00:00
"301",2013,301,15.56447754,29.56005249,23.0269040429167,2013-10-28 11:00:00
"302",2013,302,15.95281372,31.33867798,24.1143597929167,2013-10-29 11:00:00
"303",2013,303,18.52172241,34.09603271,27.1091495510417,2013-10-30 11:00:00
"304",2013,304,20.84017334,37.57265625,30.4817768104167,2013-10-31 11:00:00
"305",2013,305,20.0135437,38.30336914,30.476187006875,2013-11-01 11:00:00
"306",2013,306,16.35442505,27.92611084,21.3019856766667,2013-11-02 11:00:00
"307",2013,307,13.8121582,30.75545654,22.2178735104167,2013-11-03 11:00:00
"308",2013,308,21.259729,36.26415405,28.811939494375,2013-11-04 11:00:00
"309",2013,309,22.00768433,36.64406738,29.6300763447917,2013-11-05 11:00:00
"310",2013,310,14.90444336,31.89562378,23.2639925641667,2013-11-06 11:00:00
"311",2013,311,15.30474243,24.02687988,19.4694960272917,2013-11-07 11:00:00
"312",2013,312,13.09557495,24.99123535,19.2610272722917,2013-11-08 11:00:00
"313",2013,313,13.115625,27.3359314,20.8990010591667,2013-11-09 11:00:00
"314",2013,314,14.9621521,27.8746582,21.9938261666667,2013-11-10 11:00:00
"315",2013,315,15.71734009,29.55010376,23.2185213722917,2013-11-11 11:00:00
"316",2013,316,18.15001831,33.00820313,26.4686612445833,2013-11-12 11:00:00
"317",2013,317,19.29229126,33.40023193,27.4724072772917,2013-11-13 11:00:00
"318",2013,318,17.62563477,35.27111206,27.66294949875,2013-11-14 11:00:00
"319",2013,319,14.99505005,29.29332886,22.6826193502083,2013-11-15 11:00:00
"320",2013,320,15.95015869,31.19741211,23.81147282875,2013-11-16 11:00:00
"321",2013,321,19.3255249,32.7199646,25.1946458183333,2013-11-17 11:00:00
"322",2013,322,14.59111938,28.9454895,23.1372823079167,2013-11-18 11:00:00
"323",2013,323,9.805932617,14.02285156,11.5303105670833,2013-11-19 11:00:00
"324",2013,324,9.939569092,19.81417236,15.021647389625,2013-11-20 11:00:00
"325",2013,325,11.88283691,25.9493042,19.3415440872917,2013-11-21 11:00:00
"326",2013,326,16.03188477,28.39293823,22.315645471875,2013-11-22 11:00:00
"327",2013,327,17.52416382,32.05391846,24.9444868725,2013-11-23 11:00:00
"328",2013,328,20.96682129,32.03688965,26.5396444954167,2013-11-24 11:00:00
"329",2013,329,16.26271973,29.98342285,23.691890335625,2013-11-25 11:00:00
"330",2013,330,15.48458252,33.60897217,25.3444534297917,2013-11-26 11:00:00
"331",2013,331,15.50280151,27.93493042,20.351693089375,2013-11-27 11:00:00
"332",2013,332,14.04772339,27.30513916,20.12433904,2013-11-28 11:00:00
"333",2013,333,18.2086731,34.72103271,25.2316699979167,2013-11-29 11:00:00
"334",2013,334,16.27611694,26.58965454,21.37291043625,2013-11-30 11:00:00
"335",2013,335,15.12749634,30.15194092,22.8126471208333,2013-12-01 11:00:00
"336",2013,336,17.29546509,34.64263306,26.8813809716667,2013-12-02 11:00:00
"337",2013,337,17.34169922,28.33114014,23.0514535266667,2013-12-03 11:00:00
"338",2013,338,12.04723511,24.06902466,18.7301428475,2013-12-04 11:00:00
"339",2013,339,13.143396,26.57909546,20.5697678889583,2013-12-05 11:00:00
"340",2013,340,15.42693481,23.82412109,20.45427792875,2013-12-06 11:00:00
"341",2013,341,17.92492065,34.6647583,26.8695140835417,2013-12-07 11:00:00
"342",2013,342,17.78997192,29.45229492,22.533547973125,2013-12-08 11:00:00
"343",2013,343,16.47173462,28.14229736,22.1630804702083,2013-12-09 11:00:00
"344",2013,344,16.06478271,26.80135498,21.077853139375,2013-12-10 11:00:00
"345",2013,345,14.75231323,29.72817383,23.1882148735417,2013-12-11 11:00:00
"346",2013,346,17.60808716,32.22600708,25.8729225158333,2013-12-12 11:00:00
"347",2013,347,20.1927124,34.35613403,27.9545494075,2013-12-13 11:00:00
"348",2013,348,21.82592163,35.89650879,29.6136267339583,2013-12-14 11:00:00
"349",2013,349,23.19759521,37.61403809,31.25600140875,2013-12-15 11:00:00
"350",2013,350,23.95064697,39.28795776,32.8181015014583,2013-12-16 11:00:00
"351",2013,351,26.50359497,38.95641479,34.1591754914583,2013-12-17 11:00:00
"352",2013,352,26.36895142,39.1402832,32.3708218895833,2013-12-18 11:00:00
"353",2013,353,17.25682983,25.42513428,20.8875760404167,2013-12-19 11:00:00
"354",2013,354,15.15410767,18.87502441,16.7455230716667,2013-12-20 11:00:00
"355",2013,355,12.59554443,22.22750244,17.3156327566667,2013-12-21 11:00:00
"356",2013,356,12.89904175,25.30401001,19.2086921691667,2013-12-22 11:00:00
"357",2013,357,16.45687256,31.04906616,24.264569219375,2013-12-23 11:00:00
"358",2013,358,18.69481812,36.06096802,28.52995389375,2013-12-24 11:00:00
"359",2013,359,17.98568115,35.17809448,26.8120717360417,2013-12-25 11:00:00
"360",2013,360,22.15783081,41.32387695,32.199779764375,2013-12-26 11:00:00
"361",2013,361,22.58458862,36.74691162,30.595651245,2013-12-27 11:00:00
"362",2013,362,17.13790283,32.46419678,25.1394401545833,2013-12-28 11:00:00
"363",2013,363,21.99498901,39.2081543,29.2413707729167,2013-12-29 11:00:00
"364",2013,364,28.35216675,40.61748657,33.7513538360417,2013-12-30 11:00:00
"365",2013,365,23.00536499,36.20955811,30.6240968072917,2013-12-31 11:00:00
"366",2014,1,17.09536133,22.99071655,19.9947594960417,2014-01-01 11:00:00
"367",2014,2,16.02410278,30.137323,23.0807707472917,2014-01-02 11:00:00
"368",2014,3,15.72026978,27.25939331,21.7665484110417,2014-01-03 11:00:00
"369",2014,4,17.00753174,33.04058228,25.4789049789583,2014-01-04 11:00:00
"370",2014,5,15.3166748,30.35149536,23.293476994375,2014-01-05 11:00:00
"371",2014,6,19.50148926,35.55492554,27.8497660316667,2014-01-06 11:00:00
"372",2014,7,23.15145264,41.6145874,33.051015473125,2014-01-07 11:00:00
"373",2014,8,19.82503662,37.97786865,30.01916402125,2014-01-08 11:00:00
"374",2014,9,20.50127563,36.53569946,28.954436874375,2014-01-09 11:00:00
"375",2014,10,21.6,35.86907349,29.3128524783333,2014-01-10 11:00:00
"376",2014,11,22.37301025,37.98742065,30.5293015791667,2014-01-11 11:00:00
"377",2014,12,24.68984375,41.39165649,33.4625462852083,2014-01-12 11:00:00
"378",2014,13,29.9477478,41.11177979,35.9437925972917,2014-01-13 11:00:00
"379",2014,14,19.21755371,37.09920654,29.2840273539583,2014-01-14 11:00:00
"380",2014,15,21.1249939,41.0956665,30.7975752516667,2014-01-15 11:00:00
"381",2014,16,19.27694092,33.05016479,26.3032578789583,2014-01-16 11:00:00
"382",2014,17,16.94591675,31.0246521,24.0886703491667,2014-01-17 11:00:00
"383",2014,18,17.8409668,32.99242554,25.816099421875,2014-01-18 11:00:00
"384",2014,19,19.99120483,34.21022949,27.6968456266667,2014-01-19 11:00:00
"385",2014,20,20.56765137,33.85927734,28.0245522816667,2014-01-20 11:00:00
"386",2014,21,17.87615356,28.27242432,21.257208124375,2014-01-21 11:00:00
"387",2014,22,18.28814087,19.26516113,18.761968866875,2014-01-22 11:00:00
"388",2014,23,17.75551758,20.37157593,18.8956244152083,2014-01-23 11:00:00
"389",2014,24,17.58724365,22.44143066,20.1192686714583,2014-01-24 11:00:00
"390",2014,25,18.67980347,27.18309937,22.0739754997917,2014-01-25 11:00:00
"391",2014,26,21.43169556,34.63872681,26.7802552545833,2014-01-26 11:00:00
"392",2014,27,22.68267212,35.71322021,29.0193655647917,2014-01-27 11:00:00
"393",2014,28,17.60866699,25.01131592,21.1932858789583,2014-01-28 11:00:00
"394",2014,29,16.61739502,29.9348999,23.1569718670833,2014-01-29 11:00:00
"395",2014,30,19.91906128,35.89370117,28.22098058125,2014-01-30 11:00:00
"396",2014,31,24.61138306,39.03768311,31.4934453333333,2014-01-31 11:00:00
"397",2014,32,24.61629639,35.37459717,29.28460782375,2014-02-01 11:00:00
"398",2014,33,18.18822632,27.92470703,21.9877620695833,2014-02-02 11:00:00
"399",2014,34,15.37407837,27.75307617,21.37479108125,2014-02-03 11:00:00
"400",2014,35,15.76558838,31.58434448,23.8078634895833,2014-02-04 11:00:00
"401",2014,36,19.65386353,36.31395874,28.8861042025,2014-02-05 11:00:00
"402",2014,37,25.59627686,38.07341919,31.6050303141667,2014-02-06 11:00:00
"403",2014,38,20.99361572,38.43352661,29.1635452266667,2014-02-07 11:00:00
"404",2014,39,18.21410522,28.50838623,23.3952512108333,2014-02-08 11:00:00
"405",2014,40,15.46947632,29.05724487,22.0926344552083,2014-02-09 11:00:00
"406",2014,41,20.6111084,38.20110474,29.5810613,2014-02-10 11:00:00
"407",2014,42,23.22796021,32.78746948,27.7670614870833,2014-02-11 11:00:00
"408",2014,43,20.38823853,24.13063965,21.857919946875,2014-02-12 11:00:00
"409",2014,44,19.16646729,22.96819458,20.4109925585417,2014-02-13 11:00:00
"410",2014,45,18.33754883,29.06948242,22.9071982066667,2014-02-14 11:00:00
"411",2014,46,18.36501465,31.54006348,25.2036860141667,2014-02-15 11:00:00
"412",2014,47,20.50472412,35.16427002,28.5229895277083,2014-02-16 11:00:00
"413",2014,48,20.08757935,33.52483521,27.399189250625,2014-02-17 11:00:00
"414",2014,49,18.31322632,29.88149414,24.2151911416667,2014-02-18 11:00:00
"415",2014,50,16.12716064,27.96437988,22.25314483625,2014-02-19 11:00:00
"416",2014,51,15.6135498,27.75078735,22.126467005625,2014-02-20 11:00:00
"417",2014,52,16.23430786,25.37441406,21.2532389310417,2014-02-21 11:00:00
"418",2014,53,16.65966187,27.27599487,21.7271788275,2014-02-22 11:00:00
"419",2014,54,18.7739502,30.77245483,24.3678260804167,2014-02-23 11:00:00
"420",2014,55,19.61956177,33.42104492,27.0452253977083,2014-02-24 11:00:00
"421",2014,56,19.53145752,31.52956543,25.3122351333333,2014-02-25 11:00:00
"422",2014,57,16.58709106,25.45186768,20.633675511875,2014-02-26 11:00:00
"423",2014,58,14.47417603,26.65007935,20.6675690972917,2014-02-27 11:00:00
"424",2014,59,15.41494141,28.02678833,21.7383876802083,2014-02-28 11:00:00
"425",2014,60,15.5956665,29.47664795,22.7027723947917,2014-03-01 11:00:00
"426",2014,61,17.39983521,32.50856934,25.20723368375,2014-03-02 11:00:00
"427",2014,62,19.85827026,36.07247314,28.2309331260417,2014-03-03 11:00:00
"428",2014,63,18.66716919,34.56859741,26.9280220035417,2014-03-04 11:00:00
"429",2014,64,16.15496216,29.31005249,22.8838166560417,2014-03-05 11:00:00
"430",2014,65,17.54580078,23.70995483,21.0605890914583,2014-03-06 11:00:00
"431",2014,66,16.79696045,34.2678772,25.2328322095833,2014-03-07 11:00:00
"432",2014,67,21.88985596,35.88872681,29.0751459760417,2014-03-08 11:00:00
"433",2014,68,18.03826294,29.87978516,24.0024848933333,2014-03-09 11:00:00
"434",2014,69,17.36400757,29.99355469,23.8129681914583,2014-03-10 11:00:00
"435",2014,70,20.17531738,30.07680664,25.3096150716667,2014-03-11 11:00:00
"436",2014,71,19.3545166,31.66265259,25.5845282241667,2014-03-12 11:00:00
"437",2014,72,21.15880737,34.94970093,26.01004117375,2014-03-13 11:00:00
"438",2014,73,20.49602661,28.95525513,24.5057140345833,2014-03-14 11:00:00
"439",2014,74,12.7413269,27.19771729,20.3747637427083,2014-03-15 11:00:00
"440",2014,75,14.05883179,30.58339844,23.167035675625,2014-03-16 11:00:00
"441",2014,76,19.04180298,34.87423096,27.4126125341667,2014-03-17 11:00:00
"442",2014,77,18.89147339,30.73549805,24.9477700554167,2014-03-18 11:00:00
"443",2014,78,21.64034424,32.68230591,25.5548428860417,2014-03-19 11:00:00
"444",2014,79,19.17650757,27.85494385,23.4727003725,2014-03-20 11:00:00
"445",2014,80,16.04250488,25.01503906,20.485772705,2014-03-21 11:00:00
"446",2014,81,16.63970337,23.15749512,20.57713788375,2014-03-22 11:00:00
"447",2014,82,14.75274048,25.8142334,20.20650698375,2014-03-23 11:00:00
"448",2014,83,15.26348267,28.07711182,21.92097689375,2014-03-24 11:00:00
"449",2014,84,15.13686523,27.40517578,21.4785463977083,2014-03-25 11:00:00
"450",2014,85,15.32424316,27.02550659,22.1275897972917,2014-03-26 11:00:00
"451",2014,86,19.80986938,26.70061646,23.2630185452083,2014-03-27 11:00:00
"452",2014,87,16.64779053,29.82805786,23.8530918122917,2014-03-28 11:00:00
"453",2014,88,18.58748779,32.29897461,23.7319675439583,2014-03-29 11:00:00
"454",2014,89,17.23998413,25.28334961,20.3553984320833,2014-03-30 11:00:00
"455",2014,90,13.73687134,29.68441162,21.9086655935417,2014-03-31 11:00:00
"456",2014,91,14.96221313,22.91637573,19.4440367377083,2014-04-01 11:00:00
"457",2014,92,12.07229004,21.50606689,16.7318944295833,2014-04-02 11:00:00
"458",2014,93,9.897821045,22.9218689,16.9147157032917,2014-04-03 11:00:00
"459",2014,94,12.14342651,25.11187134,19.0492410029167,2014-04-04 11:00:00
"460",2014,95,15.56896362,18.68624268,17.1456918085417,2014-04-05 11:00:00
"461",2014,96,14.46331177,25.55956421,19.068050639375,2014-04-06 10:00:00
"462",2014,97,14.33721313,22.66869507,18.363938268125,2014-04-07 10:00:00
"463",2014,98,13.6085144,22.92873535,18.3831382752083,2014-04-08 10:00:00
"464",2014,99,13.89925537,21.91777954,17.48526153625,2014-04-09 10:00:00
"465",2014,100,13.50188599,22.37593994,17.4545176191667,2014-04-10 10:00:00
"466",2014,101,14.32644043,25.78673706,19.9750108083333,2014-04-11 10:00:00
"467",2014,102,14.02150879,28.46456299,21.278832371875,2014-04-12 10:00:00
"468",2014,103,15.79406128,29.05874023,22.7796792345833,2014-04-13 10:00:00
"469",2014,104,15.18013916,27.41741333,21.6731722520833,2014-04-14 10:00:00
"470",2014,105,15.50713501,30.25237427,23.133320109375,2014-04-15 10:00:00
"471",2014,106,16.43602905,29.77529297,23.2820672352083,2014-04-16 10:00:00
"472",2014,107,18.44924316,30.79317627,25.2255461375,2014-04-17 10:00:00
"473",2014,108,15.38826904,28.39232788,21.8942053477083,2014-04-18 10:00:00
"474",2014,109,16.96804199,31.98626099,24.2808999375,2014-04-19 10:00:00
"475",2014,110,13.82735596,31.03783569,22.9861891427083,2014-04-20 10:00:00
"476",2014,111,14.93587646,23.15923462,18.70632260625,2014-04-21 10:00:00
"477",2014,112,10.21798096,23.51897583,17.1447400408333,2014-04-22 10:00:00
"478",2014,113,14.14928589,26.89031372,20.7710592904167,2014-04-23 10:00:00
"479",2014,114,16.81560669,26.68398438,22.1425141660417,2014-04-24 10:00:00
"480",2014,115,15.7802063,21.29470215,17.3799396514583,2014-04-25 10:00:00
"481",2014,116,15.75585327,23.50887451,18.7844043727083,2014-04-26 10:00:00
"482",2014,117,17.70116577,22.80809937,19.8753473922917,2014-04-27 10:00:00
"483",2014,118,10.26830444,17.71303711,15.0726702375,2014-04-28 10:00:00
"484",2014,119,6.982598877,18.34331665,12.7594212853542,2014-04-29 10:00:00
"485",2014,120,8.719750977,20.29540405,14.5977296184375,2014-04-30 10:00:00
"486",2014,121,8.162347412,18.99758301,14.5080257411875,2014-05-01 10:00:00
"487",2014,122,7.136834717,15.8532959,11.7108137765208,2014-05-02 10:00:00
"488",2014,123,9.087518311,17.14364014,13.9015257512292,2014-05-03 10:00:00
"489",2014,124,14.22646484,18.66799316,16.2367759708333,2014-05-04 10:00:00
"490",2014,125,13.35003052,16.73787842,14.7603565208333,2014-05-05 10:00:00
"491",2014,126,14.44017944,20.87975464,17.520054754375,2014-05-06 10:00:00
"492",2014,127,16.87026367,24.3545166,20.1415083564583,2014-05-07 10:00:00
"493",2014,128,13.84176025,18.71843872,16.48173294125,2014-05-08 10:00:00
"494",2014,129,9.679742432,19.20110474,14.6249684652083,2014-05-09 10:00:00
"495",2014,130,10.85549316,20.54781494,16.1426762902083,2014-05-10 10:00:00
"496",2014,131,13.78771362,21.52211914,17.3195154825,2014-05-11 10:00:00
"497",2014,132,11.79522095,23.86187134,17.6103397366667,2014-05-12 10:00:00
"498",2014,133,12.87346802,23.92745361,18.399724579375,2014-05-13 10:00:00
"499",2014,134,12.20284424,23.60897217,18.2175333664583,2014-05-14 10:00:00
"500",2014,135,11.70467529,22.26171265,17.1908527375,2014-05-15 10:00:00
"501",2014,136,15.99639282,20.97817383,18.282224909375,2014-05-16 10:00:00
"502",2014,137,13.12578735,23.28896484,18.2156647997917,2014-05-17 10:00:00
"503",2014,138,14.20461426,23.98546753,19.0233455664583,2014-05-18 10:00:00
"504",2014,139,14.23739014,24.26973877,19.130509313125,2014-05-19 10:00:00
"505",2014,140,14.00594482,24.09380493,18.6207773841667,2014-05-20 10:00:00
"506",2014,141,13.55376587,24.62728271,19.5191112522917,2014-05-21 10:00:00
"507",2014,142,14.7920166,23.4192749,18.9382886245833,2014-05-22 10:00:00
"508",2014,143,13.46553955,22.42632446,17.20774230875,2014-05-23 10:00:00
"509",2014,144,11.38875732,18.24089966,15.0914995825,2014-05-24 10:00:00
"510",2014,145,11.97503052,18.59932861,15.2332836141667,2014-05-25 10:00:00
"511",2014,146,11.57796631,17.58214722,14.0681021370833,2014-05-26 10:00:00
"512",2014,147,10.75216064,19.04296265,14.80262400375,2014-05-27 10:00:00
"513",2014,148,10.04110107,16.79042969,14.22429618875,2014-05-28 10:00:00
"514",2014,149,8.286096191,15.5593811,11.417849477375,2014-05-29 10:00:00
"515",2014,150,5.6703125,15.94204102,10.64001871775,2014-05-30 10:00:00
"516",2014,151,6.061547852,15.43474731,10.8397301986875,2014-05-31 10:00:00
"517",2014,152,8.164971924,20.89660034,14.7908003488125,2014-06-01 10:00:00
"518",2014,153,9.825341797,22.18444214,16.4268750509792,2014-06-02 10:00:00
"519",2014,154,9.773278809,21.62996826,15.3598787949375,2014-06-03 10:00:00
"520",2014,155,9.608392334,21.18892822,15.1821393333333,2014-06-04 10:00:00
"521",2014,156,8.595635986,21.11379395,14.7699269609583,2014-06-05 10:00:00
"522",2014,157,6.868188477,18.93926392,13.1614198053333,2014-06-06 10:00:00
"523",2014,158,7.263391113,18.67055664,13.3949771884375,2014-06-07 10:00:00
"524",2014,159,10.31838379,18.63045654,14.0496669764583,2014-06-08 10:00:00
"525",2014,160,10.87154541,18.81008301,14.9474718729167,2014-06-09 10:00:00
"526",2014,161,11.18978271,19.64074097,15.6897865289583,2014-06-10 10:00:00
"527",2014,162,7.70836792,13.67434082,10.6512625377708,2014-06-11 10:00:00
"528",2014,163,5.822412109,13.51329956,9.81016820270833,2014-06-12 10:00:00
"529",2014,164,7.722497559,13.55245361,10.661582565125,2014-06-13 10:00:00
"530",2014,165,7.839044189,15.66484985,11.2724491112292,2014-06-14 10:00:00
"531",2014,166,5.013146973,16.43718872,10.5764614113125,2014-06-15 10:00:00
"532",2014,167,4.784295654,17.61879883,11.2220455172917,2014-06-16 10:00:00
"533",2014,168,6.082299805,18.6027771,12.4856328332708,2014-06-17 10:00:00
"534",2014,169,9.945367432,16.13939819,12.8273457842083,2014-06-18 10:00:00
"535",2014,170,7.073388672,15.79940186,11.6488077801667,2014-06-19 10:00:00
"536",2014,171,8.653344727,19.05501709,13.755733743875,2014-06-20 10:00:00
"537",2014,172,6.774346924,22.22976074,15.6031496686875,2014-06-21 10:00:00
"538",2014,173,6.752801514,17.51546631,10.9623873395,2014-06-22 10:00:00
"539",2014,174,2.54128418,13.10015259,7.79798215210417,2014-06-23 10:00:00
"540",2014,175,3.888726807,15.63033447,9.53906974822917,2014-06-24 10:00:00
"541",2014,176,6.374261475,18.94719849,12.1502382914583,2014-06-25 10:00:00
"542",2014,177,9.384820557,18.05968628,13.7010951999375,2014-06-26 10:00:00
"543",2014,178,6.709832764,14.90569458,11.1017216998542,2014-06-27 10:00:00
"544",2014,179,4.272729492,13.28164063,8.48694572475,2014-06-28 10:00:00
"545",2014,180,3.436425781,15.10701904,9.4338419593125,2014-06-29 10:00:00
"546",2014,181,7.386010742,15.16539917,11.2491228740417,2014-06-30 10:00:00
"547",2014,182,8.125848389,21.26784668,14.4463255564375,2014-07-01 10:00:00
"548",2014,183,8.789605713,23.35793457,15.416850026625,2014-07-02 10:00:00
"549",2014,184,6.670739746,15.09349976,10.7803277334583,2014-07-03 10:00:00
"550",2014,185,4.277032471,20.93786011,12.6005003614375,2014-07-04 10:00:00
"551",2014,186,9.291711426,21.76070557,16.124916967625,2014-07-05 10:00:00
"552",2014,187,11.88631592,23.25512085,17.6371602375,2014-07-06 10:00:00
"553",2014,188,7.79342041,16.32006226,12.5763838444583,2014-07-07 10:00:00
"554",2014,189,5.974420166,11.9883667,8.5752044679375,2014-07-08 10:00:00
"555",2014,190,4.143029785,13.69240723,8.4587964379375,2014-07-09 10:00:00
"556",2014,191,4.523278809,14.95064697,9.378635661125,2014-07-10 10:00:00
"557",2014,192,4.809747314,13.71096191,8.98406499204167,2014-07-11 10:00:00
"558",2014,193,6.189080811,14.44710693,10.035441335,2014-07-12 10:00:00
"559",2014,194,6.46505127,17.82433472,11.4885993961458,2014-07-13 10:00:00
"560",2014,195,8.328515625,17.03823242,12.0440911611875,2014-07-14 10:00:00
"561",2014,196,5.020471191,15.7312561,10.87403386375,2014-07-15 10:00:00
"562",2014,197,8.995294189,14.85286865,11.4564980827708,2014-07-16 10:00:00
"563",2014,198,5.521386719,14.00032959,9.98761583958333,2014-07-17 10:00:00
"564",2014,199,7.974328613,16.06194458,11.7385186515417,2014-07-18 10:00:00
"565",2014,200,8.698358154,14.53927002,11.00539868675,2014-07-19 10:00:00
"566",2014,201,7.299707031,15.9571167,11.615792210875,2014-07-20 10:00:00
"567",2014,202,7.003320313,16.0180603,11.1260124205625,2014-07-21 10:00:00
"568",2014,203,7.53862915,12.78554688,9.97703895541667,2014-07-22 10:00:00
"569",2014,204,6.061364746,12.5822998,8.85068219458333,2014-07-23 10:00:00
"570",2014,205,5.549523926,15.50478516,10.2490243280417,2014-07-24 10:00:00
"571",2014,206,7.838922119,19.35527954,13.5333820338125,2014-07-25 10:00:00
"572",2014,207,7.097833252,21.11345825,14.5416402177917,2014-07-26 10:00:00
"573",2014,208,10.49486694,18.47057495,14.131506855625,2014-07-27 10:00:00
"574",2014,209,8.912713623,18.67141113,13.0461167653958,2014-07-28 10:00:00
"575",2014,210,8.76796875,19.34536133,13.6738519029792,2014-07-29 10:00:00
"576",2014,211,10.17089233,20.75878296,14.4114916479167,2014-07-30 10:00:00
"577",2014,212,7.961663818,16.54424438,11.8348734528333,2014-07-31 10:00:00
"578",2014,213,3.027032471,15.09124146,8.94005355845833,2014-08-01 10:00:00
"579",2014,214,3.893731689,19.93544922,11.9273226417917,2014-08-02 10:00:00
"580",2014,215,6.519036865,17.80742798,11.8815907797083,2014-08-03 10:00:00
"581",2014,216,4.899743652,19.03499756,12.1610504147292,2014-08-04 10:00:00
"582",2014,217,5.787591553,20.64998779,13.0669310249792,2014-08-05 10:00:00
"583",2014,218,7.347039795,22.08406982,14.5941158289375,2014-08-06 10:00:00
"584",2014,219,9.54708252,23.43145142,17.0576841991458,2014-08-07 10:00:00
"585",2014,220,14.69906006,22.73967896,18.5347775779167,2014-08-08 10:00:00
"586",2014,221,14.06154785,19.12124023,16.362274424375,2014-08-09 10:00:00
"587",2014,222,12.26070557,19.21798096,15.2234874722917,2014-08-10 10:00:00
"588",2014,223,9.875787354,12.12676392,11.102787908,2014-08-11 10:00:00
"589",2014,224,7.222192383,15.76513062,11.3128003436875,2014-08-12 10:00:00
"590",2014,225,3.9175354,15.88170776,10.2788094838542,2014-08-13 10:00:00
"591",2014,226,4.389886475,17.2065979,11.1418300630417,2014-08-14 10:00:00
"592",2014,227,8.877862549,20.97432861,14.6347302754375,2014-08-15 10:00:00
"593",2014,228,7.162835693,23.509729,15.6480829874792,2014-08-16 10:00:00
"594",2014,229,9.855828857,24.26421509,17.5970099130208,2014-08-17 10:00:00
"595",2014,230,12.22619019,21.12786255,15.4922589622917,2014-08-18 10:00:00
"596",2014,231,9.239404297,18.49239502,13.9840319315208,2014-08-19 10:00:00
"597",2014,232,11.31609497,20.52062378,15.94697341875,2014-08-20 10:00:00
"598",2014,233,12.13308105,23.83336792,17.44624417625,2014-08-21 10:00:00
"599",2014,234,12.41219482,19.33382568,15.4261038460417,2014-08-22 10:00:00
"600",2014,235,7.623468018,23.66378174,15.7091225947083,2014-08-23 10:00:00
"601",2014,236,11.94411621,28.82366333,21.3660751347917,2014-08-24 10:00:00
"602",2014,237,16.83690796,29.32171021,23.3573045095833,2014-08-25 10:00:00
"603",2014,238,17.01503906,26.33019409,21.3985877995833,2014-08-26 10:00:00
"604",2014,239,11.61763916,28.17516479,19.8970212308333,2014-08-27 10:00:00
"605",2014,240,14.28283081,28.70964966,22.9442408239583,2014-08-28 10:00:00
"606",2014,241,15.73189697,27.56820068,22.4003285720833,2014-08-29 10:00:00
"607",2014,242,12.14058838,24.06856689,18.1785579679167,2014-08-30 10:00:00
"608",2014,243,12.94701538,18.44521484,15.4741366066667,2014-08-31 10:00:00
"609",2014,244,9.550561523,17.80895386,13.9146597549375,2014-09-01 10:00:00
"610",2014,245,11.79088745,25.4197937,18.28708674125,2014-09-02 10:00:00
"611",2014,246,14.1406189,19.05458984,16.9460032145833,2014-09-03 10:00:00
"612",2014,247,11.11528931,15.87740479,13.5005425777083,2014-09-04 10:00:00
"613",2014,248,11.15847168,22.03670654,16.4277111052083,2014-09-05 10:00:00
"614",2014,249,14.58934937,26.82988892,20.0088039397917,2014-09-06 10:00:00
"615",2014,250,15.1531311,24.17095337,19.051431274375,2014-09-07 10:00:00
"616",2014,251,11.25484619,17.37856445,15.291797255625,2014-09-08 10:00:00
"617",2014,252,12.74050293,19.00255737,15.1598850247917,2014-09-09 10:00:00
"618",2014,253,12.38933716,19.98745117,15.4152834572917,2014-09-10 10:00:00
"619",2014,254,10.48851929,23.31035767,16.694988505,2014-09-11 10:00:00
"620",2014,255,12.4927002,29.0052124,20.8715835575,2014-09-12 10:00:00
"621",2014,256,13.62206421,25.17229614,19.5347203577083,2014-09-13 10:00:00
"622",2014,257,9.019952393,23.78093872,16.3134730024375,2014-09-14 10:00:00
"623",2014,258,9.679406738,24.42778931,17.6447209675208,2014-09-15 10:00:00
"624",2014,259,11.41942749,22.75432739,17.023287073125,2014-09-16 10:00:00
"625",2014,260,11.40133057,26.97496948,19.672455088125,2014-09-17 10:00:00
"626",2014,261,14.0475708,29.08590088,21.54905726125,2014-09-18 10:00:00
"627",2014,262,13.40957031,28.05483398,21.420234934375,2014-09-19 10:00:00
"628",2014,263,13.9979187,30.13872681,22.472692108125,2014-09-20 10:00:00
"629",2014,264,12.11034546,32.63283691,24.7625334425,2014-09-21 10:00:00
"630",2014,265,8.411187744,14.50908813,11.2620674134792,2014-09-22 10:00:00
"631",2014,266,4.90581665,16.79812012,11.0145590465,2014-09-23 10:00:00
"632",2014,267,9.116815186,25.0515686,16.9321698508333,2014-09-24 10:00:00
"633",2014,268,14.07396851,30.80022583,22.8605330145833,2014-09-25 10:00:00
"634",2014,269,15.68468628,31.55541382,25.1636704760417,2014-09-26 10:00:00
"635",2014,270,14.17696533,28.25164185,21.1791543327083,2014-09-27 10:00:00
"636",2014,271,9.230615234,22.63762817,16.0414138794792,2014-09-28 10:00:00
"637",2014,272,10.88814697,24.20269165,18.1137500766667,2014-09-29 10:00:00
"638",2014,273,12.32348022,25.48537598,19.19288660625,2014-09-30 10:00:00
"639",2014,274,14.27303467,27.06295166,21.0104893997917,2014-10-01 10:00:00
"640",2014,275,17.89266357,32.43068848,24.8206204733333,2014-10-02 10:00:00
"641",2014,276,15.80227051,27.63762817,21.920515315,2014-10-03 10:00:00
"642",2014,277,14.02959595,30.83895264,22.8484385172917,2014-10-04 10:00:00
"643",2014,278,14.06878052,27.15395508,22.3484887441667,2014-10-05 11:00:00
"644",2014,279,10.8255249,21.6406189,15.6501588185417,2014-10-06 11:00:00
"645",2014,280,10.2289978,27.1980835,19.5235413872917,2014-10-07 11:00:00
"646",2014,281,15.21584473,33.99831543,25.1468578341667,2014-10-08 11:00:00
"647",2014,282,13.91958008,25.84682617,20.4184566504167,2014-10-09 11:00:00
"648",2014,283,12.96288452,26.78243408,20.006733830625,2014-10-10 11:00:00
"649",2014,284,16.51110229,30.85323486,23.789778645625,2014-10-11 11:00:00
"650",2014,285,12.7781311,23.3227478,18.431129709375,2014-10-12 11:00:00
"651",2014,286,9.443841553,24.14623413,16.7293951671042,2014-10-13 11:00:00
"652",2014,287,12.37349854,28.64711914,20.86805687,2014-10-14 11:00:00
"653",2014,288,16.55974731,35.25881348,26.60402832125,2014-10-15 11:00:00
"654",2014,289,22.64949951,35.82399902,29.9044204716667,2014-10-16 11:00:00
"655",2014,290,18.48824463,29.21239624,23.678240713125,2014-10-17 11:00:00
"656",2014,291,15.03093872,26.82689819,21.046170171875,2014-10-18 11:00:00
"657",2014,292,14.04128418,22.25582275,16.921083704375,2014-10-19 11:00:00
"658",2014,293,13.29046021,23.7109314,18.359528478125,2014-10-20 11:00:00
"659",2014,294,13.2232605,27.72042236,20.408995564375,2014-10-21 11:00:00
"660",2014,295,15.95415649,31.48110352,24.436234410625,2014-10-22 11:00:00
"661",2014,296,15.91091309,26.83260498,22.0295355483333,2014-10-23 11:00:00
"662",2014,297,15.65297852,31.05358276,23.4444951379167,2014-10-24 11:00:00
"663",2014,298,17.92696533,32.19054565,25.47326494875,2014-10-25 11:00:00
"664",2014,299,14.89196167,25.3824707,20.28037923125,2014-10-26 11:00:00
"665",2014,300,13.34182129,27.83303223,20.7635882064583,2014-10-27 11:00:00
"666",2014,301,16.05367432,31.96157227,25.0885940554167,2014-10-28 11:00:00
"667",2014,302,23.01491699,35.06176147,27.3731583914583,2014-10-29 11:00:00
"668",2014,303,18.88710938,33.26165161,26.908392843125,2014-10-30 11:00:00
"669",2014,304,13.08681641,23.12844238,19.1233580272917,2014-10-31 11:00:00
"670",2014,305,11.86373291,25.66872559,18.929271951875,2014-11-01 11:00:00
"671",2014,306,14.26033936,32.85427246,24.3599906922917,2014-11-02 11:00:00
"672",2014,307,15.76369629,28.12593994,22.341903940625,2014-11-03 11:00:00
"673",2014,308,13.96468506,29.93444214,22.26059811875,2014-11-04 11:00:00
"674",2014,309,18.46108398,35.48943481,27.7035938258333,2014-11-05 11:00:00
"675",2014,310,23.53148804,38.45302734,30.834753926875,2014-11-06 11:00:00
"676",2014,311,15.81389771,24.34267578,20.4890692397917,2014-11-07 11:00:00
"677",2014,312,13.35662231,30.15300903,22.0224389395833,2014-11-08 11:00:00
"678",2014,313,18.42250977,34.28911743,27.1954043077083,2014-11-09 11:00:00
"679",2014,314,18.30602417,31.32924805,27.30947202125,2014-11-10 11:00:00
"680",2014,315,18.03908691,32.83699951,22.442383701875,2014-11-11 11:00:00
"681",2014,316,17.9371582,26.45098267,20.406212108125,2014-11-12 11:00:00
"682",2014,317,9.705865479,17.87105713,13.5371185303333,2014-11-13 11:00:00
"683",2014,318,8.126794434,14.03701172,11.5615948996458,2014-11-14 11:00:00
"684",2014,319,9.240991211,22.10674438,15.9512872048125,2014-11-15 11:00:00
"685",2014,320,12.72478638,30.60912476,22.5650351210417,2014-11-16 11:00:00
"686",2014,321,21.28716431,31.99736938,26.6861218772917,2014-11-17 11:00:00
"687",2014,322,20.14248047,33.84841309,26.0280821483333,2014-11-18 11:00:00
"688",2014,323,16.34249268,25.79482422,21.025535838125,2014-11-19 11:00:00
"689",2014,324,16.31676636,31.17342529,23.8906589504167,2014-11-20 11:00:00
"690",2014,325,15.96422729,28.62978516,22.6028718310417,2014-11-21 11:00:00
"691",2014,326,15.96727905,27.77791748,21.8901986439583,2014-11-22 11:00:00
"692",2014,327,14.99736938,27.22017822,21.2941388445833,2014-11-23 11:00:00
"693",2014,328,12.17095337,26.82689819,19.8180690770833,2014-11-24 11:00:00
"694",2014,329,15.50390015,30.38439331,23.5086030322917,2014-11-25 11:00:00
"695",2014,330,20.12655029,30.77544556,24.7916116083333,2014-11-26 11:00:00
"696",2014,331,19.66286621,32.97322998,26.2347077685417,2014-11-27 11:00:00
"697",2014,332,18.88363037,31.74251709,25.5593022658333,2014-11-28 11:00:00
"698",2014,333,17.01824341,30.12410889,24.1931097672917,2014-11-29 11:00:00
"699",2014,334,16.49871216,33.40673218,25.4899148304167,2014-11-30 11:00:00
"700",2014,335,21.27401123,30.7656189,26.7821149189583,2014-12-01 11:00:00
"701",2014,336,14.53081665,26.54613647,20.9857351935417,2014-12-02 11:00:00
"702",2014,337,16.48143921,32.58757935,24.64135259,2014-12-03 11:00:00
"703",2014,338,20.65578613,35.33513794,28.7815001170833,2014-12-04 11:00:00
"704",2014,339,15.57463989,32.4366394,24.476785278125,2014-12-05 11:00:00
"705",2014,340,18.03136597,32.46120605,25.6397847491667,2014-12-06 11:00:00
"706",2014,341,19.53267822,32.84325562,26.4604475658333,2014-12-07 11:00:00
"707",2014,342,20.2350708,37.37929688,28.9270632425,2014-12-08 11:00:00
"708",2014,343,16.56655273,29.49682007,22.8509721127083,2014-12-09 11:00:00
"709",2014,344,12.36049805,26.03652344,19.1415096289583,2014-12-10 11:00:00
"710",2014,345,16.22930298,30.76134644,23.778059896875,2014-12-11 11:00:00
"711",2014,346,21.58864746,39.55635986,30.3734559372917,2014-12-12 11:00:00
"712",2014,347,15.54558716,30.22658691,22.734826024375,2014-12-13 11:00:00
"713",2014,348,15.65755615,30.68978271,23.2437873839583,2014-12-14 11:00:00
"714",2014,349,21.79293213,33.01635132,27.6588353472917,2014-12-15 11:00:00
"715",2014,350,15.07521973,31.22991333,23.19256935125,2014-12-16 11:00:00
"716",2014,351,17.44265137,32.5083252,26.0062887829167,2014-12-17 11:00:00
"717",2014,352,15.52404175,31.67507324,23.9808759052083,2014-12-18 11:00:00
"718",2014,353,20.25948486,35.39260254,26.6607566835417,2014-12-19 11:00:00
"719",2014,354,20.89904175,36.1406189,27.3789090477083,2014-12-20 11:00:00
"720",2014,355,17.89873657,23.35234985,20.196081415625,2014-12-21 11:00:00
"721",2014,356,15.63149414,28.18389282,21.9531208039583,2014-12-22 11:00:00
"722",2014,357,17.13759766,28.49645386,23.200904465,2014-12-23 11:00:00
"723",2014,358,17.16750488,26.97454224,22.47643814125,2014-12-24 11:00:00
"724",2014,359,16.11809692,27.54482422,21.95749944,2014-12-25 11:00:00
"725",2014,360,13.9901062,26.95876465,20.9351974479167,2014-12-26 11:00:00
"726",2014,361,15.65358887,30.95897827,23.6991573333333,2014-12-27 11:00:00
"727",2014,362,19.27483521,35.3048645,28.4058090216667,2014-12-28 11:00:00
"728",2014,363,20.01152954,34.92861328,28.0896456395833,2014-12-29 11:00:00
"729",2014,364,21.56884155,37.65383301,30.8588291170833,2014-12-30 11:00:00
"730",2014,365,23.25322876,39.73031006,31.6124174747917,2014-12-31 11:00:00
