"Curve","Vcmax","Jmax","Rd","TPU","Vcmax_SE","Jmax_SE","Rd_SE","TPU_SE","rmse","R2","resp","lowAs","highAs","elevated","Ci_t","Ac","Aj","Ap","Ts","JVr","A_ratio","TsK","Tsq","maxCi","minCi","lim","lim_step","Species","Tleaf","Cond","Ci","Photo","Trmmol","VPD","CO2S","PARi","Leaf","Season"
"1",24.5867445926417,81.7743653183828,0.914310482063369,6.03143682735446,1.16139391169077,NA,0.390096724082273,NA,1.37827003593484,0.99527877910893,0.819676547297351,9.73932395905507,16.2937559772165,14.2285041874437,855.132523863111,10.6563871582861,14.7768305376696,1000,15.0372727272727,3.32595334084433,1.67298634337627,288.187272727273,226.11957107438,1550,43.3,10.6563871582861,"C_lim","Chamaecyparis obtusa",15.16,0.438,43.3,0.47,2.71,0.674,49.81,1099,1,"Oct"
"2",36.5141324031449,101.059908678369,1.53369953876406,7.26123317958802,0.962122811813154,NA,0.244838057270316,NA,0.928873771524097,0.998609992965878,-0.327631487988876,10.4267984842258,19.1134013389111,17.0568813355297,638.595103268639,11.9636065089746,16.5625298049866,1000,20.0490909090909,2.76769300068771,1.83310355214277,293.199090909091,401.966046280992,1470,49.8,11.9636065089746,"C_lim","Chamaecyparis obtusa",19.95,0.446,49.8,-0.05,4.57,1.11,50.08,1100,1,"Oct"
"3",40.963841358941,91.3765757235571,1.097129642969,NA,1.43980758334408,NA,0.237959981799953,NA,1.1770807624962,0.997319505789494,-0.720323745086311,8.49221614146545,17.1053078155529,15.2667472005929,597.844479277953,9.59157926795168,13.7064817231764,1000,25.0927272727273,2.23066423197181,2.01423368536651,298.242727272727,629.644961983471,1250,55.9,9.59157926795168,"C_lim","Chamaecyparis obtusa",25.09,0.252,55.9,-0.34,4.14,1.71,50.14,1100,1,"Oct"
"4",48.0971599943473,94.372368282121,1.02391019507344,NA,1.34034719368667,NA,0.204488166403707,NA,1.43612167325353,0.995751857328887,-1.10706420214721,7.4904431288506,17.1374945374898,14.5590362486723,637.075410161901,8.51599016915148,12.943251750589,1000,28.7954545454545,1.96211934952526,2.28791464572798,301.945454545455,829.178202479339,986,62.4,8.51599016915148,"C_lim","Chamaecyparis obtusa",28.64,0.179,62.4,-0.48,4.53,2.6,50.53,1100,1,"Oct"
"5",26.8339394324302,101.5667514642,3.17831074137154,NA,1.73319014828039,NA,0.725492059813048,NA,4.10798505981414,0.968582028585085,-1.6632504757025,7.49470732173013,14.8826111436736,12.4454461576634,1967.19841610436,10.6746691016165,17.572512747967,1000,16.6815384615385,3.78501083375971,1.98574947690393,289.831538461538,278.273725443787,1440,46.9,10.6746691016165,"C_lim","Chamaecyparis obtusa",16.89,0.346,46.9,0.22,2.03,0.622,51.29,1099,2,"Apr"
"6",31.9396888366064,109.787975809351,2.50752096822982,NA,0.820402222566506,NA,0.290635692306762,NA,1.74844488945168,0.99536214914613,-1.60156169311745,7.44167317888384,16.3328188871145,13.2136622635428,1509.71722260294,9.95049310157036,17.5696664174213,1000,20.86,3.4373527046864,2.19477777302285,294.01,435.1396,1370,54.3,9.95049310157036,"C_lim","Chamaecyparis obtusa",20.88,0.327,54.3,-0.28,2.37,0.762,49.67,1099,2,"Apr"
"7",39.7910345041998,113.484330290743,2.05172963756937,NA,1.07142879245372,NA,0.273600714129736,NA,1.74458372868531,0.995397045069565,-1.74282433041618,6.99456856337593,17.4506041497077,13.5365471000529,1127.17497211789,9.04739831621984,16.4851105721764,1000,25.4991666666667,2.8520075364908,2.49487927548246,298.649166666667,650.207500694444,1080,60.2,9.04739831621984,"C_lim","Chamaecyparis obtusa",25.52,0.208,60.2,-0.4,2.81,1.38,49.96,1099,2,"Apr"
"8",43.2794418228234,101.753873135876,1.42086870086407,NA,0.844685236796369,NA,0.147865285666012,NA,1.3628756640898,0.996677727759416,-1.53720430658654,5.99088841287323,16.3082643255312,12.2621655281738,981.59313857371,7.4126303448759,13.7026623603822,1000,29.2135714285714,2.35109023707917,2.72217794784627,302.363571428571,853.432755612245,875,65.8,7.4126303448759,"C_lim","Chamaecyparis obtusa",29.09,0.149,65.8,-0.45,4.02,2.73,50.08,1099,2,"Apr"
