"Curve","Vcmax","Jmax","Rd","TPU","Vcmax_SE","Jmax_SE","Rd_SE","TPU_SE","rmse","R2","resp","lowAs","highAs","elevated","Ci_t","Ac","Aj","Ap","Ts","JVr","A_ratio","TsK","Tsq","maxCi","minCi","lim","lim_step","Species","Date","Season","Leaf","Ci","Photo","VPD","Tleaf","PARin","Datacontrib","location","Growthcond","OriginalFile"
"1",12.7047301841174,39.5546981182265,-0.425269614129843,2.92491012862339,1.94467904643609,NA,0.670233269474209,NA,1.01341918719463,0.981671395205489,2.89990947689764,8.52947938967316,9.19998288272619,9.19996587146395,309.063623306446,8.13161335135929,8.34388001612445,1000,5.35,3.11338356226369,1.07861013110188,278.5,28.6225,785,22,8.13161335135929,"C_lim","Betula pendula","Jul-98","summer",1,22,0.5,0.71,5,1225,"Wang","Mekrijärvi Finland","OTC","Kaiyun_xls"
"10",152.834204918386,72.9457529550678,2.25876990363109,NA,NA,NA,NA,NA,1.25369401098389,0.994875167415977,-3.46071803454054,7.3280767826235,11.9603963135785,10.6583332951643,60.585791359632,20.8569232502407,9.58766218762998,1000,31.9714285714286,0.477286828521278,1.63213305050778,305.121428571429,1022.17224489796,912,24,9.58766218762998,"R_lim","Betula pendula","Jul-98","summer",2,24,-6.5,0.62,31.5,1156,"Wang","Mekrijärvi Finland","OTC","Kaiyun_xls"
"11",17.4031219095305,45.6914838460968,0.0953146259160874,NA,3.93521606445241,NA,0.89748890706862,NA,1.01419482389663,0.986384216564224,3.24126801540246,9.49719541307761,10.5315146931584,10.2730940467446,160.58500574852,11.075800306803,9.59871356171917,1000,5.53333333333333,2.62547628429096,1.10890786543747,278.683333333333,30.6177777777778,790,25,9.59871356171917,"R_lim","Betula pendula","Jul-98","summer",3,25,0.7,0.68,5.2,1145,"Wang","Mekrijärvi Finland","OTC","Kaiyun_xls"
"12",40.7163633754369,88.4998060652597,3.28482465439378,NA,0.666764506247759,NA,0.121111881668398,NA,1.30167882838572,0.994326956753971,1.61727405353249,14.0674279442488,16.5599801427566,15.9275114141865,141.672953917039,21.7553688413165,17.3590909525186,1000,10.4285714285714,2.17356852941953,1.17718606474375,283.578571428571,108.755102040816,879,29,17.3590909525186,"R_lim","Betula pendula","Jul-98","summer",3,29,-1.5,0.7,10.2,1210,"Wang","Mekrijärvi Finland","OTC","Kaiyun_xls"
"13",78.1071689643605,115.790794645216,3.69210836542093,NA,10.1054050682381,NA,1.02379413854921,NA,2.21929010474563,0.992036165612058,-1.91629907277434,15.1746646538161,20.3883236139944,19.0024850646733,184.057799318447,22.7211755897707,18.8760080463948,1000,21.9285714285714,1.48246052418121,1.34357655204375,295.078571428571,480.862244897959,889,28,18.8760080463948,"R_lim","Betula pendula","Jul-98","summer",3,28,-6.1,0.75,21.5,1208,"Wang","Mekrijärvi Finland","OTC","Kaiyun_xls"
"14",105.457415792834,118.368346660721,3.34562351113731,NA,3.3878964509353,NA,0.20624489558797,NA,0.950557092085605,0.998448845237876,-2.61124850430006,14.4692520009299,20.550038526224,18.9013981477183,153.97977184625,23.572412416099,17.8203877613988,1000,25.7333333333333,1.12242790865699,1.42025576200506,298.883333333333,662.204444444444,895,24,17.8203877613988,"R_lim","Betula pendula","Jul-98","summer",3,24,-6.2,0.67,25.1,1214,"Wang","Mekrijärvi Finland","OTC","Kaiyun_xls"
"15",108.941960865468,80.7524491409388,2.76226120548812,5.05408706849604,20.8263015883303,NA,0.537073274764332,NA,1.0986286963343,0.995960342199829,-3.63100467705284,7.78906691432502,12.399954927139,11.4701037361993,136.883325394256,14.7771188825445,10.5539626687377,1000,32.0428571428571,0.741242846185406,1.59196923887431,305.192857142857,1026.74469387755,895,31,10.5539626687377,"R_lim","Betula pendula","Jul-98","summer",3,31,-5.6,0.65,31,1125,"Wang","Mekrijärvi Finland","OTC","Kaiyun_xls"
"16",12.1156255681666,42.4193946199455,-0.133454866263625,NA,0.915058865719958,NA,0.39991501793139,NA,0.768042152771793,0.989911321297143,2.43988067776474,7.81934737245999,9.98269752061009,9.55899902530744,625.479929835227,7.6906927126675,8.91652589607452,1000,5.61666666666667,3.50121373273543,1.27666633097405,278.766666666667,31.5469444444444,795,28,7.6906927126675,"C_lim","Betula pendula","Jul-98","summer",4,28,0.74,0.8,5.3,1234,"Wang","Mekrijärvi Finland","OTC","Kaiyun_xls"
"17",38.8396003177022,91.5430857443794,3.24103664993949,6.48034554997983,3.83763116818453,NA,0.866736591276568,NA,1.64924095499949,0.991248765230569,1.35877970889077,14.6448387628334,16.1999637307987,16.1999014121197,179.042120038096,20.6202149292938,17.8975749306034,1000,10.5857142857143,2.35695231144426,1.10618928573744,283.735714285714,112.057346938776,876,32,17.8975749306034,"R_lim","Betula pendula","Jul-98","summer",4,32,-1.7,0.78,10.2,1124,"Wang","Mekrijärvi Finland","OTC","Kaiyun_xls"
"18",80.552454158459,122.748731222426,3.67959155901409,NA,6.72742234304818,NA,0.676245543879313,NA,1.53109871849852,0.996564524040305,-1.79025631306309,16.2989232055115,21.7772085542734,20.322229608831,190.819096841136,23.6515798624885,19.9893814668995,1000,21.7857142857143,1.52383602094805,1.33611332967747,294.935714285714,474.617346938775,903,27,19.9893814668995,"R_lim","Betula pendula","Jul-98","summer",4,27,-5.7,0.76,21.3,1245,"Wang","Mekrijärvi Finland","OTC","Kaiyun_xls"
"19",115.102956034828,112.568972446832,3.76932412569856,7.48977470856619,NA,NA,NA,NA,0.198143495666059,0.999925483393572,-3.06962775970649,13.1257232410275,18.6998176454521,17.3878581373826,117.87469794347,25.2298927366691,16.8984720568415,1000,26,0.977985069408388,1.42466950598208,299.15,676,865,26,16.8984720568415,"R_lim","Betula pendula","Jul-98","summer",4,26,-6.4,0.7,25.1,1204,"Wang","Mekrijärvi Finland","OTC","Kaiyun_xls"
"2",33.9022577093066,76.1847207654194,2.66609957073832,NA,2.10681020483551,NA,0.482515293376886,NA,1.1304389382455,0.994667431478032,1.28278469380352,12.3024245903499,14.4938915088218,13.937449232699,162.575710209914,17.8832292907607,14.9762112754135,1000,10.7428571428571,2.24718723509985,1.17813292838152,283.892857142857,115.408979591837,884,24,14.9762112754135,"R_lim","Betula pendula","Jul-98","summer",1,24,-2,0.6,10.1,1210,"Wang","Mekrijärvi Finland","OTC","Kaiyun_xls"
"20",116.913312100372,68.136526402031,2.35999971079071,4.28666657026357,9.93271705428651,NA,0.207568191399174,NA,1.18618498983531,0.993909511416423,-3.29996193436217,6.58424707322272,10.4999619314588,9.71079734554181,74.3652501253282,15.8006725802015,8.9454135661374,1000,32.0857142857143,0.582795279493363,1.59470958709323,305.235714285714,1029.49306122449,889,32,8.9454135661374,"R_lim","Betula pendula","Jul-98","summer",4,32,-5,0.65,31.5,1251,"Wang","Mekrijärvi Finland","OTC","Kaiyun_xls"
"21",8.22030144376113,32.5267871699718,-0.100920297907866,NA,1.12453861117039,NA,0.475726927153411,NA,1.26412653670492,0.962995752488857,1.69303580337039,5.34979546631873,7.01630215129386,6.54360307518343,1999.99987010557,5.25056796964276,6.87639587281464,1000,5.41666666666667,3.95688496249226,1.31150848578551,278.566666666667,29.3402777777778,628,26,5.25056796964276,"C_lim","Pinus sylvestris","Jul-98","summer",1,26,0.2,0.7,5.8,1187,"Wang","Mekrijärvi Finland","OTC","Kaiyun_xls"
"22",25.2851897355244,62.2338659232911,2.18244445662427,NA,0.837993696352132,NA,0.248447114561552,NA,1.63233081559631,0.9844200500727,0.700791722830807,10.0837819448247,11.9102921076828,11.447822610053,218.573476168025,13.2277644702066,12.2818742800946,1000,10.9428571428571,2.46127739495882,1.18113344505586,284.092857142857,119.74612244898,768,25,12.2818742800946,"R_lim","Pinus sylvestris","Jul-98","summer",1,25,-1.5,0.71,10.2,1208,"Wang","Mekrijärvi Finland","OTC","Kaiyun_xls"
"23",90.7521230539653,109.256789898348,5.19125812957649,NA,4.11739807969216,NA,0.291362370708532,NA,0.949240380924716,0.998219639278225,-2.74402603391809,12.9504151494724,17.734869083895,16.4673693297789,106.696052670736,27.8215424659447,18.1450733281922,1000,21.1142857142857,1.20390340436862,1.36944405868081,294.264285714286,445.81306122449,815,29,18.1450733281922,"R_lim","Pinus sylvestris","Jul-98","summer",1,29,-5.8,0.74,20.1,1205,"Wang","Mekrijärvi Finland","OTC","Kaiyun_xls"
"24",118.781743062298,90.5918108839467,4.12856367926091,NA,NA,NA,NA,NA,1.44193082993976,0.995139649478262,-3.46205670217021,9.57650773741987,14.3593543629503,13.0594900584273,65.3890138456965,25.7632667871808,13.7066291040193,1000,26.1428571428571,0.762674536914594,1.49943536377479,299.292857142857,683.448979591837,843,24,13.7066291040193,"R_lim","Pinus sylvestris","Jul-98","summer",1,24,-7.2,0.65,25.4,1145,"Wang","Mekrijärvi Finland","OTC","Kaiyun_xls"
"25",133.30946439755,62.8698817824736,2.79885444746545,NA,NA,NA,NA,NA,1.58105477641704,0.988467312247061,-3.77787449450129,5.57920665481239,9.553325763236,8.43850977902308,59.6196074816098,18.7051341714772,8.3787407905822,1000,31.6428571428571,0.471608539323104,1.71230899916491,304.792857142857,1001.27040816327,856,24,8.3787407905822,"R_lim","Pinus sylvestris","Jul-98","summer",1,24,-6.5,0.74,30.6,1203,"Wang","Mekrijärvi Finland","OTC","Kaiyun_xls"
"26",20.979596058509,35.742205879559,1.57629904910201,2.72543301636734,NA,NA,NA,NA,0.241783306978563,0.998152931624023,2.330007580883,5.96258967784688,6.59996110042245,6.56936742375944,46.2556213854758,13.3588814054446,7.5398652718756,1000,5.51666666666667,1.70366511251595,1.10689506691088,278.666666666667,30.4336111111111,634,27,7.5398652718756,"R_lim","Pinus sylvestris","Jul-98","summer",2,27,0.1,0.8,5.2,1124,"Wang","Mekrijärvi Finland","OTC","Kaiyun_xls"
"27",31.7231420319164,66.9710062521455,3.25435395179685,NA,1.42960060473446,NA,0.270351957654511,NA,1.49599697804927,0.987026134434727,0.434997372376588,9.95832727217387,11.8926797291464,11.4012938583073,139.197607884064,16.7239082432835,13.2176531310609,1000,10.7571428571429,2.11110886130909,1.19424471641714,283.907142857143,115.71612244898,775,27,13.2176531310609,"R_lim","Pinus sylvestris","Jul-98","summer",2,27,-2,0.66,10,1134,"Wang","Mekrijärvi Finland","OTC","Kaiyun_xls"
"28",64.3536173118065,88.3602496351984,4.03676465850524,NA,3.44220440665832,NA,0.265950933484076,NA,0.633116891216437,0.998756184508942,-2.10743991664173,10.9338872487783,14.7651362562791,13.7528642604769,138.393977522287,20.4148410191395,14.9747685978305,1000,20.5714285714286,1.37304246950214,1.3504013641561,293.721428571429,423.183673469388,702,26,14.9747685978305,"R_lim","Pinus sylvestris","Jul-98","summer",2,26,-4.8,0.76,20,1178,"Wang","Mekrijärvi Finland","OTC","Kaiyun_xls"
"29",103.421652807989,93.6181356064979,4.5065236251847,NA,0.985780575880904,NA,0.0392759991683799,NA,1.35227209196924,0.995691740173651,-3.87789004538786,9.68040084759234,14.5929637371804,13.2589213675374,100.47715584268,22.6694195951412,14.1892972277636,1000,26,0.905208271814295,1.50747515179703,299.15,676,852,28,14.1892972277636,"R_lim","Pinus sylvestris","Jul-98","summer",2,28,-6.6,0.75,25,1214,"Wang","Mekrijärvi Finland","OTC","Kaiyun_xls"
"3",89.077167508216,124.525235338231,2.85609886184968,NA,3.52899871416355,NA,0.337370266267779,NA,1.40912109582484,0.9972313818399,-0.715010937826106,17.4396344403923,22.964691550195,21.4974261246296,156.007227040347,26.3492009855266,20.3025379440081,1000,21.6714285714286,1.3979478560176,1.31681037401827,294.821428571429,469.650816326531,894,24,20.3025379440081,"R_lim","Betula pendula","Jul-98","summer",1,24,-5,0.62,21,1245,"Wang","Mekrijärvi Finland","OTC","Kaiyun_xls"
"30",91.005523316355,68.1136936242651,3.45627585676488,4.28542528558829,15.9507649998007,NA,0.449013171037534,NA,0.778926698614098,0.997028608825795,-4.02776405680628,5.75919990904116,9.39997152653429,8.80089205672087,124.473747454574,13.4592993609373,9.2174769091544,1000,31.0142857142857,0.748456699572916,1.63216621666104,304.164285714286,961.885918367347,821,29,9.2174769091544,"R_lim","Pinus sylvestris","Jul-98","summer",2,29,-6,0.8,30.2,1224,"Wang","Mekrijärvi Finland","OTC","Kaiyun_xls"
"31",14.1579464773832,34.6261885896281,1.16766982908166,2.32255660969388,0.197544211169908,NA,0.0539747795199169,NA,1.25371639622148,0.94944761316368,1.55440902360798,6.13796541441987,5.79999567609683,5.79999476038752,129.315811996427,9.01982351538425,7.30874880501554,1000,5.5,2.44570698476239,0.944937822958558,278.65,30.25,618,29,7.30874880501554,"R_lim","Pinus sylvestris","Jul-98","summer",3,29,0.12,0.64,5.1,1145,"Wang","Mekrijärvi Finland","OTC","Kaiyun_xls"
"32",32.1672647686956,68.6629268432674,3.31247126706046,4.97082375568682,NA,NA,NA,NA,1.79013823766223,0.982511518731123,0.360896228073762,10.1965821615787,11.5999625947754,11.5997442744641,145.57347631534,16.8380772481297,13.5145353517023,1000,10.9285714285714,2.13455907230535,1.13763243515897,284.078571428571,119.433673469388,725,31,13.5145353517023,"R_lim","Pinus sylvestris","Jul-98","summer",3,31,-1.7,0.63,10.3,1248,"Wang","Mekrijärvi Finland","OTC","Kaiyun_xls"
"33",62.7631927506228,97.9463578158082,4.12223341139484,NA,2.57488500381873,NA,0.313545980834826,NA,1.68786251623866,0.992840863546625,-2.40027889539462,12.2547337805,16.5595710219082,15.4204122400166,190.70932830787,19.3460434003706,16.3860004748277,1000,21.0285714285714,1.56057003353827,1.35127953968761,294.178571428571,442.200816326531,765,27,16.3860004748277,"R_lim","Pinus sylvestris","Jul-98","summer",3,27,-4.6,0.66,20.2,1189,"Wang","Mekrijärvi Finland","OTC","Kaiyun_xls"
"34",109.518806991162,79.1483268523237,4.0477555071638,NA,NA,NA,NA,NA,0.964016659643102,0.996718260655061,-3.36858805228986,8.04182890451906,12.2173786584111,11.0836931337541,54.8363525897579,24.081720655074,12.0908031941273,1000,25.9571428571429,0.722691645634077,1.51922887237076,299.107142857143,673.773265306122,723,29,12.0908031941273,"R_lim","Pinus sylvestris","Jul-98","summer",3,29,-6.1,0.65,25.1,1211,"Wang","Mekrijärvi Finland","OTC","Kaiyun_xls"
"35",70.800353647996,60.7400708106413,3.14776615981778,3.64925538660593,5.66578057843264,NA,0.292100241804076,NA,0.742983276018966,0.996216969145775,-3.64445030430046,4.99716546828087,7.79998826052052,7.74990978168116,178.80620982845,10.1027814089889,8.14832003470032,1000,31.4428571428571,0.857906319403823,1.56088252631024,304.592857142857,988.653265306122,752,27,8.14832003470032,"R_lim","Pinus sylvestris","Jul-98","summer",3,27,-5.2,0.74,31,1254,"Wang","Mekrijärvi Finland","OTC","Kaiyun_xls"
"36",26.0601287050646,43.5283519882921,2.52710054414588,3.07570018138196,NA,NA,NA,NA,0.482918142494518,0.994130771321331,2.2628418903799,6.64052460926203,6.69999068313563,6.69998730114011,42.4428741284279,16.6882376449972,9.16874268673444,1000,5.33333333333333,1.67030456683173,1.00895502650358,278.483333333333,28.4444444444444,622,31,9.16874268673444,"R_lim","Pinus sylvestris","Jul-98","summer",4,31,0.15,0.7,5.2,1145,"Wang","Mekrijärvi Finland","OTC","Kaiyun_xls"
"37",28.8740087352726,62.5608686394743,2.39833098290459,4.28277699430153,0.400882229719326,NA,0.0860833914304064,NA,0.377924661159197,0.999027707528054,0.939407167549042,9.95933591898157,10.4499875432179,10.449980892006,150.821254029817,15.1860161840709,12.3630662325919,1000,10.8142857142857,2.16668455056085,1.04926549603585,283.964285714286,116.948775510204,716,24,12.3630662325919,"R_lim","Pinus sylvestris","Jul-98","summer",4,24,-1.9,0.75,10.4,1211,"Wang","Mekrijärvi Finland","OTC","Kaiyun_xls"
"38",61.5236172335814,92.2874181314025,3.78902858632253,NA,2.83966430597661,NA,0.330756455709625,NA,0.695147462136747,0.998681968475825,-2.10110407029573,11.6864468609857,15.7524068510092,14.6761769541684,175.999918897033,18.9639582848794,15.482340619117,1000,21.0285714285714,1.50003238237802,1.34792097533061,294.178571428571,442.200816326531,711,25,15.482340619117,"R_lim","Pinus sylvestris","Jul-98","summer",4,25,-5.1,0.68,20.1,1145,"Wang","Mekrijärvi Finland","OTC","Kaiyun_xls"
"39",61.4190814415657,86.9734989705881,3.40548765870176,5.70182921956725,7.37791254194696,NA,0.718398638315495,NA,1.70908851891199,0.99175294239924,-3.03779002260311,9.74884171590576,13.6999575798543,13.1439608344558,265.989152757498,13.4343948990998,13.2161136237075,1000,26.0285714285714,1.41606642315768,1.40529080059861,299.178571428571,677.486530612245,726,27,13.2161136237075,"R_lim","Pinus sylvestris","Jul-98","summer",4,27,-5.8,0.66,25.3,1211,"Wang","Mekrijärvi Finland","OTC","Kaiyun_xls"
"4",98.4837770295354,115.081117265827,1.91388220930417,7.27129406976806,5.24531148863158,NA,0.301185281135285,NA,0.464928255693139,0.999597865201285,-1.30439951663243,15.3449604680127,19.8999663640063,19.6943216738639,172.860460942423,21.6400980647386,17.2656413599824,1000,25.9666666666667,1.16852867281191,1.29684051030882,299.116666666667,674.267777777778,910,21,17.2656413599824,"R_lim","Betula pendula","Jul-98","summer",1,21,-5.1,0.65,25.3,1189,"Wang","Mekrijärvi Finland","OTC","Kaiyun_xls"
"40",70.3763394707273,67.5724103468689,3.15823865632125,4.11941288544042,4.39827398191296,NA,0.217179952060032,NA,0.530719739318731,0.998469647094067,-3.65194822358737,5.87145239488298,9.19998333835967,8.92848709503706,223.686354661584,10.0422771554571,9.03774323759487,1000,31.4428571428571,0.96015807095189,1.56690078018474,304.592857142857,988.653265306122,844,24,9.03774323759487,"R_lim","Pinus sylvestris","Jul-98","summer",4,24,-5.4,0.68,30.1,1245,"Wang","Mekrijärvi Finland","OTC","Kaiyun_xls"
"5",157.499299728929,79.2292476084863,2.88856616592384,NA,NA,NA,NA,NA,2.25257027632168,0.98552655740621,-4.15825477458564,7.45559790032229,12.4902434033443,11.0739799588286,60.9675431414554,21.259951157143,10.3451443137476,1000,32.1,0.503045078580333,1.67528393702729,305.25,1030.41,899,26,10.3451443137476,"R_lim","Betula pendula","Jul-98","summer",1,26,-7,0.62,31.2,1245,"Wang","Mekrijärvi Finland","OTC","Kaiyun_xls"
"6",14.3735702863273,36.5686457712969,-0.0513496231862816,NA,1.63033303913868,NA,0.395635177614968,NA,1.29466605656886,0.962740664286716,2.81893704202286,7.76124126003486,8.5893185012669,8.38235777143896,145.883788235852,9.16193099015906,7.71398535709908,1000,5.48333333333333,2.54415883060609,1.10669391834217,278.633333333333,30.0669444444444,785,26,7.71398535709908,"R_lim","Betula pendula","Jul-98","summer",2,26,1,0.72,5.1,1211,"Wang","Mekrijärvi Finland","OTC","Kaiyun_xls"
"7",32.1775818023096,79.7457012401803,2.50675380086137,NA,3.02575948054855,NA,0.728833039236762,NA,2.13470725038863,0.982986204058675,1.33865356667293,13.1705474092914,15.4424321166404,14.8674448189726,208.60836721802,17.1431414174744,15.6940682337346,1000,10.5,2.47830000806513,1.17249736375773,283.65,110.25,882,25,15.6940682337346,"R_lim","Betula pendula","Jul-98","summer",2,25,-1.8,0.65,10,1179,"Wang","Mekrijärvi Finland","OTC","Kaiyun_xls"
"8",76.548841039017,118.725303974402,3.27892670175737,NA,10.3022904524559,NA,0.966955888293238,NA,2.45048097023348,0.991167692091832,-1.51109919841859,16.0589574969555,21.3849029547542,19.9702327403235,200.672203516344,22.3718348035999,19.3502098366016,1000,21.8571428571429,1.55097454596194,1.33164951453471,295.007142857143,477.734693877551,901,23,19.3502098366016,"R_lim","Betula pendula","Jul-98","summer",2,23,-6,0.7,21.3,1245,"Wang","Mekrijärvi Finland","OTC","Kaiyun_xls"
"9",147.693144700498,114.632726792794,2.29749239915314,NA,NA,NA,NA,NA,1.6493426385598,0.995772707689455,-1.29489247803789,14.9737212551398,20.8816639098416,19.279127060535,63.00407993451,32.8926261644907,17.2731231795737,1000,25.7833333333333,0.776154689002347,1.39455406936161,298.933333333333,664.780277777778,897,22,17.2731231795737,"R_lim","Betula pendula","Jul-98","summer",2,22,-6.5,0.68,25.2,1178,"Wang","Mekrijärvi Finland","OTC","Kaiyun_xls"
