time,latitude[unit="degrees_north"],longitude[unit="degrees_east"],air_temperature[unit="C"]
1970-01-01T00:00:00Z,-32.9852,147.8852,30.516136169433594
1970-02-01T00:00:00Z,-32.9852,147.8852,32.612083435058594
1970-03-01T00:00:00Z,-32.9852,147.8852,26.81282615661621
1970-04-01T00:00:00Z,-32.9852,147.8852,23.616798400878906
1970-05-01T00:00:00Z,-32.9852,147.8852,16.72873878479004
1970-06-01T00:00:00Z,-32.9852,147.8852,15.868420600891113
1970-07-01T00:00:00Z,-32.9852,147.8852,15.134444236755371
1970-08-01T00:00:00Z,-32.9852,147.8852,15.589010238647461
1970-09-01T00:00:00Z,-32.9852,147.8852,16.99141502380371
1970-10-01T00:00:00Z,-32.9852,147.8852,23.64357566833496
1970-11-01T00:00:00Z,-32.9852,147.8852,26.254383087158203
1970-12-01T00:00:00Z,-32.9852,147.8852,30.012819290161133
1971-01-01T00:00:00Z,-32.9852,147.8852,31.28934669494629
1971-02-01T00:00:00Z,-32.9852,147.8852,29.23311424255371
1971-03-01T00:00:00Z,-32.9852,147.8852,29.193498611450195
1971-04-01T00:00:00Z,-32.9852,147.8852,24.236160278320312
1971-05-01T00:00:00Z,-32.9852,147.8852,18.51447868347168
1971-06-01T00:00:00Z,-32.9852,147.8852,14.724445343017578
1971-07-01T00:00:00Z,-32.9852,147.8852,13.725364685058594
1971-08-01T00:00:00Z,-32.9852,147.8852,15.735648155212402
1971-09-01T00:00:00Z,-32.9852,147.8852,19.736160278320312
1971-10-01T00:00:00Z,-32.9852,147.8852,24.1260986328125
1971-11-01T00:00:00Z,-32.9852,147.8852,24.546232223510742
1971-12-01T00:00:00Z,-32.9852,147.8852,29.795684814453125
1972-01-01T00:00:00Z,-32.9852,147.8852,28.54905891418457
1972-02-01T00:00:00Z,-32.9852,147.8852,28.833965301513672
1972-03-01T00:00:00Z,-32.9852,147.8852,28.70081901550293
1972-04-01T00:00:00Z,-32.9852,147.8852,24.034032821655273
1972-05-01T00:00:00Z,-32.9852,147.8852,19.991254806518555
1972-06-01T00:00:00Z,-32.9852,147.8852,17.670272827148438
1972-07-01T00:00:00Z,-32.9852,147.8852,15.039862632751465
1972-08-01T00:00:00Z,-32.9852,147.8852,17.378494262695312
1972-09-01T00:00:00Z,-32.9852,147.8852,22.990739822387695
1972-10-01T00:00:00Z,-32.9852,147.8852,24.939647674560547
1972-11-01T00:00:00Z,-32.9852,147.8852,28.073076248168945
1972-12-01T00:00:00Z,-32.9852,147.8852,33.16758346557617
1973-01-01T00:00:00Z,-32.9852,147.8852,34.500545501708984
1973-02-01T00:00:00Z,-32.9852,147.8852,28.162511825561523
1973-03-01T00:00:00Z,-32.9852,147.8852,28.592809677124023
1973-04-01T00:00:00Z,-32.9852,147.8852,24.609941482543945
1973-05-01T00:00:00Z,-32.9852,147.8852,19.611614227294922
1973-06-01T00:00:00Z,-32.9852,147.8852,14.488245964050293
1973-07-01T00:00:00Z,-32.9852,147.8852,15.855888366699219
1973-08-01T00:00:00Z,-32.9852,147.8852,15.611799240112305
1973-09-01T00:00:00Z,-32.9852,147.8852,19.806671142578125
1973-10-01T00:00:00Z,-32.9852,147.8852,23.00617218017578
1973-11-01T00:00:00Z,-32.9852,147.8852,25.957622528076172
1973-12-01T00:00:00Z,-32.9852,147.8852,29.670373916625977
1974-01-01T00:00:00Z,-32.9852,147.8852,30.053598403930664
1974-02-01T00:00:00Z,-32.9852,147.8852,30.2435245513916
1974-03-01T00:00:00Z,-32.9852,147.8852,29.47442054748535
1974-04-01T00:00:00Z,-32.9852,147.8852,22.337316513061523
1974-05-01T00:00:00Z,-32.9852,147.8852,19.444393157958984
1974-06-01T00:00:00Z,-32.9852,147.8852,15.327021598815918
1974-07-01T00:00:00Z,-32.9852,147.8852,13.45010757446289
1974-08-01T00:00:00Z,-32.9852,147.8852,14.949690818786621
1974-09-01T00:00:00Z,-32.9852,147.8852,16.56205177307129
1974-10-01T00:00:00Z,-32.9852,147.8852,21.327226638793945
1974-11-01T00:00:00Z,-32.9852,147.8852,25.013931274414062
1974-12-01T00:00:00Z,-32.9852,147.8852,30.98581886291504
1975-01-01T00:00:00Z,-32.9852,147.8852,32.1801643371582
1975-02-01T00:00:00Z,-32.9852,147.8852,31.027015686035156
1975-03-01T00:00:00Z,-32.9852,147.8852,28.19877815246582
1975-04-01T00:00:00Z,-32.9852,147.8852,24.319316864013672
1975-05-01T00:00:00Z,-32.9852,147.8852,20.66798210144043
1975-06-01T00:00:00Z,-32.9852,147.8852,16.270456314086914
1975-07-01T00:00:00Z,-32.9852,147.8852,16.572046279907227
1975-08-01T00:00:00Z,-32.9852,147.8852,16.017492294311523
1975-09-01T00:00:00Z,-32.9852,147.8852,19.167327880859375
1975-10-01T00:00:00Z,-32.9852,147.8852,20.70615577697754
1975-11-01T00:00:00Z,-32.9852,147.8852,28.40158462524414
1975-12-01T00:00:00Z,-32.9852,147.8852,31.955381393432617
1976-01-01T00:00:00Z,-32.9852,147.8852,29.539432525634766
1976-02-01T00:00:00Z,-32.9852,147.8852,29.52558708190918
1976-03-01T00:00:00Z,-32.9852,147.8852,27.328323364257812
1976-04-01T00:00:00Z,-32.9852,147.8852,23.605571746826172
1976-05-01T00:00:00Z,-32.9852,147.8852,20.114154815673828
1976-06-01T00:00:00Z,-32.9852,147.8852,16.333484649658203
1976-07-01T00:00:00Z,-32.9852,147.8852,15.397919654846191
1976-08-01T00:00:00Z,-32.9852,147.8852,16.42852020263672
1976-09-01T00:00:00Z,-32.9852,147.8852,18.09765625
1976-10-01T00:00:00Z,-32.9852,147.8852,19.407968521118164
1976-11-01T00:00:00Z,-32.9852,147.8852,25.46416664123535
1976-12-01T00:00:00Z,-32.9852,147.8852,31.328001022338867
1977-01-01T00:00:00Z,-32.9852,147.8852,32.77537536621094
1977-02-01T00:00:00Z,-32.9852,147.8852,32.99352264404297
1977-03-01T00:00:00Z,-32.9852,147.8852,28.288293838500977
1977-04-01T00:00:00Z,-32.9852,147.8852,23.955759048461914
1977-05-01T00:00:00Z,-32.9852,147.8852,17.963773727416992
1977-06-01T00:00:00Z,-32.9852,147.8852,13.680795669555664
1977-07-01T00:00:00Z,-32.9852,147.8852,13.970273971557617
1977-08-01T00:00:00Z,-32.9852,147.8852,18.730297088623047
1977-09-01T00:00:00Z,-32.9852,147.8852,19.32925796508789
1977-10-01T00:00:00Z,-32.9852,147.8852,26.31168556213379
1977-11-01T00:00:00Z,-32.9852,147.8852,29.421476364135742
1977-12-01T00:00:00Z,-32.9852,147.8852,32.780399322509766
1978-01-01T00:00:00Z,-32.9852,147.8852,30.715139389038086
1978-02-01T00:00:00Z,-32.9852,147.8852,32.56306076049805
1978-03-01T00:00:00Z,-32.9852,147.8852,28.381973266601562
1978-04-01T00:00:00Z,-32.9852,147.8852,24.226917266845703
1978-05-01T00:00:00Z,-32.9852,147.8852,19.503582000732422
1978-06-01T00:00:00Z,-32.9852,147.8852,13.822134971618652
1978-07-01T00:00:00Z,-32.9852,147.8852,13.031168937683105
1978-08-01T00:00:00Z,-32.9852,147.8852,14.47442626953125
1978-09-01T00:00:00Z,-32.9852,147.8852,17.788015365600586
1978-10-01T00:00:00Z,-32.9852,147.8852,22.673511505126953
1978-11-01T00:00:00Z,-32.9852,147.8852,25.450220108032227
1978-12-01T00:00:00Z,-32.9852,147.8852,28.487619400024414
1979-01-01T00:00:00Z,-32.9852,147.8852,35.9056282043457
1979-02-01T00:00:00Z,-32.9852,147.8852,33.799102783203125
1979-03-01T00:00:00Z,-32.9852,147.8852,29.651554107666016
1979-04-01T00:00:00Z,-32.9852,147.8852,22.867952346801758
1979-05-01T00:00:00Z,-32.9852,147.8852,17.536392211914062
1979-06-01T00:00:00Z,-32.9852,147.8852,16.8712215423584
1979-07-01T00:00:00Z,-32.9852,147.8852,15.472213745117188
1979-08-01T00:00:00Z,-32.9852,147.8852,16.043737411499023
1979-09-01T00:00:00Z,-32.9852,147.8852,19.078950881958008
1979-10-01T00:00:00Z,-32.9852,147.8852,23.927263259887695
1979-11-01T00:00:00Z,-32.9852,147.8852,29.64374351501465
1979-12-01T00:00:00Z,-32.9852,147.8852,33.80258560180664
1980-01-01T00:00:00Z,-32.9852,147.8852,31.56951141357422
1980-02-01T00:00:00Z,-32.9852,147.8852,32.956756591796875
1980-03-01T00:00:00Z,-32.9852,147.8852,30.872936248779297
1980-04-01T00:00:00Z,-32.9852,147.8852,25.496623992919922
1980-05-01T00:00:00Z,-32.9852,147.8852,19.2867488861084
1980-06-01T00:00:00Z,-32.9852,147.8852,14.573870658874512
1980-07-01T00:00:00Z,-32.9852,147.8852,13.514985084533691
1980-08-01T00:00:00Z,-32.9852,147.8852,17.52389144897461
1980-09-01T00:00:00Z,-32.9852,147.8852,22.286293029785156
1980-10-01T00:00:00Z,-32.9852,147.8852,26.839704513549805
1980-11-01T00:00:00Z,-32.9852,147.8852,30.65061378479004
1980-12-01T00:00:00Z,-32.9852,147.8852,32.87649917602539
1981-01-01T00:00:00Z,-32.9852,147.8852,36.6526985168457
1981-02-01T00:00:00Z,-32.9852,147.8852,33.325923919677734
1981-03-01T00:00:00Z,-32.9852,147.8852,28.81251335144043
1981-04-01T00:00:00Z,-32.9852,147.8852,25.55584144592285
1981-05-01T00:00:00Z,-32.9852,147.8852,18.6699275970459
1981-06-01T00:00:00Z,-32.9852,147.8852,13.651335716247559
1981-07-01T00:00:00Z,-32.9852,147.8852,13.26451587677002
1981-08-01T00:00:00Z,-32.9852,147.8852,14.442638397216797
1981-09-01T00:00:00Z,-32.9852,147.8852,21.86980438232422
1981-10-01T00:00:00Z,-32.9852,147.8852,25.264732360839844
1981-11-01T00:00:00Z,-32.9852,147.8852,25.63104248046875
1981-12-01T00:00:00Z,-32.9852,147.8852,31.568714141845703
1982-01-01T00:00:00Z,-32.9852,147.8852,34.00396728515625
1982-02-01T00:00:00Z,-32.9852,147.8852,33.85239028930664
1982-03-01T00:00:00Z,-32.9852,147.8852,27.702646255493164
1982-04-01T00:00:00Z,-32.9852,147.8852,24.035268783569336
1982-05-01T00:00:00Z,-32.9852,147.8852,19.53226089477539
1982-06-01T00:00:00Z,-32.9852,147.8852,14.54120922088623
1982-07-01T00:00:00Z,-32.9852,147.8852,14.741881370544434
1982-08-01T00:00:00Z,-32.9852,147.8852,21.342159271240234
1982-09-01T00:00:00Z,-32.9852,147.8852,20.378082275390625
1982-10-01T00:00:00Z,-32.9852,147.8852,25.189008712768555
1982-11-01T00:00:00Z,-32.9852,147.8852,32.17654800415039
1982-12-01T00:00:00Z,-32.9852,147.8852,32.23434829711914
1983-01-01T00:00:00Z,-32.9852,147.8852,32.596858978271484
1983-02-01T00:00:00Z,-32.9852,147.8852,34.82461166381836
1983-03-01T00:00:00Z,-32.9852,147.8852,30.84913444519043
1983-04-01T00:00:00Z,-32.9852,147.8852,21.256778717041016
1983-05-01T00:00:00Z,-32.9852,147.8852,18.36478042602539
1983-06-01T00:00:00Z,-32.9852,147.8852,14.036683082580566
1983-07-01T00:00:00Z,-32.9852,147.8852,13.088887214660645
1983-08-01T00:00:00Z,-32.9852,147.8852,15.691863059997559
1983-09-01T00:00:00Z,-32.9852,147.8852,19.740610122680664
1983-10-01T00:00:00Z,-32.9852,147.8852,24.424833297729492
1983-11-01T00:00:00Z,-32.9852,147.8852,25.404455184936523
1983-12-01T00:00:00Z,-32.9852,147.8852,30.154645919799805
1984-01-01T00:00:00Z,-32.9852,147.8852,28.0123233795166
1984-02-01T00:00:00Z,-32.9852,147.8852,30.450536727905273
1984-03-01T00:00:00Z,-32.9852,147.8852,27.397443771362305
1984-04-01T00:00:00Z,-32.9852,147.8852,23.214345932006836
1984-05-01T00:00:00Z,-32.9852,147.8852,20.075916290283203
1984-06-01T00:00:00Z,-32.9852,147.8852,18.09929656982422
1984-07-01T00:00:00Z,-32.9852,147.8852,13.221268653869629
1984-08-01T00:00:00Z,-32.9852,147.8852,15.76491928100586
1984-09-01T00:00:00Z,-32.9852,147.8852,17.038602828979492
1984-10-01T00:00:00Z,-32.9852,147.8852,23.561933517456055
1984-11-01T00:00:00Z,-32.9852,147.8852,27.862422943115234
1984-12-01T00:00:00Z,-32.9852,147.8852,30.11777114868164
1985-01-01T00:00:00Z,-32.9852,147.8852,33.49090576171875
1985-02-01T00:00:00Z,-32.9852,147.8852,32.61262130737305
1985-03-01T00:00:00Z,-32.9852,147.8852,29.75908660888672
1985-04-01T00:00:00Z,-32.9852,147.8852,23.713058471679688
1985-05-01T00:00:00Z,-32.9852,147.8852,20.00324249267578
1985-06-01T00:00:00Z,-32.9852,147.8852,14.495314598083496
1985-07-01T00:00:00Z,-32.9852,147.8852,15.354012489318848
1985-08-01T00:00:00Z,-32.9852,147.8852,15.453437805175781
1985-09-01T00:00:00Z,-32.9852,147.8852,18.862911224365234
1985-10-01T00:00:00Z,-32.9852,147.8852,23.644744873046875
1985-11-01T00:00:00Z,-32.9852,147.8852,26.258527755737305
1985-12-01T00:00:00Z,-32.9852,147.8852,28.544715881347656
1986-01-01T00:00:00Z,-32.9852,147.8852,31.687145233154297
1986-02-01T00:00:00Z,-32.9852,147.8852,32.83974838256836
1986-03-01T00:00:00Z,-32.9852,147.8852,32.33086013793945
1986-04-01T00:00:00Z,-32.9852,147.8852,25.493263244628906
1986-05-01T00:00:00Z,-32.9852,147.8852,19.70043182373047
1986-06-01T00:00:00Z,-32.9852,147.8852,15.251699447631836
1986-07-01T00:00:00Z,-32.9852,147.8852,13.49667739868164
1986-08-01T00:00:00Z,-32.9852,147.8852,16.047607421875
1986-09-01T00:00:00Z,-32.9852,147.8852,19.056241989135742
1986-10-01T00:00:00Z,-32.9852,147.8852,21.32889747619629
1986-11-01T00:00:00Z,-32.9852,147.8852,26.844703674316406
1986-12-01T00:00:00Z,-32.9852,147.8852,29.26711082458496
1987-01-01T00:00:00Z,-32.9852,147.8852,32.51013946533203
1987-02-01T00:00:00Z,-32.9852,147.8852,32.9483642578125
1987-03-01T00:00:00Z,-32.9852,147.8852,25.275415420532227
1987-04-01T00:00:00Z,-32.9852,147.8852,24.717205047607422
1987-05-01T00:00:00Z,-32.9852,147.8852,18.699119567871094
1987-06-01T00:00:00Z,-32.9852,147.8852,16.276735305786133
1987-07-01T00:00:00Z,-32.9852,147.8852,14.669493675231934
1987-08-01T00:00:00Z,-32.9852,147.8852,15.900896072387695
1987-09-01T00:00:00Z,-32.9852,147.8852,20.156951904296875
1987-10-01T00:00:00Z,-32.9852,147.8852,23.43547821044922
1987-11-01T00:00:00Z,-32.9852,147.8852,27.93284797668457
1987-12-01T00:00:00Z,-32.9852,147.8852,31.116518020629883
1988-01-01T00:00:00Z,-32.9852,147.8852,34.73241424560547
1988-02-01T00:00:00Z,-32.9852,147.8852,31.267141342163086
1988-03-01T00:00:00Z,-32.9852,147.8852,28.440793991088867
1988-04-01T00:00:00Z,-32.9852,147.8852,23.742387771606445
1988-05-01T00:00:00Z,-32.9852,147.8852,19.29400634765625
1988-06-01T00:00:00Z,-32.9852,147.8852,15.322446823120117
1988-07-01T00:00:00Z,-32.9852,147.8852,15.299581527709961
1988-08-01T00:00:00Z,-32.9852,147.8852,16.996065139770508
1988-09-01T00:00:00Z,-32.9852,147.8852,19.921295166015625
1988-10-01T00:00:00Z,-32.9852,147.8852,26.332618713378906
1988-11-01T00:00:00Z,-32.9852,147.8852,27.697420120239258
1988-12-01T00:00:00Z,-32.9852,147.8852,31.149526596069336
1989-01-01T00:00:00Z,-32.9852,147.8852,30.227455139160156
1989-02-01T00:00:00Z,-32.9852,147.8852,32.45399475097656
1989-03-01T00:00:00Z,-32.9852,147.8852,28.681724548339844
1989-04-01T00:00:00Z,-32.9852,147.8852,23.622678756713867
1989-05-01T00:00:00Z,-32.9852,147.8852,19.584863662719727
1989-06-01T00:00:00Z,-32.9852,147.8852,14.406139373779297
1989-07-01T00:00:00Z,-32.9852,147.8852,12.949664115905762
1989-08-01T00:00:00Z,-32.9852,147.8852,14.163311004638672
1989-09-01T00:00:00Z,-32.9852,147.8852,19.68439483642578
1989-10-01T00:00:00Z,-32.9852,147.8852,24.040456771850586
1989-11-01T00:00:00Z,-32.9852,147.8852,28.04180145263672
1989-12-01T00:00:00Z,-32.9852,147.8852,31.694875717163086
1990-01-01T00:00:00Z,-32.9852,147.8852,34.26961898803711
1990-02-01T00:00:00Z,-32.9852,147.8852,30.789478302001953
1990-03-01T00:00:00Z,-32.9852,147.8852,30.250646591186523
1990-04-01T00:00:00Z,-32.9852,147.8852,21.981487274169922
1990-05-01T00:00:00Z,-32.9852,147.8852,19.116308212280273
1990-06-01T00:00:00Z,-32.9852,147.8852,14.416556358337402
1990-07-01T00:00:00Z,-32.9852,147.8852,13.844117164611816
1990-08-01T00:00:00Z,-32.9852,147.8852,14.04550552368164
1990-09-01T00:00:00Z,-32.9852,147.8852,18.85772705078125
1990-10-01T00:00:00Z,-32.9852,147.8852,23.74217987060547
1990-11-01T00:00:00Z,-32.9852,147.8852,29.299942016601562
1990-12-01T00:00:00Z,-32.9852,147.8852,34.10961151123047
1991-01-01T00:00:00Z,-32.9852,147.8852,33.74409866333008
1991-02-01T00:00:00Z,-32.9852,147.8852,35.927852630615234
1991-03-01T00:00:00Z,-32.9852,147.8852,29.90996742248535
1991-04-01T00:00:00Z,-32.9852,147.8852,24.663177490234375
1991-05-01T00:00:00Z,-32.9852,147.8852,20.68952751159668
1991-06-01T00:00:00Z,-32.9852,147.8852,16.812700271606445
1991-07-01T00:00:00Z,-32.9852,147.8852,13.549680709838867
1991-08-01T00:00:00Z,-32.9852,147.8852,15.086031913757324
1991-09-01T00:00:00Z,-32.9852,147.8852,19.531749725341797
1991-10-01T00:00:00Z,-32.9852,147.8852,26.612104415893555
1991-11-01T00:00:00Z,-32.9852,147.8852,28.23887825012207
1991-12-01T00:00:00Z,-32.9852,147.8852,29.159589767456055
1992-01-01T00:00:00Z,-32.9852,147.8852,31.055559158325195
1992-02-01T00:00:00Z,-32.9852,147.8852,28.411441802978516
1992-03-01T00:00:00Z,-32.9852,147.8852,29.4934139251709
1992-04-01T00:00:00Z,-32.9852,147.8852,24.551132202148438
1992-05-01T00:00:00Z,-32.9852,147.8852,19.216346740722656
1992-06-01T00:00:00Z,-32.9852,147.8852,14.850728988647461
1992-07-01T00:00:00Z,-32.9852,147.8852,15.401205062866211
1992-08-01T00:00:00Z,-32.9852,147.8852,15.14616584777832
1992-09-01T00:00:00Z,-32.9852,147.8852,17.300682067871094
1992-10-01T00:00:00Z,-32.9852,147.8852,22.724437713623047
1992-11-01T00:00:00Z,-32.9852,147.8852,24.61947250366211
1992-12-01T00:00:00Z,-32.9852,147.8852,27.501195907592773
1993-01-01T00:00:00Z,-32.9852,147.8852,33.26032257080078
1993-02-01T00:00:00Z,-32.9852,147.8852,32.26569747924805
1993-03-01T00:00:00Z,-32.9852,147.8852,27.448131561279297
1993-04-01T00:00:00Z,-32.9852,147.8852,26.855257034301758
1993-05-01T00:00:00Z,-32.9852,147.8852,20.214134216308594
1993-06-01T00:00:00Z,-32.9852,147.8852,14.59383773803711
1993-07-01T00:00:00Z,-32.9852,147.8852,16.284984588623047
1993-08-01T00:00:00Z,-32.9852,147.8852,17.152259826660156
1993-09-01T00:00:00Z,-32.9852,147.8852,18.523521423339844
1993-10-01T00:00:00Z,-32.9852,147.8852,21.700557708740234
1993-11-01T00:00:00Z,-32.9852,147.8852,27.566654205322266
1993-12-01T00:00:00Z,-32.9852,147.8852,29.01073455810547
1994-01-01T00:00:00Z,-32.9852,147.8852,33.58899688720703
1994-02-01T00:00:00Z,-32.9852,147.8852,31.8928165435791
1994-03-01T00:00:00Z,-32.9852,147.8852,26.813566207885742
1994-04-01T00:00:00Z,-32.9852,147.8852,24.648183822631836
1994-05-01T00:00:00Z,-32.9852,147.8852,20.433616638183594
1994-06-01T00:00:00Z,-32.9852,147.8852,16.70551872253418
1994-07-01T00:00:00Z,-32.9852,147.8852,16.121912002563477
1994-08-01T00:00:00Z,-32.9852,147.8852,16.882049560546875
1994-09-01T00:00:00Z,-32.9852,147.8852,20.15411376953125
1994-10-01T00:00:00Z,-32.9852,147.8852,25.057411193847656
1994-11-01T00:00:00Z,-32.9852,147.8852,27.524595260620117
1994-12-01T00:00:00Z,-32.9852,147.8852,33.64427185058594
1995-01-01T00:00:00Z,-32.9852,147.8852,29.708362579345703
1995-02-01T00:00:00Z,-32.9852,147.8852,30.9457950592041
1995-03-01T00:00:00Z,-32.9852,147.8852,28.573396682739258
1995-04-01T00:00:00Z,-32.9852,147.8852,21.748193740844727
1995-05-01T00:00:00Z,-32.9852,147.8852,18.296619415283203
1995-06-01T00:00:00Z,-32.9852,147.8852,15.23862361907959
1995-07-01T00:00:00Z,-32.9852,147.8852,12.42386245727539
1995-08-01T00:00:00Z,-32.9852,147.8852,19.52963638305664
1995-09-01T00:00:00Z,-32.9852,147.8852,19.99384117126465
1995-10-01T00:00:00Z,-32.9852,147.8852,25.222204208374023
1995-11-01T00:00:00Z,-32.9852,147.8852,26.850648880004883
1995-12-01T00:00:00Z,-32.9852,147.8852,29.626300811767578
1996-01-01T00:00:00Z,-32.9852,147.8852,32.37620544433594
1996-02-01T00:00:00Z,-32.9852,147.8852,30.252683639526367
1996-03-01T00:00:00Z,-32.9852,147.8852,28.607620239257812
1996-04-01T00:00:00Z,-32.9852,147.8852,23.14214515686035
1996-05-01T00:00:00Z,-32.9852,147.8852,19.928855895996094
1996-06-01T00:00:00Z,-32.9852,147.8852,16.420785903930664
1996-07-01T00:00:00Z,-32.9852,147.8852,13.405410766601562
1996-08-01T00:00:00Z,-32.9852,147.8852,15.159523010253906
1996-09-01T00:00:00Z,-32.9852,147.8852,18.705291748046875
1996-10-01T00:00:00Z,-32.9852,147.8852,23.955904006958008
1996-11-01T00:00:00Z,-32.9852,147.8852,25.899433135986328
1996-12-01T00:00:00Z,-32.9852,147.8852,30.71146583557129
1997-01-01T00:00:00Z,-32.9852,147.8852,31.403833389282227
1997-02-01T00:00:00Z,-32.9852,147.8852,34.57460021972656
1997-03-01T00:00:00Z,-32.9852,147.8852,29.506250381469727
1997-04-01T00:00:00Z,-32.9852,147.8852,26.18739891052246
1997-05-01T00:00:00Z,-32.9852,147.8852,19.636516571044922
1997-06-01T00:00:00Z,-32.9852,147.8852,15.794124603271484
1997-07-01T00:00:00Z,-32.9852,147.8852,14.963661193847656
1997-08-01T00:00:00Z,-32.9852,147.8852,15.825769424438477
1997-09-01T00:00:00Z,-32.9852,147.8852,18.893762588500977
1997-10-01T00:00:00Z,-32.9852,147.8852,24.80373191833496
1997-11-01T00:00:00Z,-32.9852,147.8852,31.552295684814453
1997-12-01T00:00:00Z,-32.9852,147.8852,33.65471267700195
1998-01-01T00:00:00Z,-32.9852,147.8852,33.23744201660156
1998-02-01T00:00:00Z,-32.9852,147.8852,33.73588943481445
1998-03-01T00:00:00Z,-32.9852,147.8852,31.594635009765625
1998-04-01T00:00:00Z,-32.9852,147.8852,24.05558204650879
1998-05-01T00:00:00Z,-32.9852,147.8852,17.743398666381836
1998-06-01T00:00:00Z,-32.9852,147.8852,14.741198539733887
1998-07-01T00:00:00Z,-32.9852,147.8852,12.5931978225708
1998-08-01T00:00:00Z,-32.9852,147.8852,16.22523307800293
1998-09-01T00:00:00Z,-32.9852,147.8852,19.320369720458984
1998-10-01T00:00:00Z,-32.9852,147.8852,21.60934829711914
1998-11-01T00:00:00Z,-32.9852,147.8852,25.918638229370117
1998-12-01T00:00:00Z,-32.9852,147.8852,31.889968872070312
1999-01-01T00:00:00Z,-32.9852,147.8852,35.0168571472168
1999-02-01T00:00:00Z,-32.9852,147.8852,31.257091522216797
1999-03-01T00:00:00Z,-32.9852,147.8852,27.570877075195312
1999-04-01T00:00:00Z,-32.9852,147.8852,22.012771606445312
1999-05-01T00:00:00Z,-32.9852,147.8852,20.92287254333496
1999-06-01T00:00:00Z,-32.9852,147.8852,15.964254379272461
1999-07-01T00:00:00Z,-32.9852,147.8852,15.583592414855957
1999-08-01T00:00:00Z,-32.9852,147.8852,17.017621994018555
1999-09-01T00:00:00Z,-32.9852,147.8852,21.14474105834961
1999-10-01T00:00:00Z,-32.9852,147.8852,23.709461212158203
1999-11-01T00:00:00Z,-32.9852,147.8852,24.53806495666504
1999-12-01T00:00:00Z,-32.9852,147.8852,27.999242782592773
2000-01-01T00:00:00Z,-32.9852,147.8852,29.85064125061035
2000-02-01T00:00:00Z,-32.9852,147.8852,32.49252700805664
2000-03-01T00:00:00Z,-32.9852,147.8852,28.27700424194336
2000-04-01T00:00:00Z,-32.9852,147.8852,22.750391006469727
2000-05-01T00:00:00Z,-32.9852,147.8852,17.48006820678711
2000-06-01T00:00:00Z,-32.9852,147.8852,14.375175476074219
2000-07-01T00:00:00Z,-32.9852,147.8852,14.626702308654785
2000-08-01T00:00:00Z,-32.9852,147.8852,15.649282455444336
2000-09-01T00:00:00Z,-32.9852,147.8852,21.8653621673584
2000-10-01T00:00:00Z,-32.9852,147.8852,22.430265426635742
2000-11-01T00:00:00Z,-32.9852,147.8852,26.676727294921875
2000-12-01T00:00:00Z,-32.9852,147.8852,32.28292465209961
2001-01-01T00:00:00Z,-32.9852,147.8852,36.26683807373047
2001-02-01T00:00:00Z,-32.9852,147.8852,33.1942138671875
2001-03-01T00:00:00Z,-32.9852,147.8852,27.84453582763672
2001-04-01T00:00:00Z,-32.9852,147.8852,24.891414642333984
2001-05-01T00:00:00Z,-32.9852,147.8852,18.688758850097656
2001-06-01T00:00:00Z,-32.9852,147.8852,16.20585823059082
2001-07-01T00:00:00Z,-32.9852,147.8852,14.656933784484863
2001-08-01T00:00:00Z,-32.9852,147.8852,16.157852172851562
2001-09-01T00:00:00Z,-32.9852,147.8852,21.076730728149414
2001-10-01T00:00:00Z,-32.9852,147.8852,22.774398803710938
2001-11-01T00:00:00Z,-32.9852,147.8852,27.222455978393555
2001-12-01T00:00:00Z,-32.9852,147.8852,31.175508499145508
2002-01-01T00:00:00Z,-32.9852,147.8852,33.31064987182617
2002-02-01T00:00:00Z,-32.9852,147.8852,29.370580673217773
2002-03-01T00:00:00Z,-32.9852,147.8852,29.61664581298828
2002-04-01T00:00:00Z,-32.9852,147.8852,26.29865837097168
2002-05-01T00:00:00Z,-32.9852,147.8852,18.91007423400879
2002-06-01T00:00:00Z,-32.9852,147.8852,16.16951560974121
2002-07-01T00:00:00Z,-32.9852,147.8852,16.58533477783203
2002-08-01T00:00:00Z,-32.9852,147.8852,18.987171173095703
2002-09-01T00:00:00Z,-32.9852,147.8852,21.995512008666992
2002-10-01T00:00:00Z,-32.9852,147.8852,26.338178634643555
2002-11-01T00:00:00Z,-32.9852,147.8852,32.36716842651367
2002-12-01T00:00:00Z,-32.9852,147.8852,32.495880126953125
2003-01-01T00:00:00Z,-32.9852,147.8852,35.27180480957031
2003-02-01T00:00:00Z,-32.9852,147.8852,32.662532806396484
2003-03-01T00:00:00Z,-32.9852,147.8852,27.602075576782227
2003-04-01T00:00:00Z,-32.9852,147.8852,23.80708885192871
2003-05-01T00:00:00Z,-32.9852,147.8852,20.418045043945312
2003-06-01T00:00:00Z,-32.9852,147.8852,16.431926727294922
2003-07-01T00:00:00Z,-32.9852,147.8852,15.219520568847656
2003-08-01T00:00:00Z,-32.9852,147.8852,15.790024757385254
2003-09-01T00:00:00Z,-32.9852,147.8852,20.049089431762695
2003-10-01T00:00:00Z,-32.9852,147.8852,21.966087341308594
2003-11-01T00:00:00Z,-32.9852,147.8852,28.927770614624023
2003-12-01T00:00:00Z,-32.9852,147.8852,33.17326736450195
2004-01-01T00:00:00Z,-32.9852,147.8852,33.795021057128906
2004-02-01T00:00:00Z,-32.9852,147.8852,35.41279220581055
2004-03-01T00:00:00Z,-32.9852,147.8852,29.902637481689453
2004-04-01T00:00:00Z,-32.9852,147.8852,26.23099136352539
2004-05-01T00:00:00Z,-32.9852,147.8852,18.68520164489746
2004-06-01T00:00:00Z,-32.9852,147.8852,14.906083106994629
2004-07-01T00:00:00Z,-32.9852,147.8852,13.878923416137695
2004-08-01T00:00:00Z,-32.9852,147.8852,16.329076766967773
2004-09-01T00:00:00Z,-32.9852,147.8852,19.772371292114258
2004-10-01T00:00:00Z,-32.9852,147.8852,24.553068161010742
2004-11-01T00:00:00Z,-32.9852,147.8852,28.739778518676758
2004-12-01T00:00:00Z,-32.9852,147.8852,30.715974807739258
2005-01-01T00:00:00Z,-32.9852,147.8852,34.03049087524414
2005-02-01T00:00:00Z,-32.9852,147.8852,31.995590209960938
2005-03-01T00:00:00Z,-32.9852,147.8852,28.838470458984375
2005-04-01T00:00:00Z,-32.9852,147.8852,28.918577194213867
2005-05-01T00:00:00Z,-32.9852,147.8852,21.367778778076172
2005-06-01T00:00:00Z,-32.9852,147.8852,17.018407821655273
2005-07-01T00:00:00Z,-32.9852,147.8852,14.975205421447754
2005-08-01T00:00:00Z,-32.9852,147.8852,16.333148956298828
2005-09-01T00:00:00Z,-32.9852,147.8852,18.862438201904297
2005-10-01T00:00:00Z,-32.9852,147.8852,24.100427627563477
2005-11-01T00:00:00Z,-32.9852,147.8852,28.52623748779297
2005-12-01T00:00:00Z,-32.9852,147.8852,33.362998962402344
2006-01-01T00:00:00Z,-32.9852,147.8852,36.675960540771484
2006-02-01T00:00:00Z,-32.9852,147.8852,35.41079330444336
2006-03-01T00:00:00Z,-32.9852,147.8852,31.116594314575195
2006-04-01T00:00:00Z,-32.9852,147.8852,23.215423583984375
2006-05-01T00:00:00Z,-32.9852,147.8852,18.98503875732422
2006-06-01T00:00:00Z,-32.9852,147.8852,15.422540664672852
2006-07-01T00:00:00Z,-32.9852,147.8852,15.166749954223633
2006-08-01T00:00:00Z,-32.9852,147.8852,17.96332359313965
2006-09-01T00:00:00Z,-32.9852,147.8852,23.273202896118164
2006-10-01T00:00:00Z,-32.9852,147.8852,27.891584396362305
2006-11-01T00:00:00Z,-32.9852,147.8852,31.456912994384766
2006-12-01T00:00:00Z,-32.9852,147.8852,32.54206466674805
2007-01-01T00:00:00Z,-32.9852,147.8852,33.96865463256836
2007-02-01T00:00:00Z,-32.9852,147.8852,34.36769104003906
2007-03-01T00:00:00Z,-32.9852,147.8852,30.46465492248535
2007-04-01T00:00:00Z,-32.9852,147.8852,25.76694679260254
2007-05-01T00:00:00Z,-32.9852,147.8852,21.16926383972168
2007-06-01T00:00:00Z,-32.9852,147.8852,13.45551872253418
2007-07-01T00:00:00Z,-32.9852,147.8852,13.647551536560059
2007-08-01T00:00:00Z,-32.9852,147.8852,18.440326690673828
2007-09-01T00:00:00Z,-32.9852,147.8852,22.015287399291992
2007-10-01T00:00:00Z,-32.9852,147.8852,27.50457191467285
2007-11-01T00:00:00Z,-32.9852,147.8852,29.02324676513672
2007-12-01T00:00:00Z,-32.9852,147.8852,29.78956413269043
2008-01-01T00:00:00Z,-32.9852,147.8852,33.23253631591797
2008-02-01T00:00:00Z,-32.9852,147.8852,28.669315338134766
2008-03-01T00:00:00Z,-32.9852,147.8852,29.877506256103516
2008-04-01T00:00:00Z,-32.9852,147.8852,23.39733123779297
2008-05-01T00:00:00Z,-32.9852,147.8852,20.347909927368164
2008-06-01T00:00:00Z,-32.9852,147.8852,17.104387283325195
2008-07-01T00:00:00Z,-32.9852,147.8852,14.928467750549316
2008-08-01T00:00:00Z,-32.9852,147.8852,14.609186172485352
2008-09-01T00:00:00Z,-32.9852,147.8852,21.317623138427734
2008-10-01T00:00:00Z,-32.9852,147.8852,26.727712631225586
2008-11-01T00:00:00Z,-32.9852,147.8852,27.439496994018555
2008-12-01T00:00:00Z,-32.9852,147.8852,30.338523864746094
2009-01-01T00:00:00Z,-32.9852,147.8852,35.377315521240234
2009-02-01T00:00:00Z,-32.9852,147.8852,32.84672927856445
2009-03-01T00:00:00Z,-32.9852,147.8852,29.44615364074707
2009-04-01T00:00:00Z,-32.9852,147.8852,23.100955963134766
2009-05-01T00:00:00Z,-32.9852,147.8852,20.384679794311523
2009-06-01T00:00:00Z,-32.9852,147.8852,15.447263717651367
2009-07-01T00:00:00Z,-32.9852,147.8852,14.822778701782227
2009-08-01T00:00:00Z,-32.9852,147.8852,18.755699157714844
2009-09-01T00:00:00Z,-32.9852,147.8852,22.129592895507812
2009-10-01T00:00:00Z,-32.9852,147.8852,25.103721618652344
2009-11-01T00:00:00Z,-32.9852,147.8852,34.020591735839844
2009-12-01T00:00:00Z,-32.9852,147.8852,32.33021545410156
2010-01-01T00:00:00Z,-32.9852,147.8852,34.892303466796875
2010-02-01T00:00:00Z,-32.9852,147.8852,30.543813705444336
2010-03-01T00:00:00Z,-32.9852,147.8852,28.757312774658203
2010-04-01T00:00:00Z,-32.9852,147.8852,24.649608612060547
2010-05-01T00:00:00Z,-32.9852,147.8852,19.557477951049805
2010-06-01T00:00:00Z,-32.9852,147.8852,15.567032814025879
2010-07-01T00:00:00Z,-32.9852,147.8852,14.67099380493164
2010-08-01T00:00:00Z,-32.9852,147.8852,14.230901718139648
2010-09-01T00:00:00Z,-32.9852,147.8852,18.5474910736084
2010-10-01T00:00:00Z,-32.9852,147.8852,23.11202049255371
2010-11-01T00:00:00Z,-32.9852,147.8852,26.388086318969727
2010-12-01T00:00:00Z,-32.9852,147.8852,28.426301956176758
2011-01-01T00:00:00Z,-32.9852,147.8852,34.302452087402344
2011-02-01T00:00:00Z,-32.9852,147.8852,31.81689453125
2011-03-01T00:00:00Z,-32.9852,147.8852,27.865575790405273
2011-04-01T00:00:00Z,-32.9852,147.8852,23.33844757080078
2011-05-01T00:00:00Z,-32.9852,147.8852,18.07442283630371
2011-06-01T00:00:00Z,-32.9852,147.8852,15.869271278381348
2011-07-01T00:00:00Z,-32.9852,147.8852,15.226632118225098
2011-08-01T00:00:00Z,-32.9852,147.8852,19.050874710083008
2011-09-01T00:00:00Z,-32.9852,147.8852,21.754520416259766
2011-10-01T00:00:00Z,-32.9852,147.8852,23.804256439208984
2011-11-01T00:00:00Z,-32.9852,147.8852,27.88942527770996
2011-12-01T00:00:00Z,-32.9852,147.8852,27.534238815307617
2012-01-01T00:00:00Z,-32.9852,147.8852,30.67100715637207
2012-02-01T00:00:00Z,-32.9852,147.8852,28.813234329223633
2012-03-01T00:00:00Z,-32.9852,147.8852,26.715164184570312
2012-04-01T00:00:00Z,-32.9852,147.8852,24.615365982055664
2012-05-01T00:00:00Z,-32.9852,147.8852,19.014028549194336
2012-06-01T00:00:00Z,-32.9852,147.8852,15.696141242980957
2012-07-01T00:00:00Z,-32.9852,147.8852,14.82497501373291
2012-08-01T00:00:00Z,-32.9852,147.8852,16.64808464050293
2012-09-01T00:00:00Z,-32.9852,147.8852,21.429155349731445
2012-10-01T00:00:00Z,-32.9852,147.8852,25.508769989013672
2012-11-01T00:00:00Z,-32.9852,147.8852,30.412216186523438
2012-12-01T00:00:00Z,-32.9852,147.8852,32.88034439086914
