time,latitude[unit="degrees_north"],longitude[unit="degrees_east"],air_temperature[unit="C"]
1970-01-01T00:00:00Z,-30.5675,152.1461,24.099578857421875
1970-02-01T00:00:00Z,-30.5675,152.1461,23.932851791381836
1970-03-01T00:00:00Z,-30.5675,152.1461,21.93218421936035
1970-04-01T00:00:00Z,-30.5675,152.1461,19.238393783569336
1970-05-01T00:00:00Z,-30.5675,152.1461,14.369054794311523
1970-06-01T00:00:00Z,-30.5675,152.1461,13.561849594116211
1970-07-01T00:00:00Z,-30.5675,152.1461,13.292817115783691
1970-08-01T00:00:00Z,-30.5675,152.1461,13.343162536621094
1970-09-01T00:00:00Z,-30.5675,152.1461,15.046013832092285
1970-10-01T00:00:00Z,-30.5675,152.1461,20.38890838623047
1970-11-01T00:00:00Z,-30.5675,152.1461,20.2949275970459
1970-12-01T00:00:00Z,-30.5675,152.1461,22.65764808654785
1971-01-01T00:00:00Z,-30.5675,152.1461,23.448801040649414
1971-02-01T00:00:00Z,-30.5675,152.1461,22.42694091796875
1971-03-01T00:00:00Z,-30.5675,152.1461,20.410465240478516
1971-04-01T00:00:00Z,-30.5675,152.1461,18.03290557861328
1971-05-01T00:00:00Z,-30.5675,152.1461,14.785791397094727
1971-06-01T00:00:00Z,-30.5675,152.1461,12.719064712524414
1971-07-01T00:00:00Z,-30.5675,152.1461,11.607820510864258
1971-08-01T00:00:00Z,-30.5675,152.1461,13.201498985290527
1971-09-01T00:00:00Z,-30.5675,152.1461,16.17560577392578
1971-10-01T00:00:00Z,-30.5675,152.1461,20.174842834472656
1971-11-01T00:00:00Z,-30.5675,152.1461,20.132278442382812
1971-12-01T00:00:00Z,-30.5675,152.1461,23.11553382873535
1972-01-01T00:00:00Z,-30.5675,152.1461,22.261253356933594
1972-02-01T00:00:00Z,-30.5675,152.1461,21.023937225341797
1972-03-01T00:00:00Z,-30.5675,152.1461,20.970237731933594
1972-04-01T00:00:00Z,-30.5675,152.1461,18.25558090209961
1972-05-01T00:00:00Z,-30.5675,152.1461,14.545254707336426
1972-06-01T00:00:00Z,-30.5675,152.1461,13.656416893005371
1972-07-01T00:00:00Z,-30.5675,152.1461,12.100379943847656
1972-08-01T00:00:00Z,-30.5675,152.1461,14.1686429977417
1972-09-01T00:00:00Z,-30.5675,152.1461,18.74591827392578
1972-10-01T00:00:00Z,-30.5675,152.1461,19.172225952148438
1972-11-01T00:00:00Z,-30.5675,152.1461,20.683494567871094
1972-12-01T00:00:00Z,-30.5675,152.1461,25.240293502807617
1973-01-01T00:00:00Z,-30.5675,152.1461,25.373952865600586
1973-02-01T00:00:00Z,-30.5675,152.1461,23.660259246826172
1973-03-01T00:00:00Z,-30.5675,152.1461,23.283842086791992
1973-04-01T00:00:00Z,-30.5675,152.1461,20.40831756591797
1973-05-01T00:00:00Z,-30.5675,152.1461,17.832056045532227
1973-06-01T00:00:00Z,-30.5675,152.1461,13.490577697753906
1973-07-01T00:00:00Z,-30.5675,152.1461,13.469303131103516
1973-08-01T00:00:00Z,-30.5675,152.1461,14.319644927978516
1973-09-01T00:00:00Z,-30.5675,152.1461,17.80756187438965
1973-10-01T00:00:00Z,-30.5675,152.1461,20.036869049072266
1973-11-01T00:00:00Z,-30.5675,152.1461,21.98174476623535
1973-12-01T00:00:00Z,-30.5675,152.1461,22.91213035583496
1974-01-01T00:00:00Z,-30.5675,152.1461,22.006711959838867
1974-02-01T00:00:00Z,-30.5675,152.1461,22.95173454284668
1974-03-01T00:00:00Z,-30.5675,152.1461,20.72352409362793
1974-04-01T00:00:00Z,-30.5675,152.1461,19.146398544311523
1974-05-01T00:00:00Z,-30.5675,152.1461,15.41611385345459
1974-06-01T00:00:00Z,-30.5675,152.1461,12.756457328796387
1974-07-01T00:00:00Z,-30.5675,152.1461,11.929685592651367
1974-08-01T00:00:00Z,-30.5675,152.1461,12.303412437438965
1974-09-01T00:00:00Z,-30.5675,152.1461,14.714522361755371
1974-10-01T00:00:00Z,-30.5675,152.1461,17.998497009277344
1974-11-01T00:00:00Z,-30.5675,152.1461,19.869831085205078
1974-12-01T00:00:00Z,-30.5675,152.1461,24.92215347290039
1975-01-01T00:00:00Z,-30.5675,152.1461,25.200593948364258
1975-02-01T00:00:00Z,-30.5675,152.1461,23.516592025756836
1975-03-01T00:00:00Z,-30.5675,152.1461,21.309104919433594
1975-04-01T00:00:00Z,-30.5675,152.1461,18.7026424407959
1975-05-01T00:00:00Z,-30.5675,152.1461,16.637048721313477
1975-06-01T00:00:00Z,-30.5675,152.1461,12.220582008361816
1975-07-01T00:00:00Z,-30.5675,152.1461,13.872180938720703
1975-08-01T00:00:00Z,-30.5675,152.1461,13.428484916687012
1975-09-01T00:00:00Z,-30.5675,152.1461,16.713048934936523
1975-10-01T00:00:00Z,-30.5675,152.1461,18.326175689697266
1975-11-01T00:00:00Z,-30.5675,152.1461,21.517915725708008
1975-12-01T00:00:00Z,-30.5675,152.1461,23.203201293945312
1976-01-01T00:00:00Z,-30.5675,152.1461,22.58928680419922
1976-02-01T00:00:00Z,-30.5675,152.1461,21.27805519104004
1976-03-01T00:00:00Z,-30.5675,152.1461,21.432348251342773
1976-04-01T00:00:00Z,-30.5675,152.1461,18.0111026763916
1976-05-01T00:00:00Z,-30.5675,152.1461,16.27873992919922
1976-06-01T00:00:00Z,-30.5675,152.1461,13.102544784545898
1976-07-01T00:00:00Z,-30.5675,152.1461,12.822165489196777
1976-08-01T00:00:00Z,-30.5675,152.1461,13.294573783874512
1976-09-01T00:00:00Z,-30.5675,152.1461,15.163324356079102
1976-10-01T00:00:00Z,-30.5675,152.1461,17.40176010131836
1976-11-01T00:00:00Z,-30.5675,152.1461,22.133636474609375
1976-12-01T00:00:00Z,-30.5675,152.1461,26.141178131103516
1977-01-01T00:00:00Z,-30.5675,152.1461,24.492122650146484
1977-02-01T00:00:00Z,-30.5675,152.1461,23.914913177490234
1977-03-01T00:00:00Z,-30.5675,152.1461,21.48593521118164
1977-04-01T00:00:00Z,-30.5675,152.1461,19.366464614868164
1977-05-01T00:00:00Z,-30.5675,152.1461,14.67664909362793
1977-06-01T00:00:00Z,-30.5675,152.1461,12.11965274810791
1977-07-01T00:00:00Z,-30.5675,152.1461,12.045332908630371
1977-08-01T00:00:00Z,-30.5675,152.1461,15.875381469726562
1977-09-01T00:00:00Z,-30.5675,152.1461,15.956336975097656
1977-10-01T00:00:00Z,-30.5675,152.1461,21.81268310546875
1977-11-01T00:00:00Z,-30.5675,152.1461,23.580078125
1977-12-01T00:00:00Z,-30.5675,152.1461,25.60825538635254
1978-01-01T00:00:00Z,-30.5675,152.1461,24.41263771057129
1978-02-01T00:00:00Z,-30.5675,152.1461,25.225324630737305
1978-03-01T00:00:00Z,-30.5675,152.1461,22.091960906982422
1978-04-01T00:00:00Z,-30.5675,152.1461,19.372106552124023
1978-05-01T00:00:00Z,-30.5675,152.1461,15.84233283996582
1978-06-01T00:00:00Z,-30.5675,152.1461,11.404020309448242
1978-07-01T00:00:00Z,-30.5675,152.1461,11.640268325805664
1978-08-01T00:00:00Z,-30.5675,152.1461,12.64915943145752
1978-09-01T00:00:00Z,-30.5675,152.1461,15.728958129882812
1978-10-01T00:00:00Z,-30.5675,152.1461,18.5364990234375
1978-11-01T00:00:00Z,-30.5675,152.1461,20.977388381958008
1978-12-01T00:00:00Z,-30.5675,152.1461,22.419639587402344
1979-01-01T00:00:00Z,-30.5675,152.1461,25.4973087310791
1979-02-01T00:00:00Z,-30.5675,152.1461,24.068422317504883
1979-03-01T00:00:00Z,-30.5675,152.1461,21.852474212646484
1979-04-01T00:00:00Z,-30.5675,152.1461,19.990232467651367
1979-05-01T00:00:00Z,-30.5675,152.1461,14.307600975036621
1979-06-01T00:00:00Z,-30.5675,152.1461,14.458650588989258
1979-07-01T00:00:00Z,-30.5675,152.1461,12.658257484436035
1979-08-01T00:00:00Z,-30.5675,152.1461,13.911307334899902
1979-09-01T00:00:00Z,-30.5675,152.1461,16.817569732666016
1979-10-01T00:00:00Z,-30.5675,152.1461,19.51324462890625
1979-11-01T00:00:00Z,-30.5675,152.1461,22.817468643188477
1979-12-01T00:00:00Z,-30.5675,152.1461,27.786136627197266
1980-01-01T00:00:00Z,-30.5675,152.1461,25.351173400878906
1980-02-01T00:00:00Z,-30.5675,152.1461,24.457246780395508
1980-03-01T00:00:00Z,-30.5675,152.1461,25.126651763916016
1980-04-01T00:00:00Z,-30.5675,152.1461,21.37887954711914
1980-05-01T00:00:00Z,-30.5675,152.1461,15.946135520935059
1980-06-01T00:00:00Z,-30.5675,152.1461,13.394750595092773
1980-07-01T00:00:00Z,-30.5675,152.1461,11.63239574432373
1980-08-01T00:00:00Z,-30.5675,152.1461,15.311812400817871
1980-09-01T00:00:00Z,-30.5675,152.1461,20.353517532348633
1980-10-01T00:00:00Z,-30.5675,152.1461,22.06277847290039
1980-11-01T00:00:00Z,-30.5675,152.1461,24.693588256835938
1980-12-01T00:00:00Z,-30.5675,152.1461,24.15274429321289
1981-01-01T00:00:00Z,-30.5675,152.1461,26.794937133789062
1981-02-01T00:00:00Z,-30.5675,152.1461,25.34160041809082
1981-03-01T00:00:00Z,-30.5675,152.1461,23.492210388183594
1981-04-01T00:00:00Z,-30.5675,152.1461,20.718244552612305
1981-05-01T00:00:00Z,-30.5675,152.1461,15.050375938415527
1981-06-01T00:00:00Z,-30.5675,152.1461,11.88745403289795
1981-07-01T00:00:00Z,-30.5675,152.1461,12.059852600097656
1981-08-01T00:00:00Z,-30.5675,152.1461,12.617997169494629
1981-09-01T00:00:00Z,-30.5675,152.1461,19.008827209472656
1981-10-01T00:00:00Z,-30.5675,152.1461,19.219091415405273
1981-11-01T00:00:00Z,-30.5675,152.1461,19.609060287475586
1981-12-01T00:00:00Z,-30.5675,152.1461,24.63019561767578
1982-01-01T00:00:00Z,-30.5675,152.1461,25.050905227661133
1982-02-01T00:00:00Z,-30.5675,152.1461,24.395734786987305
1982-03-01T00:00:00Z,-30.5675,152.1461,21.15690040588379
1982-04-01T00:00:00Z,-30.5675,152.1461,18.860694885253906
1982-05-01T00:00:00Z,-30.5675,152.1461,16.835163116455078
1982-06-01T00:00:00Z,-30.5675,152.1461,12.34939193725586
1982-07-01T00:00:00Z,-30.5675,152.1461,11.83297348022461
1982-08-01T00:00:00Z,-30.5675,152.1461,16.219186782836914
1982-09-01T00:00:00Z,-30.5675,152.1461,16.88869285583496
1982-10-01T00:00:00Z,-30.5675,152.1461,19.896472930908203
1982-11-01T00:00:00Z,-30.5675,152.1461,24.772050857543945
1982-12-01T00:00:00Z,-30.5675,152.1461,25.00558090209961
1983-01-01T00:00:00Z,-30.5675,152.1461,24.822189331054688
1983-02-01T00:00:00Z,-30.5675,152.1461,25.873863220214844
1983-03-01T00:00:00Z,-30.5675,152.1461,23.14762306213379
1983-04-01T00:00:00Z,-30.5675,152.1461,17.420177459716797
1983-05-01T00:00:00Z,-30.5675,152.1461,15.355141639709473
1983-06-01T00:00:00Z,-30.5675,152.1461,12.4126615524292
1983-07-01T00:00:00Z,-30.5675,152.1461,11.614730834960938
1983-08-01T00:00:00Z,-30.5675,152.1461,13.060568809509277
1983-09-01T00:00:00Z,-30.5675,152.1461,18.03386878967285
1983-10-01T00:00:00Z,-30.5675,152.1461,19.280529022216797
1983-11-01T00:00:00Z,-30.5675,152.1461,20.0956974029541
1983-12-01T00:00:00Z,-30.5675,152.1461,21.832319259643555
1984-01-01T00:00:00Z,-30.5675,152.1461,21.81856918334961
1984-02-01T00:00:00Z,-30.5675,152.1461,22.776397705078125
1984-03-01T00:00:00Z,-30.5675,152.1461,20.95892906188965
1984-04-01T00:00:00Z,-30.5675,152.1461,18.165042877197266
1984-05-01T00:00:00Z,-30.5675,152.1461,15.629737854003906
1984-06-01T00:00:00Z,-30.5675,152.1461,13.753064155578613
1984-07-01T00:00:00Z,-30.5675,152.1461,10.469807624816895
1984-08-01T00:00:00Z,-30.5675,152.1461,13.309966087341309
1984-09-01T00:00:00Z,-30.5675,152.1461,15.041061401367188
1984-10-01T00:00:00Z,-30.5675,152.1461,19.226245880126953
1984-11-01T00:00:00Z,-30.5675,152.1461,22.0521240234375
1984-12-01T00:00:00Z,-30.5675,152.1461,23.43733024597168
1985-01-01T00:00:00Z,-30.5675,152.1461,26.76125144958496
1985-02-01T00:00:00Z,-30.5675,152.1461,23.637222290039062
1985-03-01T00:00:00Z,-30.5675,152.1461,21.60557746887207
1985-04-01T00:00:00Z,-30.5675,152.1461,18.16714859008789
1985-05-01T00:00:00Z,-30.5675,152.1461,14.912120819091797
1985-06-01T00:00:00Z,-30.5675,152.1461,12.158916473388672
1985-07-01T00:00:00Z,-30.5675,152.1461,12.466582298278809
1985-08-01T00:00:00Z,-30.5675,152.1461,12.97512149810791
1985-09-01T00:00:00Z,-30.5675,152.1461,15.609611511230469
1985-10-01T00:00:00Z,-30.5675,152.1461,18.72011375427246
1985-11-01T00:00:00Z,-30.5675,152.1461,21.054515838623047
1985-12-01T00:00:00Z,-30.5675,152.1461,23.3442440032959
1986-01-01T00:00:00Z,-30.5675,152.1461,23.773361206054688
1986-02-01T00:00:00Z,-30.5675,152.1461,25.28000259399414
1986-03-01T00:00:00Z,-30.5675,152.1461,23.5451602935791
1986-04-01T00:00:00Z,-30.5675,152.1461,21.554000854492188
1986-05-01T00:00:00Z,-30.5675,152.1461,16.445425033569336
1986-06-01T00:00:00Z,-30.5675,152.1461,13.304778099060059
1986-07-01T00:00:00Z,-30.5675,152.1461,12.481037139892578
1986-08-01T00:00:00Z,-30.5675,152.1461,12.879651069641113
1986-09-01T00:00:00Z,-30.5675,152.1461,17.34274673461914
1986-10-01T00:00:00Z,-30.5675,152.1461,19.33334732055664
1986-11-01T00:00:00Z,-30.5675,152.1461,20.461734771728516
1986-12-01T00:00:00Z,-30.5675,152.1461,23.60295295715332
1987-01-01T00:00:00Z,-30.5675,152.1461,26.083667755126953
1987-02-01T00:00:00Z,-30.5675,152.1461,24.416522979736328
1987-03-01T00:00:00Z,-30.5675,152.1461,20.818801879882812
1987-04-01T00:00:00Z,-30.5675,152.1461,19.075504302978516
1987-05-01T00:00:00Z,-30.5675,152.1461,15.048144340515137
1987-06-01T00:00:00Z,-30.5675,152.1461,13.56265926361084
1987-07-01T00:00:00Z,-30.5675,152.1461,12.081636428833008
1987-08-01T00:00:00Z,-30.5675,152.1461,13.839995384216309
1987-09-01T00:00:00Z,-30.5675,152.1461,17.468645095825195
1987-10-01T00:00:00Z,-30.5675,152.1461,18.734455108642578
1987-11-01T00:00:00Z,-30.5675,152.1461,21.26605224609375
1987-12-01T00:00:00Z,-30.5675,152.1461,23.698307037353516
1988-01-01T00:00:00Z,-30.5675,152.1461,24.55324935913086
1988-02-01T00:00:00Z,-30.5675,152.1461,22.138723373413086
1988-03-01T00:00:00Z,-30.5675,152.1461,20.31032371520996
1988-04-01T00:00:00Z,-30.5675,152.1461,17.485475540161133
1988-05-01T00:00:00Z,-30.5675,152.1461,15.590718269348145
1988-06-01T00:00:00Z,-30.5675,152.1461,13.3456392288208
1988-07-01T00:00:00Z,-30.5675,152.1461,13.23795223236084
1988-08-01T00:00:00Z,-30.5675,152.1461,13.96622371673584
1988-09-01T00:00:00Z,-30.5675,152.1461,17.275768280029297
1988-10-01T00:00:00Z,-30.5675,152.1461,23.39430046081543
1988-11-01T00:00:00Z,-30.5675,152.1461,22.39841079711914
1988-12-01T00:00:00Z,-30.5675,152.1461,23.7246150970459
1989-01-01T00:00:00Z,-30.5675,152.1461,22.271921157836914
1989-02-01T00:00:00Z,-30.5675,152.1461,22.381328582763672
1989-03-01T00:00:00Z,-30.5675,152.1461,21.754409790039062
1989-04-01T00:00:00Z,-30.5675,152.1461,18.221858978271484
1989-05-01T00:00:00Z,-30.5675,152.1461,16.11970329284668
1989-06-01T00:00:00Z,-30.5675,152.1461,12.385663032531738
1989-07-01T00:00:00Z,-30.5675,152.1461,10.728776931762695
1989-08-01T00:00:00Z,-30.5675,152.1461,11.997679710388184
1989-09-01T00:00:00Z,-30.5675,152.1461,17.035490036010742
1989-10-01T00:00:00Z,-30.5675,152.1461,21.19535255432129
1989-11-01T00:00:00Z,-30.5675,152.1461,20.542253494262695
1989-12-01T00:00:00Z,-30.5675,152.1461,22.833703994750977
1990-01-01T00:00:00Z,-30.5675,152.1461,24.78184700012207
1990-02-01T00:00:00Z,-30.5675,152.1461,23.493680953979492
1990-03-01T00:00:00Z,-30.5675,152.1461,20.981721878051758
1990-04-01T00:00:00Z,-30.5675,152.1461,17.404552459716797
1990-05-01T00:00:00Z,-30.5675,152.1461,16.279193878173828
1990-06-01T00:00:00Z,-30.5675,152.1461,11.775132179260254
1990-07-01T00:00:00Z,-30.5675,152.1461,12.089727401733398
1990-08-01T00:00:00Z,-30.5675,152.1461,11.139530181884766
1990-09-01T00:00:00Z,-30.5675,152.1461,15.504307746887207
1990-10-01T00:00:00Z,-30.5675,152.1461,19.343904495239258
1990-11-01T00:00:00Z,-30.5675,152.1461,23.757823944091797
1990-12-01T00:00:00Z,-30.5675,152.1461,27.67047119140625
1991-01-01T00:00:00Z,-30.5675,152.1461,25.572879791259766
1991-02-01T00:00:00Z,-30.5675,152.1461,25.502368927001953
1991-03-01T00:00:00Z,-30.5675,152.1461,23.138225555419922
1991-04-01T00:00:00Z,-30.5675,152.1461,19.827621459960938
1991-05-01T00:00:00Z,-30.5675,152.1461,16.388662338256836
1991-06-01T00:00:00Z,-30.5675,152.1461,14.909988403320312
1991-07-01T00:00:00Z,-30.5675,152.1461,11.490547180175781
1991-08-01T00:00:00Z,-30.5675,152.1461,14.227928161621094
1991-09-01T00:00:00Z,-30.5675,152.1461,17.769556045532227
1991-10-01T00:00:00Z,-30.5675,152.1461,21.791194915771484
1991-11-01T00:00:00Z,-30.5675,152.1461,22.678422927856445
1991-12-01T00:00:00Z,-30.5675,152.1461,22.877853393554688
1992-01-01T00:00:00Z,-30.5675,152.1461,24.78809356689453
1992-02-01T00:00:00Z,-30.5675,152.1461,23.057889938354492
1992-03-01T00:00:00Z,-30.5675,152.1461,21.72616195678711
1992-04-01T00:00:00Z,-30.5675,152.1461,18.15538215637207
1992-05-01T00:00:00Z,-30.5675,152.1461,15.186844825744629
1992-06-01T00:00:00Z,-30.5675,152.1461,12.489203453063965
1992-07-01T00:00:00Z,-30.5675,152.1461,13.230575561523438
1992-08-01T00:00:00Z,-30.5675,152.1461,13.887782096862793
1992-09-01T00:00:00Z,-30.5675,152.1461,15.910526275634766
1992-10-01T00:00:00Z,-30.5675,152.1461,18.806354522705078
1992-11-01T00:00:00Z,-30.5675,152.1461,20.49007225036621
1992-12-01T00:00:00Z,-30.5675,152.1461,22.219844818115234
1993-01-01T00:00:00Z,-30.5675,152.1461,26.057065963745117
1993-02-01T00:00:00Z,-30.5675,152.1461,24.52682113647461
1993-03-01T00:00:00Z,-30.5675,152.1461,21.088891983032227
1993-04-01T00:00:00Z,-30.5675,152.1461,20.25727653503418
1993-05-01T00:00:00Z,-30.5675,152.1461,17.07175636291504
1993-06-01T00:00:00Z,-30.5675,152.1461,13.13231086730957
1993-07-01T00:00:00Z,-30.5675,152.1461,14.884160995483398
1993-08-01T00:00:00Z,-30.5675,152.1461,15.126283645629883
1993-09-01T00:00:00Z,-30.5675,152.1461,16.443145751953125
1993-10-01T00:00:00Z,-30.5675,152.1461,19.31186294555664
1993-11-01T00:00:00Z,-30.5675,152.1461,21.829845428466797
1993-12-01T00:00:00Z,-30.5675,152.1461,22.760587692260742
1994-01-01T00:00:00Z,-30.5675,152.1461,26.606517791748047
1994-02-01T00:00:00Z,-30.5675,152.1461,23.47759437561035
1994-03-01T00:00:00Z,-30.5675,152.1461,19.19971466064453
1994-04-01T00:00:00Z,-30.5675,152.1461,19.127832412719727
1994-05-01T00:00:00Z,-30.5675,152.1461,16.360883712768555
1994-06-01T00:00:00Z,-30.5675,152.1461,13.618117332458496
1994-07-01T00:00:00Z,-30.5675,152.1461,13.521745681762695
1994-08-01T00:00:00Z,-30.5675,152.1461,14.416482925415039
1994-09-01T00:00:00Z,-30.5675,152.1461,17.699464797973633
1994-10-01T00:00:00Z,-30.5675,152.1461,20.959157943725586
1994-11-01T00:00:00Z,-30.5675,152.1461,23.52951431274414
1994-12-01T00:00:00Z,-30.5675,152.1461,24.540424346923828
1995-01-01T00:00:00Z,-30.5675,152.1461,23.458080291748047
1995-02-01T00:00:00Z,-30.5675,152.1461,22.3713321685791
1995-03-01T00:00:00Z,-30.5675,152.1461,22.435638427734375
1995-04-01T00:00:00Z,-30.5675,152.1461,18.60590362548828
1995-05-01T00:00:00Z,-30.5675,152.1461,15.530376434326172
1995-06-01T00:00:00Z,-30.5675,152.1461,12.408326148986816
1995-07-01T00:00:00Z,-30.5675,152.1461,12.143168449401855
1995-08-01T00:00:00Z,-30.5675,152.1461,16.69450569152832
1995-09-01T00:00:00Z,-30.5675,152.1461,17.099336624145508
1995-10-01T00:00:00Z,-30.5675,152.1461,20.094268798828125
1995-11-01T00:00:00Z,-30.5675,152.1461,22.73352813720703
1995-12-01T00:00:00Z,-30.5675,152.1461,22.46333122253418
1996-01-01T00:00:00Z,-30.5675,152.1461,23.80195426940918
1996-02-01T00:00:00Z,-30.5675,152.1461,22.0839900970459
1996-03-01T00:00:00Z,-30.5675,152.1461,21.335512161254883
1996-04-01T00:00:00Z,-30.5675,152.1461,19.387659072875977
1996-05-01T00:00:00Z,-30.5675,152.1461,16.076017379760742
1996-06-01T00:00:00Z,-30.5675,152.1461,13.90168285369873
1996-07-01T00:00:00Z,-30.5675,152.1461,12.061087608337402
1996-08-01T00:00:00Z,-30.5675,152.1461,14.474224090576172
1996-09-01T00:00:00Z,-30.5675,152.1461,17.507680892944336
1996-10-01T00:00:00Z,-30.5675,152.1461,19.6954288482666
1996-11-01T00:00:00Z,-30.5675,152.1461,21.441650390625
1996-12-01T00:00:00Z,-30.5675,152.1461,22.920747756958008
1997-01-01T00:00:00Z,-30.5675,152.1461,22.16089630126953
1997-02-01T00:00:00Z,-30.5675,152.1461,24.67502212524414
1997-03-01T00:00:00Z,-30.5675,152.1461,22.12677574157715
1997-04-01T00:00:00Z,-30.5675,152.1461,20.190052032470703
1997-05-01T00:00:00Z,-30.5675,152.1461,15.260286331176758
1997-06-01T00:00:00Z,-30.5675,152.1461,13.39173698425293
1997-07-01T00:00:00Z,-30.5675,152.1461,12.320340156555176
1997-08-01T00:00:00Z,-30.5675,152.1461,14.287445068359375
1997-09-01T00:00:00Z,-30.5675,152.1461,16.6435546875
1997-10-01T00:00:00Z,-30.5675,152.1461,20.188291549682617
1997-11-01T00:00:00Z,-30.5675,152.1461,23.502119064331055
1997-12-01T00:00:00Z,-30.5675,152.1461,25.305604934692383
1998-01-01T00:00:00Z,-30.5675,152.1461,25.41788101196289
1998-02-01T00:00:00Z,-30.5675,152.1461,25.870765686035156
1998-03-01T00:00:00Z,-30.5675,152.1461,25.502723693847656
1998-04-01T00:00:00Z,-30.5675,152.1461,19.74724769592285
1998-05-01T00:00:00Z,-30.5675,152.1461,15.961524963378906
1998-06-01T00:00:00Z,-30.5675,152.1461,12.956350326538086
1998-07-01T00:00:00Z,-30.5675,152.1461,12.329347610473633
1998-08-01T00:00:00Z,-30.5675,152.1461,14.08912467956543
1998-09-01T00:00:00Z,-30.5675,152.1461,17.44872283935547
1998-10-01T00:00:00Z,-30.5675,152.1461,19.32529640197754
1998-11-01T00:00:00Z,-30.5675,152.1461,19.689252853393555
1998-12-01T00:00:00Z,-30.5675,152.1461,24.426916122436523
1999-01-01T00:00:00Z,-30.5675,152.1461,24.762340545654297
1999-02-01T00:00:00Z,-30.5675,152.1461,21.883291244506836
1999-03-01T00:00:00Z,-30.5675,152.1461,22.37544822692871
1999-04-01T00:00:00Z,-30.5675,152.1461,17.008737564086914
1999-05-01T00:00:00Z,-30.5675,152.1461,15.820091247558594
1999-06-01T00:00:00Z,-30.5675,152.1461,12.383434295654297
1999-07-01T00:00:00Z,-30.5675,152.1461,12.539911270141602
1999-08-01T00:00:00Z,-30.5675,152.1461,13.89541244506836
1999-09-01T00:00:00Z,-30.5675,152.1461,17.14093780517578
1999-10-01T00:00:00Z,-30.5675,152.1461,20.08371925354004
1999-11-01T00:00:00Z,-30.5675,152.1461,18.282487869262695
1999-12-01T00:00:00Z,-30.5675,152.1461,20.855241775512695
2000-01-01T00:00:00Z,-30.5675,152.1461,22.42615509033203
2000-02-01T00:00:00Z,-30.5675,152.1461,23.26831817626953
2000-03-01T00:00:00Z,-30.5675,152.1461,22.665056228637695
2000-04-01T00:00:00Z,-30.5675,152.1461,18.454355239868164
2000-05-01T00:00:00Z,-30.5675,152.1461,15.074450492858887
2000-06-01T00:00:00Z,-30.5675,152.1461,12.541893005371094
2000-07-01T00:00:00Z,-30.5675,152.1461,12.754051208496094
2000-08-01T00:00:00Z,-30.5675,152.1461,13.360335350036621
2000-09-01T00:00:00Z,-30.5675,152.1461,19.89781379699707
2000-10-01T00:00:00Z,-30.5675,152.1461,19.762475967407227
2000-11-01T00:00:00Z,-30.5675,152.1461,20.560842514038086
2000-12-01T00:00:00Z,-30.5675,152.1461,23.91631317138672
2001-01-01T00:00:00Z,-30.5675,152.1461,25.975444793701172
2001-02-01T00:00:00Z,-30.5675,152.1461,24.201688766479492
2001-03-01T00:00:00Z,-30.5675,152.1461,20.871732711791992
2001-04-01T00:00:00Z,-30.5675,152.1461,18.80200958251953
2001-05-01T00:00:00Z,-30.5675,152.1461,14.511689186096191
2001-06-01T00:00:00Z,-30.5675,152.1461,14.77560806274414
2001-07-01T00:00:00Z,-30.5675,152.1461,12.8928804397583
2001-08-01T00:00:00Z,-30.5675,152.1461,13.567907333374023
2001-09-01T00:00:00Z,-30.5675,152.1461,17.384838104248047
2001-10-01T00:00:00Z,-30.5675,152.1461,19.6583309173584
2001-11-01T00:00:00Z,-30.5675,152.1461,20.39904022216797
2001-12-01T00:00:00Z,-30.5675,152.1461,24.799041748046875
2002-01-01T00:00:00Z,-30.5675,152.1461,25.36590003967285
2002-02-01T00:00:00Z,-30.5675,152.1461,23.60750961303711
2002-03-01T00:00:00Z,-30.5675,152.1461,22.65686798095703
2002-04-01T00:00:00Z,-30.5675,152.1461,19.9561767578125
2002-05-01T00:00:00Z,-30.5675,152.1461,15.616829872131348
2002-06-01T00:00:00Z,-30.5675,152.1461,14.132537841796875
2002-07-01T00:00:00Z,-30.5675,152.1461,13.916008949279785
2002-08-01T00:00:00Z,-30.5675,152.1461,15.164649963378906
2002-09-01T00:00:00Z,-30.5675,152.1461,19.234758377075195
2002-10-01T00:00:00Z,-30.5675,152.1461,22.42672348022461
2002-11-01T00:00:00Z,-30.5675,152.1461,25.44709014892578
2002-12-01T00:00:00Z,-30.5675,152.1461,24.153614044189453
2003-01-01T00:00:00Z,-30.5675,152.1461,26.356971740722656
2003-02-01T00:00:00Z,-30.5675,152.1461,22.959087371826172
2003-03-01T00:00:00Z,-30.5675,152.1461,20.573583602905273
2003-04-01T00:00:00Z,-30.5675,152.1461,17.257936477661133
2003-05-01T00:00:00Z,-30.5675,152.1461,15.406259536743164
2003-06-01T00:00:00Z,-30.5675,152.1461,13.951326370239258
2003-07-01T00:00:00Z,-30.5675,152.1461,12.374509811401367
2003-08-01T00:00:00Z,-30.5675,152.1461,14.091062545776367
2003-09-01T00:00:00Z,-30.5675,152.1461,19.232694625854492
2003-10-01T00:00:00Z,-30.5675,152.1461,18.032529830932617
2003-11-01T00:00:00Z,-30.5675,152.1461,21.398958206176758
2003-12-01T00:00:00Z,-30.5675,152.1461,24.47096061706543
2004-01-01T00:00:00Z,-30.5675,152.1461,25.739309310913086
2004-02-01T00:00:00Z,-30.5675,152.1461,26.18994140625
2004-03-01T00:00:00Z,-30.5675,152.1461,21.57546615600586
2004-04-01T00:00:00Z,-30.5675,152.1461,20.771947860717773
2004-05-01T00:00:00Z,-30.5675,152.1461,16.429584503173828
2004-06-01T00:00:00Z,-30.5675,152.1461,13.88514232635498
2004-07-01T00:00:00Z,-30.5675,152.1461,13.111091613769531
2004-08-01T00:00:00Z,-30.5675,152.1461,14.317501068115234
2004-09-01T00:00:00Z,-30.5675,152.1461,17.636899948120117
2004-10-01T00:00:00Z,-30.5675,152.1461,20.50720977783203
2004-11-01T00:00:00Z,-30.5675,152.1461,22.33361053466797
2004-12-01T00:00:00Z,-30.5675,152.1461,22.933246612548828
2005-01-01T00:00:00Z,-30.5675,152.1461,24.673667907714844
2005-02-01T00:00:00Z,-30.5675,152.1461,24.905384063720703
2005-03-01T00:00:00Z,-30.5675,152.1461,21.93964385986328
2005-04-01T00:00:00Z,-30.5675,152.1461,21.103168487548828
2005-05-01T00:00:00Z,-30.5675,152.1461,15.952277183532715
2005-06-01T00:00:00Z,-30.5675,152.1461,13.98082447052002
2005-07-01T00:00:00Z,-30.5675,152.1461,13.585108757019043
2005-08-01T00:00:00Z,-30.5675,152.1461,14.475537300109863
2005-09-01T00:00:00Z,-30.5675,152.1461,17.369213104248047
2005-10-01T00:00:00Z,-30.5675,152.1461,21.448476791381836
2005-11-01T00:00:00Z,-30.5675,152.1461,21.79900550842285
2005-12-01T00:00:00Z,-30.5675,152.1461,26.283191680908203
2006-01-01T00:00:00Z,-30.5675,152.1461,25.11049461364746
2006-02-01T00:00:00Z,-30.5675,152.1461,25.437273025512695
2006-03-01T00:00:00Z,-30.5675,152.1461,21.804773330688477
2006-04-01T00:00:00Z,-30.5675,152.1461,19.766393661499023
2006-05-01T00:00:00Z,-30.5675,152.1461,15.498804092407227
2006-06-01T00:00:00Z,-30.5675,152.1461,12.903428077697754
2006-07-01T00:00:00Z,-30.5675,152.1461,13.176104545593262
2006-08-01T00:00:00Z,-30.5675,152.1461,15.076278686523438
2006-09-01T00:00:00Z,-30.5675,152.1461,18.23337173461914
2006-10-01T00:00:00Z,-30.5675,152.1461,21.011999130249023
2006-11-01T00:00:00Z,-30.5675,152.1461,22.938833236694336
2006-12-01T00:00:00Z,-30.5675,152.1461,22.721364974975586
2007-01-01T00:00:00Z,-30.5675,152.1461,25.672832489013672
2007-02-01T00:00:00Z,-30.5675,152.1461,24.070852279663086
2007-03-01T00:00:00Z,-30.5675,152.1461,22.392072677612305
2007-04-01T00:00:00Z,-30.5675,152.1461,19.071016311645508
2007-05-01T00:00:00Z,-30.5675,152.1461,17.626020431518555
2007-06-01T00:00:00Z,-30.5675,152.1461,11.538249015808105
2007-07-01T00:00:00Z,-30.5675,152.1461,11.70608901977539
2007-08-01T00:00:00Z,-30.5675,152.1461,15.141685485839844
2007-09-01T00:00:00Z,-30.5675,152.1461,17.475244522094727
2007-10-01T00:00:00Z,-30.5675,152.1461,22.605562210083008
2007-11-01T00:00:00Z,-30.5675,152.1461,20.676424026489258
2007-12-01T00:00:00Z,-30.5675,152.1461,22.170177459716797
2008-01-01T00:00:00Z,-30.5675,152.1461,22.68505096435547
2008-02-01T00:00:00Z,-30.5675,152.1461,21.46505355834961
2008-03-01T00:00:00Z,-30.5675,152.1461,21.40329933166504
2008-04-01T00:00:00Z,-30.5675,152.1461,17.021739959716797
2008-05-01T00:00:00Z,-30.5675,152.1461,16.111234664916992
2008-06-01T00:00:00Z,-30.5675,152.1461,14.58907699584961
2008-07-01T00:00:00Z,-30.5675,152.1461,12.089661598205566
2008-08-01T00:00:00Z,-30.5675,152.1461,12.733148574829102
2008-09-01T00:00:00Z,-30.5675,152.1461,17.844379425048828
2008-10-01T00:00:00Z,-30.5675,152.1461,20.903499603271484
2008-11-01T00:00:00Z,-30.5675,152.1461,20.823347091674805
2008-12-01T00:00:00Z,-30.5675,152.1461,23.366445541381836
2009-01-01T00:00:00Z,-30.5675,152.1461,25.139375686645508
2009-02-01T00:00:00Z,-30.5675,152.1461,24.196496963500977
2009-03-01T00:00:00Z,-30.5675,152.1461,22.11017608642578
2009-04-01T00:00:00Z,-30.5675,152.1461,18.2318172454834
2009-05-01T00:00:00Z,-30.5675,152.1461,14.893133163452148
2009-06-01T00:00:00Z,-30.5675,152.1461,13.143160820007324
2009-07-01T00:00:00Z,-30.5675,152.1461,12.162949562072754
2009-08-01T00:00:00Z,-30.5675,152.1461,17.40444564819336
2009-09-01T00:00:00Z,-30.5675,152.1461,18.862092971801758
2009-10-01T00:00:00Z,-30.5675,152.1461,20.29446029663086
2009-11-01T00:00:00Z,-30.5675,152.1461,25.785465240478516
2009-12-01T00:00:00Z,-30.5675,152.1461,25.414608001708984
2010-01-01T00:00:00Z,-30.5675,152.1461,26.214584350585938
2010-02-01T00:00:00Z,-30.5675,152.1461,23.877058029174805
2010-03-01T00:00:00Z,-30.5675,152.1461,21.689529418945312
2010-04-01T00:00:00Z,-30.5675,152.1461,19.997575759887695
2010-05-01T00:00:00Z,-30.5675,152.1461,15.512846946716309
2010-06-01T00:00:00Z,-30.5675,152.1461,12.591544151306152
2010-07-01T00:00:00Z,-30.5675,152.1461,12.469417572021484
2010-08-01T00:00:00Z,-30.5675,152.1461,12.648772239685059
2010-09-01T00:00:00Z,-30.5675,152.1461,16.907878875732422
2010-10-01T00:00:00Z,-30.5675,152.1461,17.73379135131836
2010-11-01T00:00:00Z,-30.5675,152.1461,19.98598289489746
2010-12-01T00:00:00Z,-30.5675,152.1461,21.676530838012695
2011-01-01T00:00:00Z,-30.5675,152.1461,24.480283737182617
2011-02-01T00:00:00Z,-30.5675,152.1461,24.756484985351562
2011-03-01T00:00:00Z,-30.5675,152.1461,21.345653533935547
2011-04-01T00:00:00Z,-30.5675,152.1461,17.81949806213379
2011-05-01T00:00:00Z,-30.5675,152.1461,14.288640975952148
2011-06-01T00:00:00Z,-30.5675,152.1461,12.132647514343262
2011-07-01T00:00:00Z,-30.5675,152.1461,11.897768020629883
2011-08-01T00:00:00Z,-30.5675,152.1461,14.058241844177246
2011-09-01T00:00:00Z,-30.5675,152.1461,17.129329681396484
2011-10-01T00:00:00Z,-30.5675,152.1461,18.06979751586914
2011-11-01T00:00:00Z,-30.5675,152.1461,23.173723220825195
2011-12-01T00:00:00Z,-30.5675,152.1461,19.615488052368164
2012-01-01T00:00:00Z,-30.5675,152.1461,22.39443588256836
2012-02-01T00:00:00Z,-30.5675,152.1461,22.838655471801758
2012-03-01T00:00:00Z,-30.5675,152.1461,20.95108413696289
2012-04-01T00:00:00Z,-30.5675,152.1461,18.794614791870117
2012-05-01T00:00:00Z,-30.5675,152.1461,15.640865325927734
2012-06-01T00:00:00Z,-30.5675,152.1461,12.776522636413574
2012-07-01T00:00:00Z,-30.5675,152.1461,12.160826683044434
2012-08-01T00:00:00Z,-30.5675,152.1461,14.440412521362305
2012-09-01T00:00:00Z,-30.5675,152.1461,18.479833602905273
2012-10-01T00:00:00Z,-30.5675,152.1461,21.002586364746094
2012-11-01T00:00:00Z,-30.5675,152.1461,23.42845344543457
2012-12-01T00:00:00Z,-30.5675,152.1461,24.60491943359375
