time,latitude[unit="degrees_north"],longitude[unit="degrees_east"],air_temperature[unit="C"]
1970-01-01T00:00:00Z,-33.03,138.75,12.03512191772461
1970-02-01T00:00:00Z,-33.03,138.75,13.982782363891602
1970-03-01T00:00:00Z,-33.03,138.75,10.03702449798584
1970-04-01T00:00:00Z,-33.03,138.75,8.494584083557129
1970-05-01T00:00:00Z,-33.03,138.75,4.371824264526367
1970-06-01T00:00:00Z,-33.03,138.75,4.225144863128662
1970-07-01T00:00:00Z,-33.03,138.75,1.9118669033050537
1970-08-01T00:00:00Z,-33.03,138.75,1.9577276706695557
1970-09-01T00:00:00Z,-33.03,138.75,3.8534164428710938
1970-10-01T00:00:00Z,-33.03,138.75,6.194697380065918
1970-11-01T00:00:00Z,-33.03,138.75,9.320530891418457
1970-12-01T00:00:00Z,-33.03,138.75,11.54007625579834
1971-01-01T00:00:00Z,-33.03,138.75,12.651347160339355
1971-02-01T00:00:00Z,-33.03,138.75,14.802460670471191
1971-03-01T00:00:00Z,-33.03,138.75,14.756712913513184
1971-04-01T00:00:00Z,-33.03,138.75,10.333183288574219
1971-05-01T00:00:00Z,-33.03,138.75,4.961018085479736
1971-06-01T00:00:00Z,-33.03,138.75,3.2734827995300293
1971-07-01T00:00:00Z,-33.03,138.75,1.672804832458496
1971-08-01T00:00:00Z,-33.03,138.75,2.6847939491271973
1971-09-01T00:00:00Z,-33.03,138.75,4.679357528686523
1971-10-01T00:00:00Z,-33.03,138.75,5.668705940246582
1971-11-01T00:00:00Z,-33.03,138.75,8.747117042541504
1971-12-01T00:00:00Z,-33.03,138.75,10.894632339477539
1972-01-01T00:00:00Z,-33.03,138.75,13.020766258239746
1972-02-01T00:00:00Z,-33.03,138.75,13.61557388305664
1972-03-01T00:00:00Z,-33.03,138.75,9.765974044799805
1972-04-01T00:00:00Z,-33.03,138.75,7.485837459564209
1972-05-01T00:00:00Z,-33.03,138.75,4.817488193511963
1972-06-01T00:00:00Z,-33.03,138.75,1.2050455808639526
1972-07-01T00:00:00Z,-33.03,138.75,3.3260159492492676
1972-08-01T00:00:00Z,-33.03,138.75,3.785578727722168
1972-09-01T00:00:00Z,-33.03,138.75,4.699078559875488
1972-10-01T00:00:00Z,-33.03,138.75,6.874284267425537
1972-11-01T00:00:00Z,-33.03,138.75,9.646736145019531
1972-12-01T00:00:00Z,-33.03,138.75,12.874074935913086
1973-01-01T00:00:00Z,-33.03,138.75,16.478649139404297
1973-02-01T00:00:00Z,-33.03,138.75,14.68151569366455
1973-03-01T00:00:00Z,-33.03,138.75,11.616999626159668
1973-04-01T00:00:00Z,-33.03,138.75,9.299713134765625
1973-05-01T00:00:00Z,-33.03,138.75,6.101672649383545
1973-06-01T00:00:00Z,-33.03,138.75,3.5121428966522217
1973-07-01T00:00:00Z,-33.03,138.75,3.876099109649658
1973-08-01T00:00:00Z,-33.03,138.75,3.7023701667785645
1973-09-01T00:00:00Z,-33.03,138.75,5.674383163452148
1973-10-01T00:00:00Z,-33.03,138.75,8.01002311706543
1973-11-01T00:00:00Z,-33.03,138.75,9.178622245788574
1973-12-01T00:00:00Z,-33.03,138.75,13.066732406616211
1974-01-01T00:00:00Z,-33.03,138.75,16.85334014892578
1974-02-01T00:00:00Z,-33.03,138.75,13.497379302978516
1974-03-01T00:00:00Z,-33.03,138.75,13.429889678955078
1974-04-01T00:00:00Z,-33.03,138.75,9.963624000549316
1974-05-01T00:00:00Z,-33.03,138.75,5.4711527824401855
1974-06-01T00:00:00Z,-33.03,138.75,2.97819447517395
1974-07-01T00:00:00Z,-33.03,138.75,4.29038143157959
1974-08-01T00:00:00Z,-33.03,138.75,3.5365588665008545
1974-09-01T00:00:00Z,-33.03,138.75,3.278365135192871
1974-10-01T00:00:00Z,-33.03,138.75,7.056844234466553
1974-11-01T00:00:00Z,-33.03,138.75,7.735873222351074
1974-12-01T00:00:00Z,-33.03,138.75,10.585626602172852
1975-01-01T00:00:00Z,-33.03,138.75,10.568685531616211
1975-02-01T00:00:00Z,-33.03,138.75,15.091924667358398
1975-03-01T00:00:00Z,-33.03,138.75,10.264609336853027
1975-04-01T00:00:00Z,-33.03,138.75,6.778334617614746
1975-05-01T00:00:00Z,-33.03,138.75,6.544095039367676
1975-06-01T00:00:00Z,-33.03,138.75,1.1700760126113892
1975-07-01T00:00:00Z,-33.03,138.75,3.868502616882324
1975-08-01T00:00:00Z,-33.03,138.75,3.2103629112243652
1975-09-01T00:00:00Z,-33.03,138.75,5.620169639587402
1975-10-01T00:00:00Z,-33.03,138.75,6.98592472076416
1975-11-01T00:00:00Z,-33.03,138.75,10.631631851196289
1975-12-01T00:00:00Z,-33.03,138.75,13.67673397064209
1976-01-01T00:00:00Z,-33.03,138.75,12.268558502197266
1976-02-01T00:00:00Z,-33.03,138.75,15.418902397155762
1976-03-01T00:00:00Z,-33.03,138.75,10.663223266601562
1976-04-01T00:00:00Z,-33.03,138.75,7.116427898406982
1976-05-01T00:00:00Z,-33.03,138.75,2.4127049446105957
1976-06-01T00:00:00Z,-33.03,138.75,2.97438907623291
1976-07-01T00:00:00Z,-33.03,138.75,0.8376789689064026
1976-08-01T00:00:00Z,-33.03,138.75,2.796968698501587
1976-09-01T00:00:00Z,-33.03,138.75,4.430737495422363
1976-10-01T00:00:00Z,-33.03,138.75,6.197607517242432
1976-11-01T00:00:00Z,-33.03,138.75,8.794220924377441
1976-12-01T00:00:00Z,-33.03,138.75,11.536510467529297
1977-01-01T00:00:00Z,-33.03,138.75,13.731780052185059
1977-02-01T00:00:00Z,-33.03,138.75,15.347258567810059
1977-03-01T00:00:00Z,-33.03,138.75,10.660370826721191
1977-04-01T00:00:00Z,-33.03,138.75,5.600297451019287
1977-05-01T00:00:00Z,-33.03,138.75,5.053324222564697
1977-06-01T00:00:00Z,-33.03,138.75,3.3912041187286377
1977-07-01T00:00:00Z,-33.03,138.75,1.479292869567871
1977-08-01T00:00:00Z,-33.03,138.75,4.4211812019348145
1977-09-01T00:00:00Z,-33.03,138.75,4.021043300628662
1977-10-01T00:00:00Z,-33.03,138.75,8.283308029174805
1977-11-01T00:00:00Z,-33.03,138.75,10.132298469543457
1977-12-01T00:00:00Z,-33.03,138.75,13.112828254699707
1978-01-01T00:00:00Z,-33.03,138.75,12.870810508728027
1978-02-01T00:00:00Z,-33.03,138.75,13.215433120727539
1978-03-01T00:00:00Z,-33.03,138.75,12.170150756835938
1978-04-01T00:00:00Z,-33.03,138.75,6.730978965759277
1978-05-01T00:00:00Z,-33.03,138.75,5.463476181030273
1978-06-01T00:00:00Z,-33.03,138.75,3.992543935775757
1978-07-01T00:00:00Z,-33.03,138.75,3.34771728515625
1978-08-01T00:00:00Z,-33.03,138.75,2.0609850883483887
1978-09-01T00:00:00Z,-33.03,138.75,4.312602996826172
1978-10-01T00:00:00Z,-33.03,138.75,6.514599800109863
1978-11-01T00:00:00Z,-33.03,138.75,9.273455619812012
1978-12-01T00:00:00Z,-33.03,138.75,11.078413009643555
1979-01-01T00:00:00Z,-33.03,138.75,16.91969108581543
1979-02-01T00:00:00Z,-33.03,138.75,15.162514686584473
1979-03-01T00:00:00Z,-33.03,138.75,11.286181449890137
1979-04-01T00:00:00Z,-33.03,138.75,6.986737251281738
1979-05-01T00:00:00Z,-33.03,138.75,4.338046073913574
1979-06-01T00:00:00Z,-33.03,138.75,4.005749702453613
1979-07-01T00:00:00Z,-33.03,138.75,2.2791521549224854
1979-08-01T00:00:00Z,-33.03,138.75,3.2802505493164062
1979-09-01T00:00:00Z,-33.03,138.75,5.961866855621338
1979-10-01T00:00:00Z,-33.03,138.75,6.324856758117676
1979-11-01T00:00:00Z,-33.03,138.75,10.570201873779297
1979-12-01T00:00:00Z,-33.03,138.75,12.403984069824219
1980-01-01T00:00:00Z,-33.03,138.75,11.572434425354004
1980-02-01T00:00:00Z,-33.03,138.75,12.907814979553223
1980-03-01T00:00:00Z,-33.03,138.75,10.078706741333008
1980-04-01T00:00:00Z,-33.03,138.75,9.629622459411621
1980-05-01T00:00:00Z,-33.03,138.75,6.011111736297607
1980-06-01T00:00:00Z,-33.03,138.75,3.8846681118011475
1980-07-01T00:00:00Z,-33.03,138.75,3.3072385787963867
1980-08-01T00:00:00Z,-33.03,138.75,2.6021411418914795
1980-09-01T00:00:00Z,-33.03,138.75,4.856287956237793
1980-10-01T00:00:00Z,-33.03,138.75,7.083385467529297
1980-11-01T00:00:00Z,-33.03,138.75,10.79040241241455
1980-12-01T00:00:00Z,-33.03,138.75,12.772133827209473
1981-01-01T00:00:00Z,-33.03,138.75,17.0783634185791
1981-02-01T00:00:00Z,-33.03,138.75,15.213915824890137
1981-03-01T00:00:00Z,-33.03,138.75,9.56804084777832
1981-04-01T00:00:00Z,-33.03,138.75,8.591192245483398
1981-05-01T00:00:00Z,-33.03,138.75,5.682318687438965
1981-06-01T00:00:00Z,-33.03,138.75,4.427120685577393
1981-07-01T00:00:00Z,-33.03,138.75,3.014711856842041
1981-08-01T00:00:00Z,-33.03,138.75,3.4434328079223633
1981-09-01T00:00:00Z,-33.03,138.75,5.673872947692871
1981-10-01T00:00:00Z,-33.03,138.75,6.340463638305664
1981-11-01T00:00:00Z,-33.03,138.75,10.060361862182617
1981-12-01T00:00:00Z,-33.03,138.75,11.5697660446167
1982-01-01T00:00:00Z,-33.03,138.75,15.60593318939209
1982-02-01T00:00:00Z,-33.03,138.75,14.159146308898926
1982-03-01T00:00:00Z,-33.03,138.75,12.073448181152344
1982-04-01T00:00:00Z,-33.03,138.75,7.817496299743652
1982-05-01T00:00:00Z,-33.03,138.75,5.226414680480957
1982-06-01T00:00:00Z,-33.03,138.75,0.9953666925430298
1982-07-01T00:00:00Z,-33.03,138.75,0.20778359472751617
1982-08-01T00:00:00Z,-33.03,138.75,3.6354596614837646
1982-09-01T00:00:00Z,-33.03,138.75,4.48432731628418
1982-10-01T00:00:00Z,-33.03,138.75,6.260858058929443
1982-11-01T00:00:00Z,-33.03,138.75,10.990556716918945
1982-12-01T00:00:00Z,-33.03,138.75,13.113700866699219
1983-01-01T00:00:00Z,-33.03,138.75,12.606276512145996
1983-02-01T00:00:00Z,-33.03,138.75,16.072418212890625
1983-03-01T00:00:00Z,-33.03,138.75,13.82601547241211
1983-04-01T00:00:00Z,-33.03,138.75,7.563572883605957
1983-05-01T00:00:00Z,-33.03,138.75,5.409000873565674
1983-06-01T00:00:00Z,-33.03,138.75,2.584376573562622
1983-07-01T00:00:00Z,-33.03,138.75,1.7420941591262817
1983-08-01T00:00:00Z,-33.03,138.75,3.488893985748291
1983-09-01T00:00:00Z,-33.03,138.75,5.53725528717041
1983-10-01T00:00:00Z,-33.03,138.75,7.249884128570557
1983-11-01T00:00:00Z,-33.03,138.75,10.381196022033691
1983-12-01T00:00:00Z,-33.03,138.75,13.308526039123535
1984-01-01T00:00:00Z,-33.03,138.75,12.976341247558594
1984-02-01T00:00:00Z,-33.03,138.75,13.256856918334961
1984-03-01T00:00:00Z,-33.03,138.75,9.785795211791992
1984-04-01T00:00:00Z,-33.03,138.75,7.177881240844727
1984-05-01T00:00:00Z,-33.03,138.75,5.224023818969727
1984-06-01T00:00:00Z,-33.03,138.75,1.9824609756469727
1984-07-01T00:00:00Z,-33.03,138.75,2.3749537467956543
1984-08-01T00:00:00Z,-33.03,138.75,3.7619636058807373
1984-09-01T00:00:00Z,-33.03,138.75,3.5071699619293213
1984-10-01T00:00:00Z,-33.03,138.75,6.504167556762695
1984-11-01T00:00:00Z,-33.03,138.75,10.074885368347168
1984-12-01T00:00:00Z,-33.03,138.75,11.78386402130127
1985-01-01T00:00:00Z,-33.03,138.75,12.900635719299316
1985-02-01T00:00:00Z,-33.03,138.75,13.263877868652344
1985-03-01T00:00:00Z,-33.03,138.75,12.977227210998535
1985-04-01T00:00:00Z,-33.03,138.75,7.410409450531006
1985-05-01T00:00:00Z,-33.03,138.75,3.73876690864563
1985-06-01T00:00:00Z,-33.03,138.75,2.508852005004883
1985-07-01T00:00:00Z,-33.03,138.75,2.2507638931274414
1985-08-01T00:00:00Z,-33.03,138.75,3.536168336868286
1985-09-01T00:00:00Z,-33.03,138.75,3.28017258644104
1985-10-01T00:00:00Z,-33.03,138.75,7.223394870758057
1985-11-01T00:00:00Z,-33.03,138.75,10.22054672241211
1985-12-01T00:00:00Z,-33.03,138.75,10.634242057800293
1986-01-01T00:00:00Z,-33.03,138.75,11.417695999145508
1986-02-01T00:00:00Z,-33.03,138.75,12.417451858520508
1986-03-01T00:00:00Z,-33.03,138.75,12.56752872467041
1986-04-01T00:00:00Z,-33.03,138.75,7.311810493469238
1986-05-01T00:00:00Z,-33.03,138.75,5.4682488441467285
1986-06-01T00:00:00Z,-33.03,138.75,2.540372133255005
1986-07-01T00:00:00Z,-33.03,138.75,2.504532814025879
1986-08-01T00:00:00Z,-33.03,138.75,3.2505106925964355
1986-09-01T00:00:00Z,-33.03,138.75,4.673696517944336
1986-10-01T00:00:00Z,-33.03,138.75,5.3621602058410645
1986-11-01T00:00:00Z,-33.03,138.75,9.06900691986084
1986-12-01T00:00:00Z,-33.03,138.75,11.431796073913574
1987-01-01T00:00:00Z,-33.03,138.75,11.786415100097656
1987-02-01T00:00:00Z,-33.03,138.75,13.491050720214844
1987-03-01T00:00:00Z,-33.03,138.75,9.447918891906738
1987-04-01T00:00:00Z,-33.03,138.75,7.938295841217041
1987-05-01T00:00:00Z,-33.03,138.75,5.685769081115723
1987-06-01T00:00:00Z,-33.03,138.75,3.862126350402832
1987-07-01T00:00:00Z,-33.03,138.75,1.9736577272415161
1987-08-01T00:00:00Z,-33.03,138.75,3.2598648071289062
1987-09-01T00:00:00Z,-33.03,138.75,4.6468825340271
1987-10-01T00:00:00Z,-33.03,138.75,5.984561920166016
1987-11-01T00:00:00Z,-33.03,138.75,10.377198219299316
1987-12-01T00:00:00Z,-33.03,138.75,12.536433219909668
1988-01-01T00:00:00Z,-33.03,138.75,14.485435485839844
1988-02-01T00:00:00Z,-33.03,138.75,11.908530235290527
1988-03-01T00:00:00Z,-33.03,138.75,12.228374481201172
1988-04-01T00:00:00Z,-33.03,138.75,7.99858283996582
1988-05-01T00:00:00Z,-33.03,138.75,7.583850383758545
1988-06-01T00:00:00Z,-33.03,138.75,4.23596715927124
1988-07-01T00:00:00Z,-33.03,138.75,3.616914749145508
1988-08-01T00:00:00Z,-33.03,138.75,2.948535442352295
1988-09-01T00:00:00Z,-33.03,138.75,5.556724548339844
1988-10-01T00:00:00Z,-33.03,138.75,7.8201494216918945
1988-11-01T00:00:00Z,-33.03,138.75,8.998191833496094
1988-12-01T00:00:00Z,-33.03,138.75,13.70717716217041
1989-01-01T00:00:00Z,-33.03,138.75,12.988835334777832
1989-02-01T00:00:00Z,-33.03,138.75,13.468574523925781
1989-03-01T00:00:00Z,-33.03,138.75,12.786765098571777
1989-04-01T00:00:00Z,-33.03,138.75,8.49634838104248
1989-05-01T00:00:00Z,-33.03,138.75,6.170227527618408
1989-06-01T00:00:00Z,-33.03,138.75,2.2430202960968018
1989-07-01T00:00:00Z,-33.03,138.75,2.1440834999084473
1989-08-01T00:00:00Z,-33.03,138.75,1.6061605215072632
1989-09-01T00:00:00Z,-33.03,138.75,3.899779796600342
1989-10-01T00:00:00Z,-33.03,138.75,5.956592559814453
1989-11-01T00:00:00Z,-33.03,138.75,10.601642608642578
1989-12-01T00:00:00Z,-33.03,138.75,12.91067123413086
1990-01-01T00:00:00Z,-33.03,138.75,14.467781066894531
1990-02-01T00:00:00Z,-33.03,138.75,12.412934303283691
1990-03-01T00:00:00Z,-33.03,138.75,12.332198143005371
1990-04-01T00:00:00Z,-33.03,138.75,7.918323040008545
1990-05-01T00:00:00Z,-33.03,138.75,6.495520114898682
1990-06-01T00:00:00Z,-33.03,138.75,3.2748873233795166
1990-07-01T00:00:00Z,-33.03,138.75,3.510876178741455
1990-08-01T00:00:00Z,-33.03,138.75,3.2370667457580566
1990-09-01T00:00:00Z,-33.03,138.75,4.645601272583008
1990-10-01T00:00:00Z,-33.03,138.75,7.393962383270264
1990-11-01T00:00:00Z,-33.03,138.75,10.53488826751709
1990-12-01T00:00:00Z,-33.03,138.75,12.58381462097168
1991-01-01T00:00:00Z,-33.03,138.75,15.228766441345215
1991-02-01T00:00:00Z,-33.03,138.75,13.492940902709961
1991-03-01T00:00:00Z,-33.03,138.75,10.569114685058594
1991-04-01T00:00:00Z,-33.03,138.75,7.96047306060791
1991-05-01T00:00:00Z,-33.03,138.75,4.103567600250244
1991-06-01T00:00:00Z,-33.03,138.75,6.58383846282959
1991-07-01T00:00:00Z,-33.03,138.75,2.96183705329895
1991-08-01T00:00:00Z,-33.03,138.75,3.4613595008850098
1991-09-01T00:00:00Z,-33.03,138.75,4.606429100036621
1991-10-01T00:00:00Z,-33.03,138.75,7.565499782562256
1991-11-01T00:00:00Z,-33.03,138.75,10.124140739440918
1991-12-01T00:00:00Z,-33.03,138.75,11.333968162536621
1992-01-01T00:00:00Z,-33.03,138.75,10.920023918151855
1992-02-01T00:00:00Z,-33.03,138.75,14.538026809692383
1992-03-01T00:00:00Z,-33.03,138.75,12.440079689025879
1992-04-01T00:00:00Z,-33.03,138.75,8.840599060058594
1992-05-01T00:00:00Z,-33.03,138.75,5.145406246185303
1992-06-01T00:00:00Z,-33.03,138.75,3.187669038772583
1992-07-01T00:00:00Z,-33.03,138.75,2.7383742332458496
1992-08-01T00:00:00Z,-33.03,138.75,2.2161614894866943
1992-09-01T00:00:00Z,-33.03,138.75,3.51039457321167
1992-10-01T00:00:00Z,-33.03,138.75,7.259350299835205
1992-11-01T00:00:00Z,-33.03,138.75,7.7016425132751465
1992-12-01T00:00:00Z,-33.03,138.75,12.4002046585083
1993-01-01T00:00:00Z,-33.03,138.75,14.181499481201172
1993-02-01T00:00:00Z,-33.03,138.75,13.539189338684082
1993-03-01T00:00:00Z,-33.03,138.75,11.214177131652832
1993-04-01T00:00:00Z,-33.03,138.75,7.951182842254639
1993-05-01T00:00:00Z,-33.03,138.75,5.369199752807617
1993-06-01T00:00:00Z,-33.03,138.75,2.968947172164917
1993-07-01T00:00:00Z,-33.03,138.75,3.4663054943084717
1993-08-01T00:00:00Z,-33.03,138.75,3.757033109664917
1993-09-01T00:00:00Z,-33.03,138.75,4.6649298667907715
1993-10-01T00:00:00Z,-33.03,138.75,6.5721435546875
1993-11-01T00:00:00Z,-33.03,138.75,10.297370910644531
1993-12-01T00:00:00Z,-33.03,138.75,12.107664108276367
1994-01-01T00:00:00Z,-33.03,138.75,12.246729850769043
1994-02-01T00:00:00Z,-33.03,138.75,13.70640754699707
1994-03-01T00:00:00Z,-33.03,138.75,9.746234893798828
1994-04-01T00:00:00Z,-33.03,138.75,7.103177070617676
1994-05-01T00:00:00Z,-33.03,138.75,4.706393241882324
1994-06-01T00:00:00Z,-33.03,138.75,4.394231796264648
1994-07-01T00:00:00Z,-33.03,138.75,1.2052886486053467
1994-08-01T00:00:00Z,-33.03,138.75,1.42312753200531
1994-09-01T00:00:00Z,-33.03,138.75,3.708864212036133
1994-10-01T00:00:00Z,-33.03,138.75,7.545599937438965
1994-11-01T00:00:00Z,-33.03,138.75,9.715426445007324
1994-12-01T00:00:00Z,-33.03,138.75,13.70202922821045
1995-01-01T00:00:00Z,-33.03,138.75,15.037384986877441
1995-02-01T00:00:00Z,-33.03,138.75,14.016432762145996
1995-03-01T00:00:00Z,-33.03,138.75,9.691008567810059
1995-04-01T00:00:00Z,-33.03,138.75,5.968574047088623
1995-05-01T00:00:00Z,-33.03,138.75,4.851508140563965
1995-06-01T00:00:00Z,-33.03,138.75,4.650990962982178
1995-07-01T00:00:00Z,-33.03,138.75,3.437103509902954
1995-08-01T00:00:00Z,-33.03,138.75,3.3992714881896973
1995-09-01T00:00:00Z,-33.03,138.75,4.360213279724121
1995-10-01T00:00:00Z,-33.03,138.75,7.032185077667236
1995-11-01T00:00:00Z,-33.03,138.75,10.105711936950684
1995-12-01T00:00:00Z,-33.03,138.75,11.008742332458496
1996-01-01T00:00:00Z,-33.03,138.75,11.799057960510254
1996-02-01T00:00:00Z,-33.03,138.75,13.101070404052734
1996-03-01T00:00:00Z,-33.03,138.75,11.67834758758545
1996-04-01T00:00:00Z,-33.03,138.75,6.296635150909424
1996-05-01T00:00:00Z,-33.03,138.75,4.312125205993652
1996-06-01T00:00:00Z,-33.03,138.75,4.651623725891113
1996-07-01T00:00:00Z,-33.03,138.75,3.7921152114868164
1996-08-01T00:00:00Z,-33.03,138.75,3.6610541343688965
1996-09-01T00:00:00Z,-33.03,138.75,4.7475056648254395
1996-10-01T00:00:00Z,-33.03,138.75,6.754590034484863
1996-11-01T00:00:00Z,-33.03,138.75,8.059086799621582
1996-12-01T00:00:00Z,-33.03,138.75,11.899110794067383
1997-01-01T00:00:00Z,-33.03,138.75,14.72495174407959
1997-02-01T00:00:00Z,-33.03,138.75,17.74516487121582
1997-03-01T00:00:00Z,-33.03,138.75,8.852394104003906
1997-04-01T00:00:00Z,-33.03,138.75,7.0722737312316895
1997-05-01T00:00:00Z,-33.03,138.75,5.847512722015381
1997-06-01T00:00:00Z,-33.03,138.75,2.6657543182373047
1997-07-01T00:00:00Z,-33.03,138.75,0.1847769320011139
1997-08-01T00:00:00Z,-33.03,138.75,2.5306520462036133
1997-09-01T00:00:00Z,-33.03,138.75,6.093180179595947
1997-10-01T00:00:00Z,-33.03,138.75,7.274965763092041
1997-11-01T00:00:00Z,-33.03,138.75,11.58237361907959
1997-12-01T00:00:00Z,-33.03,138.75,12.6406831741333
1998-01-01T00:00:00Z,-33.03,138.75,14.007101058959961
1998-02-01T00:00:00Z,-33.03,138.75,12.916070938110352
1998-03-01T00:00:00Z,-33.03,138.75,11.313043594360352
1998-04-01T00:00:00Z,-33.03,138.75,6.771310329437256
1998-05-01T00:00:00Z,-33.03,138.75,4.8733320236206055
1998-06-01T00:00:00Z,-33.03,138.75,3.1179468631744385
1998-07-01T00:00:00Z,-33.03,138.75,2.0690486431121826
1998-08-01T00:00:00Z,-33.03,138.75,4.362531661987305
1998-09-01T00:00:00Z,-33.03,138.75,5.75661039352417
1998-10-01T00:00:00Z,-33.03,138.75,6.899230003356934
1998-11-01T00:00:00Z,-33.03,138.75,9.676188468933105
1998-12-01T00:00:00Z,-33.03,138.75,12.43433666229248
1999-01-01T00:00:00Z,-33.03,138.75,15.801651000976562
1999-02-01T00:00:00Z,-33.03,138.75,15.10649585723877
1999-03-01T00:00:00Z,-33.03,138.75,12.188793182373047
1999-04-01T00:00:00Z,-33.03,138.75,5.4260945320129395
1999-05-01T00:00:00Z,-33.03,138.75,5.7820634841918945
1999-06-01T00:00:00Z,-33.03,138.75,3.13407826423645
1999-07-01T00:00:00Z,-33.03,138.75,3.5454137325286865
1999-08-01T00:00:00Z,-33.03,138.75,3.128880023956299
1999-09-01T00:00:00Z,-33.03,138.75,6.441391468048096
1999-10-01T00:00:00Z,-33.03,138.75,8.182365417480469
1999-11-01T00:00:00Z,-33.03,138.75,8.636122703552246
1999-12-01T00:00:00Z,-33.03,138.75,12.207526206970215
2000-01-01T00:00:00Z,-33.03,138.75,13.798828125
2000-02-01T00:00:00Z,-33.03,138.75,17.331933975219727
2000-03-01T00:00:00Z,-33.03,138.75,12.574370384216309
2000-04-01T00:00:00Z,-33.03,138.75,8.94215202331543
2000-05-01T00:00:00Z,-33.03,138.75,4.372077941894531
2000-06-01T00:00:00Z,-33.03,138.75,3.268012762069702
2000-07-01T00:00:00Z,-33.03,138.75,2.9526314735412598
2000-08-01T00:00:00Z,-33.03,138.75,3.162250518798828
2000-09-01T00:00:00Z,-33.03,138.75,6.4110426902771
2000-10-01T00:00:00Z,-33.03,138.75,6.598807334899902
2000-11-01T00:00:00Z,-33.03,138.75,13.113986015319824
2000-12-01T00:00:00Z,-33.03,138.75,13.358057975769043
2001-01-01T00:00:00Z,-33.03,138.75,18.106067657470703
2001-02-01T00:00:00Z,-33.03,138.75,16.82607078552246
2001-03-01T00:00:00Z,-33.03,138.75,10.204130172729492
2001-04-01T00:00:00Z,-33.03,138.75,6.921814441680908
2001-05-01T00:00:00Z,-33.03,138.75,4.93900728225708
2001-06-01T00:00:00Z,-33.03,138.75,4.236459732055664
2001-07-01T00:00:00Z,-33.03,138.75,2.5407187938690186
2001-08-01T00:00:00Z,-33.03,138.75,3.469193935394287
2001-09-01T00:00:00Z,-33.03,138.75,6.117691993713379
2001-10-01T00:00:00Z,-33.03,138.75,5.383346080780029
2001-11-01T00:00:00Z,-33.03,138.75,8.569631576538086
2001-12-01T00:00:00Z,-33.03,138.75,9.887303352355957
2002-01-01T00:00:00Z,-33.03,138.75,12.23883056640625
2002-02-01T00:00:00Z,-33.03,138.75,11.270506858825684
2002-03-01T00:00:00Z,-33.03,138.75,9.912434577941895
2002-04-01T00:00:00Z,-33.03,138.75,8.80900764465332
2002-05-01T00:00:00Z,-33.03,138.75,5.758847236633301
2002-06-01T00:00:00Z,-33.03,138.75,3.5227551460266113
2002-07-01T00:00:00Z,-33.03,138.75,2.6207287311553955
2002-08-01T00:00:00Z,-33.03,138.75,1.2760448455810547
2002-09-01T00:00:00Z,-33.03,138.75,4.526528358459473
2002-10-01T00:00:00Z,-33.03,138.75,5.8004608154296875
2002-11-01T00:00:00Z,-33.03,138.75,10.718823432922363
2002-12-01T00:00:00Z,-33.03,138.75,12.807512283325195
2003-01-01T00:00:00Z,-33.03,138.75,14.674200057983398
2003-02-01T00:00:00Z,-33.03,138.75,15.401167869567871
2003-03-01T00:00:00Z,-33.03,138.75,9.298812866210938
2003-04-01T00:00:00Z,-33.03,138.75,7.77799129486084
2003-05-01T00:00:00Z,-33.03,138.75,6.012869358062744
2003-06-01T00:00:00Z,-33.03,138.75,4.058089256286621
2003-07-01T00:00:00Z,-33.03,138.75,2.164647102355957
2003-08-01T00:00:00Z,-33.03,138.75,2.7301931381225586
2003-09-01T00:00:00Z,-33.03,138.75,4.826797008514404
2003-10-01T00:00:00Z,-33.03,138.75,4.822248935699463
2003-11-01T00:00:00Z,-33.03,138.75,11.099437713623047
2003-12-01T00:00:00Z,-33.03,138.75,13.988588333129883
2004-01-01T00:00:00Z,-33.03,138.75,11.753146171569824
2004-02-01T00:00:00Z,-33.03,138.75,15.400758743286133
2004-03-01T00:00:00Z,-33.03,138.75,10.384254455566406
2004-04-01T00:00:00Z,-33.03,138.75,8.632246017456055
2004-05-01T00:00:00Z,-33.03,138.75,3.478738784790039
2004-06-01T00:00:00Z,-33.03,138.75,4.634069442749023
2004-07-01T00:00:00Z,-33.03,138.75,2.4184987545013428
2004-08-01T00:00:00Z,-33.03,138.75,3.1962087154388428
2004-09-01T00:00:00Z,-33.03,138.75,4.086694717407227
2004-10-01T00:00:00Z,-33.03,138.75,7.536148548126221
2004-11-01T00:00:00Z,-33.03,138.75,10.119111061096191
2004-12-01T00:00:00Z,-33.03,138.75,12.249372482299805
2005-01-01T00:00:00Z,-33.03,138.75,13.779768943786621
2005-02-01T00:00:00Z,-33.03,138.75,11.621231079101562
2005-03-01T00:00:00Z,-33.03,138.75,10.016992568969727
2005-04-01T00:00:00Z,-33.03,138.75,9.813834190368652
2005-05-01T00:00:00Z,-33.03,138.75,5.8406662940979
2005-06-01T00:00:00Z,-33.03,138.75,5.078549385070801
2005-07-01T00:00:00Z,-33.03,138.75,3.0380613803863525
2005-08-01T00:00:00Z,-33.03,138.75,3.388561248779297
2005-09-01T00:00:00Z,-33.03,138.75,5.318575859069824
2005-10-01T00:00:00Z,-33.03,138.75,7.661863327026367
2005-11-01T00:00:00Z,-33.03,138.75,10.145488739013672
2005-12-01T00:00:00Z,-33.03,138.75,12.527388572692871
2006-01-01T00:00:00Z,-33.03,138.75,17.987646102905273
2006-02-01T00:00:00Z,-33.03,138.75,13.071327209472656
2006-03-01T00:00:00Z,-33.03,138.75,12.695412635803223
2006-04-01T00:00:00Z,-33.03,138.75,6.549684524536133
2006-05-01T00:00:00Z,-33.03,138.75,3.055161952972412
2006-06-01T00:00:00Z,-33.03,138.75,-0.22349099814891815
2006-07-01T00:00:00Z,-33.03,138.75,2.345046043395996
2006-08-01T00:00:00Z,-33.03,138.75,2.276784658432007
2006-09-01T00:00:00Z,-33.03,138.75,5.21545934677124
2006-10-01T00:00:00Z,-33.03,138.75,6.7558393478393555
2006-11-01T00:00:00Z,-33.03,138.75,10.950155258178711
2006-12-01T00:00:00Z,-33.03,138.75,12.335897445678711
2007-01-01T00:00:00Z,-33.03,138.75,15.146484375
2007-02-01T00:00:00Z,-33.03,138.75,15.826111793518066
2007-03-01T00:00:00Z,-33.03,138.75,12.290111541748047
2007-04-01T00:00:00Z,-33.03,138.75,9.409737586975098
2007-05-01T00:00:00Z,-33.03,138.75,6.987239360809326
2007-06-01T00:00:00Z,-33.03,138.75,1.1210176944732666
2007-07-01T00:00:00Z,-33.03,138.75,2.1538314819335938
2007-08-01T00:00:00Z,-33.03,138.75,2.9384992122650146
2007-09-01T00:00:00Z,-33.03,138.75,4.92884635925293
2007-10-01T00:00:00Z,-33.03,138.75,7.300024032592773
2007-11-01T00:00:00Z,-33.03,138.75,11.77318000793457
2007-12-01T00:00:00Z,-33.03,138.75,13.114333152770996
2008-01-01T00:00:00Z,-33.03,138.75,15.200865745544434
2008-02-01T00:00:00Z,-33.03,138.75,12.898146629333496
2008-03-01T00:00:00Z,-33.03,138.75,12.82474136352539
2008-04-01T00:00:00Z,-33.03,138.75,6.885732173919678
2008-05-01T00:00:00Z,-33.03,138.75,4.924223899841309
2008-06-01T00:00:00Z,-33.03,138.75,4.439127445220947
2008-07-01T00:00:00Z,-33.03,138.75,2.274491310119629
2008-08-01T00:00:00Z,-33.03,138.75,1.3132017850875854
2008-09-01T00:00:00Z,-33.03,138.75,4.284353256225586
2008-10-01T00:00:00Z,-33.03,138.75,7.398407459259033
2008-11-01T00:00:00Z,-33.03,138.75,10.103191375732422
2008-12-01T00:00:00Z,-33.03,138.75,11.93639087677002
2009-01-01T00:00:00Z,-33.03,138.75,14.396784782409668
2009-02-01T00:00:00Z,-33.03,138.75,14.70689582824707
2009-03-01T00:00:00Z,-33.03,138.75,11.500081062316895
2009-04-01T00:00:00Z,-33.03,138.75,7.755303382873535
2009-05-01T00:00:00Z,-33.03,138.75,5.496857643127441
2009-06-01T00:00:00Z,-33.03,138.75,4.64406681060791
2009-07-01T00:00:00Z,-33.03,138.75,3.925530195236206
2009-08-01T00:00:00Z,-33.03,138.75,4.265047073364258
2009-09-01T00:00:00Z,-33.03,138.75,5.132012844085693
2009-10-01T00:00:00Z,-33.03,138.75,6.6931328773498535
2009-11-01T00:00:00Z,-33.03,138.75,14.031585693359375
2009-12-01T00:00:00Z,-33.03,138.75,12.332409858703613
2010-01-01T00:00:00Z,-33.03,138.75,14.559311866760254
2010-02-01T00:00:00Z,-33.03,138.75,15.596689224243164
2010-03-01T00:00:00Z,-33.03,138.75,11.972305297851562
2010-04-01T00:00:00Z,-33.03,138.75,9.486862182617188
2010-05-01T00:00:00Z,-33.03,138.75,4.867099761962891
2010-06-01T00:00:00Z,-33.03,138.75,2.949578046798706
2010-07-01T00:00:00Z,-33.03,138.75,1.4205236434936523
2010-08-01T00:00:00Z,-33.03,138.75,2.593168258666992
2010-09-01T00:00:00Z,-33.03,138.75,4.373388767242432
2010-10-01T00:00:00Z,-33.03,138.75,6.479510307312012
2010-11-01T00:00:00Z,-33.03,138.75,9.751309394836426
2010-12-01T00:00:00Z,-33.03,138.75,12.013113975524902
2011-01-01T00:00:00Z,-33.03,138.75,15.64492416381836
2011-02-01T00:00:00Z,-33.03,138.75,15.10206127166748
2011-03-01T00:00:00Z,-33.03,138.75,11.740726470947266
2011-04-01T00:00:00Z,-33.03,138.75,7.113568305969238
2011-05-01T00:00:00Z,-33.03,138.75,4.56705379486084
2011-06-01T00:00:00Z,-33.03,138.75,2.7942609786987305
2011-07-01T00:00:00Z,-33.03,138.75,2.2986578941345215
2011-08-01T00:00:00Z,-33.03,138.75,4.031210422515869
2011-09-01T00:00:00Z,-33.03,138.75,4.350543022155762
2011-10-01T00:00:00Z,-33.03,138.75,7.859020709991455
2011-11-01T00:00:00Z,-33.03,138.75,11.003880500793457
2011-12-01T00:00:00Z,-33.03,138.75,12.383463859558105
2012-01-01T00:00:00Z,-33.03,138.75,15.273193359375
2012-02-01T00:00:00Z,-33.03,138.75,13.369648933410645
2012-03-01T00:00:00Z,-33.03,138.75,10.616052627563477
2012-04-01T00:00:00Z,-33.03,138.75,7.752500534057617
2012-05-01T00:00:00Z,-33.03,138.75,3.419558525085449
2012-06-01T00:00:00Z,-33.03,138.75,2.5728800296783447
2012-07-01T00:00:00Z,-33.03,138.75,1.9205290079116821
2012-08-01T00:00:00Z,-33.03,138.75,2.5961999893188477
2012-09-01T00:00:00Z,-33.03,138.75,4.100085258483887
2012-10-01T00:00:00Z,-33.03,138.75,6.479480743408203
2012-11-01T00:00:00Z,-33.03,138.75,11.243948936462402
2012-12-01T00:00:00Z,-33.03,138.75,12.622077941894531
