time,latitude[unit="degrees_north"],longitude[unit="degrees_east"],air_temperature[unit="C"]
1970-01-01T00:00:00Z,-35.6557,148.152,7.8250532150268555
1970-02-01T00:00:00Z,-35.6557,148.152,9.172273635864258
1970-03-01T00:00:00Z,-35.6557,148.152,5.214036464691162
1970-04-01T00:00:00Z,-35.6557,148.152,3.7870960235595703
1970-05-01T00:00:00Z,-35.6557,148.152,0.13518096506595612
1970-06-01T00:00:00Z,-35.6557,148.152,-0.593660295009613
1970-07-01T00:00:00Z,-35.6557,148.152,-2.3036015033721924
1970-08-01T00:00:00Z,-35.6557,148.152,-1.0756821632385254
1970-09-01T00:00:00Z,-35.6557,148.152,-0.8717002272605896
1970-10-01T00:00:00Z,-35.6557,148.152,2.9511847496032715
1970-11-01T00:00:00Z,-35.6557,148.152,4.627625465393066
1970-12-01T00:00:00Z,-35.6557,148.152,8.014033317565918
1971-01-01T00:00:00Z,-35.6557,148.152,9.142698287963867
1971-02-01T00:00:00Z,-35.6557,148.152,9.888921737670898
1971-03-01T00:00:00Z,-35.6557,148.152,9.083733558654785
1971-04-01T00:00:00Z,-35.6557,148.152,4.075778007507324
1971-05-01T00:00:00Z,-35.6557,148.152,0.8070335388183594
1971-06-01T00:00:00Z,-35.6557,148.152,-2.3511619567871094
1971-07-01T00:00:00Z,-35.6557,148.152,-3.5850210189819336
1971-08-01T00:00:00Z,-35.6557,148.152,-2.044381618499756
1971-09-01T00:00:00Z,-35.6557,148.152,0.05621081218123436
1971-10-01T00:00:00Z,-35.6557,148.152,1.1637083292007446
1971-11-01T00:00:00Z,-35.6557,148.152,4.094509601593018
1971-12-01T00:00:00Z,-35.6557,148.152,7.570353984832764
1972-01-01T00:00:00Z,-35.6557,148.152,8.826179504394531
1972-02-01T00:00:00Z,-35.6557,148.152,8.449054718017578
1972-03-01T00:00:00Z,-35.6557,148.152,5.101295471191406
1972-04-01T00:00:00Z,-35.6557,148.152,2.35491681098938
1972-05-01T00:00:00Z,-35.6557,148.152,0.4190027117729187
1972-06-01T00:00:00Z,-35.6557,148.152,-3.339735746383667
1972-07-01T00:00:00Z,-35.6557,148.152,-1.472498893737793
1972-08-01T00:00:00Z,-35.6557,148.152,-0.20873820781707764
1972-09-01T00:00:00Z,-35.6557,148.152,0.40476754307746887
1972-10-01T00:00:00Z,-35.6557,148.152,3.3112683296203613
1972-11-01T00:00:00Z,-35.6557,148.152,4.532506465911865
1972-12-01T00:00:00Z,-35.6557,148.152,8.532496452331543
1973-01-01T00:00:00Z,-35.6557,148.152,11.567649841308594
1973-02-01T00:00:00Z,-35.6557,148.152,11.70145320892334
1973-03-01T00:00:00Z,-35.6557,148.152,6.45599889755249
1973-04-01T00:00:00Z,-35.6557,148.152,4.731449604034424
1973-05-01T00:00:00Z,-35.6557,148.152,1.455958366394043
1973-06-01T00:00:00Z,-35.6557,148.152,-0.5161205530166626
1973-07-01T00:00:00Z,-35.6557,148.152,-0.5141916275024414
1973-08-01T00:00:00Z,-35.6557,148.152,-0.7235026955604553
1973-09-01T00:00:00Z,-35.6557,148.152,1.7384569644927979
1973-10-01T00:00:00Z,-35.6557,148.152,5.119410037994385
1973-11-01T00:00:00Z,-35.6557,148.152,5.220853328704834
1973-12-01T00:00:00Z,-35.6557,148.152,8.269874572753906
1974-01-01T00:00:00Z,-35.6557,148.152,10.336421012878418
1974-02-01T00:00:00Z,-35.6557,148.152,8.929654121398926
1974-03-01T00:00:00Z,-35.6557,148.152,8.562467575073242
1974-04-01T00:00:00Z,-35.6557,148.152,6.566850662231445
1974-05-01T00:00:00Z,-35.6557,148.152,2.5810322761535645
1974-06-01T00:00:00Z,-35.6557,148.152,-1.399512529373169
1974-07-01T00:00:00Z,-35.6557,148.152,-0.7894489169120789
1974-08-01T00:00:00Z,-35.6557,148.152,-0.8230280876159668
1974-09-01T00:00:00Z,-35.6557,148.152,-0.07116897404193878
1974-10-01T00:00:00Z,-35.6557,148.152,2.571042776107788
1974-11-01T00:00:00Z,-35.6557,148.152,3.540390729904175
1974-12-01T00:00:00Z,-35.6557,148.152,5.84044075012207
1975-01-01T00:00:00Z,-35.6557,148.152,6.488792896270752
1975-02-01T00:00:00Z,-35.6557,148.152,9.630268096923828
1975-03-01T00:00:00Z,-35.6557,148.152,6.56955623626709
1975-04-01T00:00:00Z,-35.6557,148.152,3.5714292526245117
1975-05-01T00:00:00Z,-35.6557,148.152,2.1117899417877197
1975-06-01T00:00:00Z,-35.6557,148.152,-0.9978625774383545
1975-07-01T00:00:00Z,-35.6557,148.152,-0.35385337471961975
1975-08-01T00:00:00Z,-35.6557,148.152,-0.8126578330993652
1975-09-01T00:00:00Z,-35.6557,148.152,2.269428253173828
1975-10-01T00:00:00Z,-35.6557,148.152,3.003214120864868
1975-11-01T00:00:00Z,-35.6557,148.152,5.814533710479736
1975-12-01T00:00:00Z,-35.6557,148.152,10.207003593444824
1976-01-01T00:00:00Z,-35.6557,148.152,9.21668815612793
1976-02-01T00:00:00Z,-35.6557,148.152,10.840335845947266
1976-03-01T00:00:00Z,-35.6557,148.152,7.787657260894775
1976-04-01T00:00:00Z,-35.6557,148.152,3.0192975997924805
1976-05-01T00:00:00Z,-35.6557,148.152,-0.5146066546440125
1976-06-01T00:00:00Z,-35.6557,148.152,-1.2340167760849
1976-07-01T00:00:00Z,-35.6557,148.152,-2.925642967224121
1976-08-01T00:00:00Z,-35.6557,148.152,-2.1818244457244873
1976-09-01T00:00:00Z,-35.6557,148.152,0.06243763118982315
1976-10-01T00:00:00Z,-35.6557,148.152,3.154689073562622
1976-11-01T00:00:00Z,-35.6557,148.152,4.554297924041748
1976-12-01T00:00:00Z,-35.6557,148.152,6.339062690734863
1977-01-01T00:00:00Z,-35.6557,148.152,8.843856811523438
1977-02-01T00:00:00Z,-35.6557,148.152,10.853133201599121
1977-03-01T00:00:00Z,-35.6557,148.152,7.401902198791504
1977-04-01T00:00:00Z,-35.6557,148.152,1.3401702642440796
1977-05-01T00:00:00Z,-35.6557,148.152,1.6566828489303589
1977-06-01T00:00:00Z,-35.6557,148.152,-1.5428344011306763
1977-07-01T00:00:00Z,-35.6557,148.152,-3.5956969261169434
1977-08-01T00:00:00Z,-35.6557,148.152,-1.1052120923995972
1977-09-01T00:00:00Z,-35.6557,148.152,-0.39342620968818665
1977-10-01T00:00:00Z,-35.6557,148.152,3.4809935092926025
1977-11-01T00:00:00Z,-35.6557,148.152,5.2219743728637695
1977-12-01T00:00:00Z,-35.6557,148.152,7.548863410949707
1978-01-01T00:00:00Z,-35.6557,148.152,9.691926002502441
1978-02-01T00:00:00Z,-35.6557,148.152,9.10765266418457
1978-03-01T00:00:00Z,-35.6557,148.152,8.997633934020996
1978-04-01T00:00:00Z,-35.6557,148.152,3.549891710281372
1978-05-01T00:00:00Z,-35.6557,148.152,2.838883876800537
1978-06-01T00:00:00Z,-35.6557,148.152,0.36162930727005005
1978-07-01T00:00:00Z,-35.6557,148.152,-1.6925042867660522
1978-08-01T00:00:00Z,-35.6557,148.152,-1.6165050268173218
1978-09-01T00:00:00Z,-35.6557,148.152,1.2847907543182373
1978-10-01T00:00:00Z,-35.6557,148.152,2.6503450870513916
1978-11-01T00:00:00Z,-35.6557,148.152,5.454095363616943
1978-12-01T00:00:00Z,-35.6557,148.152,6.644546985626221
1979-01-01T00:00:00Z,-35.6557,148.152,11.624640464782715
1979-02-01T00:00:00Z,-35.6557,148.152,9.676118850708008
1979-03-01T00:00:00Z,-35.6557,148.152,8.031030654907227
1979-04-01T00:00:00Z,-35.6557,148.152,2.9592199325561523
1979-05-01T00:00:00Z,-35.6557,148.152,0.6858450770378113
1979-06-01T00:00:00Z,-35.6557,148.152,-0.3717195391654968
1979-07-01T00:00:00Z,-35.6557,148.152,-2.615950345993042
1979-08-01T00:00:00Z,-35.6557,148.152,-1.630699634552002
1979-09-01T00:00:00Z,-35.6557,148.152,0.7072682976722717
1979-10-01T00:00:00Z,-35.6557,148.152,3.0441524982452393
1979-11-01T00:00:00Z,-35.6557,148.152,6.090840816497803
1979-12-01T00:00:00Z,-35.6557,148.152,7.603360176086426
1980-01-01T00:00:00Z,-35.6557,148.152,8.285804748535156
1980-02-01T00:00:00Z,-35.6557,148.152,8.930328369140625
1980-03-01T00:00:00Z,-35.6557,148.152,7.1734819412231445
1980-04-01T00:00:00Z,-35.6557,148.152,3.810507297515869
1980-05-01T00:00:00Z,-35.6557,148.152,3.125110387802124
1980-06-01T00:00:00Z,-35.6557,148.152,-1.639298677444458
1980-07-01T00:00:00Z,-35.6557,148.152,-1.3602969646453857
1980-08-01T00:00:00Z,-35.6557,148.152,-1.5206072330474854
1980-09-01T00:00:00Z,-35.6557,148.152,1.1537039279937744
1980-10-01T00:00:00Z,-35.6557,148.152,3.6302592754364014
1980-11-01T00:00:00Z,-35.6557,148.152,5.811178684234619
1980-12-01T00:00:00Z,-35.6557,148.152,9.161551475524902
1981-01-01T00:00:00Z,-35.6557,148.152,12.405316352844238
1981-02-01T00:00:00Z,-35.6557,148.152,10.863885879516602
1981-03-01T00:00:00Z,-35.6557,148.152,5.659043312072754
1981-04-01T00:00:00Z,-35.6557,148.152,3.790501832962036
1981-05-01T00:00:00Z,-35.6557,148.152,1.79958176612854
1981-06-01T00:00:00Z,-35.6557,148.152,-0.11053545773029327
1981-07-01T00:00:00Z,-35.6557,148.152,-1.3768749237060547
1981-08-01T00:00:00Z,-35.6557,148.152,-0.5857315063476562
1981-09-01T00:00:00Z,-35.6557,148.152,1.256950855255127
1981-10-01T00:00:00Z,-35.6557,148.152,3.746523380279541
1981-11-01T00:00:00Z,-35.6557,148.152,4.926575660705566
1981-12-01T00:00:00Z,-35.6557,148.152,7.732615947723389
1982-01-01T00:00:00Z,-35.6557,148.152,10.404547691345215
1982-02-01T00:00:00Z,-35.6557,148.152,9.730267524719238
1982-03-01T00:00:00Z,-35.6557,148.152,8.481679916381836
1982-04-01T00:00:00Z,-35.6557,148.152,3.6287665367126465
1982-05-01T00:00:00Z,-35.6557,148.152,0.4686730206012726
1982-06-01T00:00:00Z,-35.6557,148.152,-3.1367027759552
1982-07-01T00:00:00Z,-35.6557,148.152,-4.13891077041626
1982-08-01T00:00:00Z,-35.6557,148.152,-1.006000280380249
1982-09-01T00:00:00Z,-35.6557,148.152,-0.18010027706623077
1982-10-01T00:00:00Z,-35.6557,148.152,1.2883338928222656
1982-11-01T00:00:00Z,-35.6557,148.152,5.88027811050415
1982-12-01T00:00:00Z,-35.6557,148.152,8.461206436157227
1983-01-01T00:00:00Z,-35.6557,148.152,7.961812973022461
1983-02-01T00:00:00Z,-35.6557,148.152,11.718877792358398
1983-03-01T00:00:00Z,-35.6557,148.152,9.671298027038574
1983-04-01T00:00:00Z,-35.6557,148.152,3.585500717163086
1983-05-01T00:00:00Z,-35.6557,148.152,3.652928352355957
1983-06-01T00:00:00Z,-35.6557,148.152,-0.6374081373214722
1983-07-01T00:00:00Z,-35.6557,148.152,-1.9144375324249268
1983-08-01T00:00:00Z,-35.6557,148.152,-0.1907671093940735
1983-09-01T00:00:00Z,-35.6557,148.152,1.4911680221557617
1983-10-01T00:00:00Z,-35.6557,148.152,4.054716110229492
1983-11-01T00:00:00Z,-35.6557,148.152,4.784792423248291
1983-12-01T00:00:00Z,-35.6557,148.152,8.18273639678955
1984-01-01T00:00:00Z,-35.6557,148.152,7.884126663208008
1984-02-01T00:00:00Z,-35.6557,148.152,8.520978927612305
1984-03-01T00:00:00Z,-35.6557,148.152,4.521674633026123
1984-04-01T00:00:00Z,-35.6557,148.152,3.8125722408294678
1984-05-01T00:00:00Z,-35.6557,148.152,0.22616520524024963
1984-06-01T00:00:00Z,-35.6557,148.152,-2.5308711528778076
1984-07-01T00:00:00Z,-35.6557,148.152,-1.485579252243042
1984-08-01T00:00:00Z,-35.6557,148.152,-0.042030129581689835
1984-09-01T00:00:00Z,-35.6557,148.152,0.5732393264770508
1984-10-01T00:00:00Z,-35.6557,148.152,2.688875675201416
1984-11-01T00:00:00Z,-35.6557,148.152,5.744259357452393
1984-12-01T00:00:00Z,-35.6557,148.152,5.226747989654541
1985-01-01T00:00:00Z,-35.6557,148.152,7.267648220062256
1985-02-01T00:00:00Z,-35.6557,148.152,7.596216678619385
1985-03-01T00:00:00Z,-35.6557,148.152,8.708850860595703
1985-04-01T00:00:00Z,-35.6557,148.152,4.987870216369629
1985-05-01T00:00:00Z,-35.6557,148.152,1.5535516738891602
1985-06-01T00:00:00Z,-35.6557,148.152,-1.9064358472824097
1985-07-01T00:00:00Z,-35.6557,148.152,-3.170273780822754
1985-08-01T00:00:00Z,-35.6557,148.152,-1.233027458190918
1985-09-01T00:00:00Z,-35.6557,148.152,0.18446598947048187
1985-10-01T00:00:00Z,-35.6557,148.152,3.359471321105957
1985-11-01T00:00:00Z,-35.6557,148.152,5.749730110168457
1985-12-01T00:00:00Z,-35.6557,148.152,7.23772668838501
1986-01-01T00:00:00Z,-35.6557,148.152,6.723860740661621
1986-02-01T00:00:00Z,-35.6557,148.152,7.753608703613281
1986-03-01T00:00:00Z,-35.6557,148.152,8.035368919372559
1986-04-01T00:00:00Z,-35.6557,148.152,4.094181060791016
1986-05-01T00:00:00Z,-35.6557,148.152,1.775488018989563
1986-06-01T00:00:00Z,-35.6557,148.152,-2.3471662998199463
1986-07-01T00:00:00Z,-35.6557,148.152,-1.8336255550384521
1986-08-01T00:00:00Z,-35.6557,148.152,-0.7777141332626343
1986-09-01T00:00:00Z,-35.6557,148.152,1.1112834215164185
1986-10-01T00:00:00Z,-35.6557,148.152,1.8748716115951538
1986-11-01T00:00:00Z,-35.6557,148.152,4.448330879211426
1986-12-01T00:00:00Z,-35.6557,148.152,5.764634609222412
1987-01-01T00:00:00Z,-35.6557,148.152,7.191780090332031
1987-02-01T00:00:00Z,-35.6557,148.152,9.057065963745117
1987-03-01T00:00:00Z,-35.6557,148.152,5.324626445770264
1987-04-01T00:00:00Z,-35.6557,148.152,3.6994168758392334
1987-05-01T00:00:00Z,-35.6557,148.152,1.4635541439056396
1987-06-01T00:00:00Z,-35.6557,148.152,-0.1246795728802681
1987-07-01T00:00:00Z,-35.6557,148.152,-2.906665802001953
1987-08-01T00:00:00Z,-35.6557,148.152,0.17841391265392303
1987-09-01T00:00:00Z,-35.6557,148.152,0.6129025220870972
1987-10-01T00:00:00Z,-35.6557,148.152,1.7896798849105835
1987-11-01T00:00:00Z,-35.6557,148.152,5.512278079986572
1987-12-01T00:00:00Z,-35.6557,148.152,7.1061224937438965
1988-01-01T00:00:00Z,-35.6557,148.152,10.883658409118652
1988-02-01T00:00:00Z,-35.6557,148.152,7.125679969787598
1988-03-01T00:00:00Z,-35.6557,148.152,6.549015522003174
1988-04-01T00:00:00Z,-35.6557,148.152,5.8574652671813965
1988-05-01T00:00:00Z,-35.6557,148.152,3.4516406059265137
1988-06-01T00:00:00Z,-35.6557,148.152,-0.44608885049819946
1988-07-01T00:00:00Z,-35.6557,148.152,0.06685987114906311
1988-08-01T00:00:00Z,-35.6557,148.152,-0.9147973656654358
1988-09-01T00:00:00Z,-35.6557,148.152,1.7807079553604126
1988-10-01T00:00:00Z,-35.6557,148.152,2.7606382369995117
1988-11-01T00:00:00Z,-35.6557,148.152,5.3579816818237305
1988-12-01T00:00:00Z,-35.6557,148.152,9.733450889587402
1989-01-01T00:00:00Z,-35.6557,148.152,7.429703235626221
1989-02-01T00:00:00Z,-35.6557,148.152,8.288396835327148
1989-03-01T00:00:00Z,-35.6557,148.152,8.898493766784668
1989-04-01T00:00:00Z,-35.6557,148.152,7.35971212387085
1989-05-01T00:00:00Z,-35.6557,148.152,4.243408203125
1989-06-01T00:00:00Z,-35.6557,148.152,-0.49343565106391907
1989-07-01T00:00:00Z,-35.6557,148.152,-1.5680986642837524
1989-08-01T00:00:00Z,-35.6557,148.152,-2.020402193069458
1989-09-01T00:00:00Z,-35.6557,148.152,-0.37676507234573364
1989-10-01T00:00:00Z,-35.6557,148.152,1.8145415782928467
1989-11-01T00:00:00Z,-35.6557,148.152,6.045241832733154
1989-12-01T00:00:00Z,-35.6557,148.152,7.549977779388428
1990-01-01T00:00:00Z,-35.6557,148.152,9.478379249572754
1990-02-01T00:00:00Z,-35.6557,148.152,9.033958435058594
1990-03-01T00:00:00Z,-35.6557,148.152,7.520826816558838
1990-04-01T00:00:00Z,-35.6557,148.152,6.905781269073486
1990-05-01T00:00:00Z,-35.6557,148.152,1.93276047706604
1990-06-01T00:00:00Z,-35.6557,148.152,-1.2297431230545044
1990-07-01T00:00:00Z,-35.6557,148.152,-0.4334401786327362
1990-08-01T00:00:00Z,-35.6557,148.152,-0.6296266317367554
1990-09-01T00:00:00Z,-35.6557,148.152,0.4862404465675354
1990-10-01T00:00:00Z,-35.6557,148.152,2.6425068378448486
1990-11-01T00:00:00Z,-35.6557,148.152,5.009429931640625
1990-12-01T00:00:00Z,-35.6557,148.152,8.179354667663574
1991-01-01T00:00:00Z,-35.6557,148.152,10.655593872070312
1991-02-01T00:00:00Z,-35.6557,148.152,10.325593948364258
1991-03-01T00:00:00Z,-35.6557,148.152,6.1653289794921875
1991-04-01T00:00:00Z,-35.6557,148.152,2.378908634185791
1991-05-01T00:00:00Z,-35.6557,148.152,0.8593873381614685
1991-06-01T00:00:00Z,-35.6557,148.152,2.7205123901367188
1991-07-01T00:00:00Z,-35.6557,148.152,-0.521393895149231
1991-08-01T00:00:00Z,-35.6557,148.152,-1.300391435623169
1991-09-01T00:00:00Z,-35.6557,148.152,0.33147451281547546
1991-10-01T00:00:00Z,-35.6557,148.152,3.5252132415771484
1991-11-01T00:00:00Z,-35.6557,148.152,4.288680076599121
1991-12-01T00:00:00Z,-35.6557,148.152,7.12327241897583
1992-01-01T00:00:00Z,-35.6557,148.152,7.678313255310059
1992-02-01T00:00:00Z,-35.6557,148.152,8.648076057434082
1992-03-01T00:00:00Z,-35.6557,148.152,8.096705436706543
1992-04-01T00:00:00Z,-35.6557,148.152,4.248418807983398
1992-05-01T00:00:00Z,-35.6557,148.152,1.163404107093811
1992-06-01T00:00:00Z,-35.6557,148.152,-1.2428994178771973
1992-07-01T00:00:00Z,-35.6557,148.152,-1.597165584564209
1992-08-01T00:00:00Z,-35.6557,148.152,-2.281716823577881
1992-09-01T00:00:00Z,-35.6557,148.152,-0.14194753766059875
1992-10-01T00:00:00Z,-35.6557,148.152,3.2193689346313477
1992-11-01T00:00:00Z,-35.6557,148.152,3.300701141357422
1992-12-01T00:00:00Z,-35.6557,148.152,8.241212844848633
1993-01-01T00:00:00Z,-35.6557,148.152,10.619956016540527
1993-02-01T00:00:00Z,-35.6557,148.152,9.140830993652344
1993-03-01T00:00:00Z,-35.6557,148.152,6.498662948608398
1993-04-01T00:00:00Z,-35.6557,148.152,3.91351580619812
1993-05-01T00:00:00Z,-35.6557,148.152,0.7106368541717529
1993-06-01T00:00:00Z,-35.6557,148.152,-1.6873576641082764
1993-07-01T00:00:00Z,-35.6557,148.152,-0.030560914427042007
1993-08-01T00:00:00Z,-35.6557,148.152,-0.712029755115509
1993-09-01T00:00:00Z,-35.6557,148.152,1.1763712167739868
1993-10-01T00:00:00Z,-35.6557,148.152,2.097668170928955
1993-11-01T00:00:00Z,-35.6557,148.152,5.120845794677734
1993-12-01T00:00:00Z,-35.6557,148.152,7.871828556060791
1994-01-01T00:00:00Z,-35.6557,148.152,7.51989221572876
1994-02-01T00:00:00Z,-35.6557,148.152,10.347148895263672
1994-03-01T00:00:00Z,-35.6557,148.152,4.960399627685547
1994-04-01T00:00:00Z,-35.6557,148.152,3.120361566543579
1994-05-01T00:00:00Z,-35.6557,148.152,0.7775276303291321
1994-06-01T00:00:00Z,-35.6557,148.152,-0.3270471394062042
1994-07-01T00:00:00Z,-35.6557,148.152,-2.5432963371276855
1994-08-01T00:00:00Z,-35.6557,148.152,-3.3661727905273438
1994-09-01T00:00:00Z,-35.6557,148.152,-1.205103874206543
1994-10-01T00:00:00Z,-35.6557,148.152,2.5202114582061768
1994-11-01T00:00:00Z,-35.6557,148.152,5.793831825256348
1994-12-01T00:00:00Z,-35.6557,148.152,9.365994453430176
1995-01-01T00:00:00Z,-35.6557,148.152,10.041955947875977
1995-02-01T00:00:00Z,-35.6557,148.152,8.492721557617188
1995-03-01T00:00:00Z,-35.6557,148.152,5.233719825744629
1995-04-01T00:00:00Z,-35.6557,148.152,1.0973330736160278
1995-05-01T00:00:00Z,-35.6557,148.152,3.0193190574645996
1995-06-01T00:00:00Z,-35.6557,148.152,-0.21219982206821442
1995-07-01T00:00:00Z,-35.6557,148.152,-1.7016183137893677
1995-08-01T00:00:00Z,-35.6557,148.152,-0.38562363386154175
1995-09-01T00:00:00Z,-35.6557,148.152,0.7864477038383484
1995-10-01T00:00:00Z,-35.6557,148.152,3.440511703491211
1995-11-01T00:00:00Z,-35.6557,148.152,5.893615245819092
1995-12-01T00:00:00Z,-35.6557,148.152,6.2802510261535645
1996-01-01T00:00:00Z,-35.6557,148.152,9.254124641418457
1996-02-01T00:00:00Z,-35.6557,148.152,6.261344909667969
1996-03-01T00:00:00Z,-35.6557,148.152,6.134639739990234
1996-04-01T00:00:00Z,-35.6557,148.152,1.7788852453231812
1996-05-01T00:00:00Z,-35.6557,148.152,1.6998889446258545
1996-06-01T00:00:00Z,-35.6557,148.152,-0.6857147216796875
1996-07-01T00:00:00Z,-35.6557,148.152,-0.845759928226471
1996-08-01T00:00:00Z,-35.6557,148.152,-0.07847072929143906
1996-09-01T00:00:00Z,-35.6557,148.152,1.0140734910964966
1996-10-01T00:00:00Z,-35.6557,148.152,3.7912685871124268
1996-11-01T00:00:00Z,-35.6557,148.152,3.59809947013855
1996-12-01T00:00:00Z,-35.6557,148.152,6.770332336425781
1997-01-01T00:00:00Z,-35.6557,148.152,9.113537788391113
1997-02-01T00:00:00Z,-35.6557,148.152,12.085570335388184
1997-03-01T00:00:00Z,-35.6557,148.152,6.411557674407959
1997-04-01T00:00:00Z,-35.6557,148.152,2.62387752532959
1997-05-01T00:00:00Z,-35.6557,148.152,1.9086331129074097
1997-06-01T00:00:00Z,-35.6557,148.152,-1.694066047668457
1997-07-01T00:00:00Z,-35.6557,148.152,-3.3208069801330566
1997-08-01T00:00:00Z,-35.6557,148.152,-2.0366899967193604
1997-09-01T00:00:00Z,-35.6557,148.152,1.3185396194458008
1997-10-01T00:00:00Z,-35.6557,148.152,2.7350783348083496
1997-11-01T00:00:00Z,-35.6557,148.152,6.9360761642456055
1997-12-01T00:00:00Z,-35.6557,148.152,8.886933326721191
1998-01-01T00:00:00Z,-35.6557,148.152,11.215201377868652
1998-02-01T00:00:00Z,-35.6557,148.152,9.006693840026855
1998-03-01T00:00:00Z,-35.6557,148.152,7.287438869476318
1998-04-01T00:00:00Z,-35.6557,148.152,4.418544292449951
1998-05-01T00:00:00Z,-35.6557,148.152,2.55021333694458
1998-06-01T00:00:00Z,-35.6557,148.152,-0.3810191750526428
1998-07-01T00:00:00Z,-35.6557,148.152,-1.730067253112793
1998-08-01T00:00:00Z,-35.6557,148.152,1.122026801109314
1998-09-01T00:00:00Z,-35.6557,148.152,2.7574198246002197
1998-10-01T00:00:00Z,-35.6557,148.152,2.211954355239868
1998-11-01T00:00:00Z,-35.6557,148.152,4.633127689361572
1998-12-01T00:00:00Z,-35.6557,148.152,8.395190238952637
1999-01-01T00:00:00Z,-35.6557,148.152,12.120552062988281
1999-02-01T00:00:00Z,-35.6557,148.152,8.788816452026367
1999-03-01T00:00:00Z,-35.6557,148.152,7.491888046264648
1999-04-01T00:00:00Z,-35.6557,148.152,2.455463171005249
1999-05-01T00:00:00Z,-35.6557,148.152,1.477200984954834
1999-06-01T00:00:00Z,-35.6557,148.152,-1.1637696027755737
1999-07-01T00:00:00Z,-35.6557,148.152,-1.1623767614364624
1999-08-01T00:00:00Z,-35.6557,148.152,-1.2101994752883911
1999-09-01T00:00:00Z,-35.6557,148.152,2.3610599040985107
1999-10-01T00:00:00Z,-35.6557,148.152,4.696222305297852
1999-11-01T00:00:00Z,-35.6557,148.152,3.2635409832000732
1999-12-01T00:00:00Z,-35.6557,148.152,7.368635654449463
2000-01-01T00:00:00Z,-35.6557,148.152,6.9142584800720215
2000-02-01T00:00:00Z,-35.6557,148.152,11.190357208251953
2000-03-01T00:00:00Z,-35.6557,148.152,9.386463165283203
2000-04-01T00:00:00Z,-35.6557,148.152,4.0003461837768555
2000-05-01T00:00:00Z,-35.6557,148.152,0.9527392983436584
2000-06-01T00:00:00Z,-35.6557,148.152,-1.722296953201294
2000-07-01T00:00:00Z,-35.6557,148.152,-1.5109691619873047
2000-08-01T00:00:00Z,-35.6557,148.152,-1.2619433403015137
2000-09-01T00:00:00Z,-35.6557,148.152,1.8202040195465088
2000-10-01T00:00:00Z,-35.6557,148.152,2.946808099746704
2000-11-01T00:00:00Z,-35.6557,148.152,8.15282154083252
2000-12-01T00:00:00Z,-35.6557,148.152,8.085749626159668
2001-01-01T00:00:00Z,-35.6557,148.152,12.132369041442871
2001-02-01T00:00:00Z,-35.6557,148.152,11.549240112304688
2001-03-01T00:00:00Z,-35.6557,148.152,6.526688575744629
2001-04-01T00:00:00Z,-35.6557,148.152,3.8558287620544434
2001-05-01T00:00:00Z,-35.6557,148.152,0.3454812467098236
2001-06-01T00:00:00Z,-35.6557,148.152,-0.6324571371078491
2001-07-01T00:00:00Z,-35.6557,148.152,-0.6747646927833557
2001-08-01T00:00:00Z,-35.6557,148.152,-0.7786085605621338
2001-09-01T00:00:00Z,-35.6557,148.152,2.499082565307617
2001-10-01T00:00:00Z,-35.6557,148.152,2.139197587966919
2001-11-01T00:00:00Z,-35.6557,148.152,4.4655375480651855
2001-12-01T00:00:00Z,-35.6557,148.152,6.522934913635254
2002-01-01T00:00:00Z,-35.6557,148.152,8.249733924865723
2002-02-01T00:00:00Z,-35.6557,148.152,8.964699745178223
2002-03-01T00:00:00Z,-35.6557,148.152,6.894272804260254
2002-04-01T00:00:00Z,-35.6557,148.152,5.567174434661865
2002-05-01T00:00:00Z,-35.6557,148.152,0.9492670893669128
2002-06-01T00:00:00Z,-35.6557,148.152,-0.49821963906288147
2002-07-01T00:00:00Z,-35.6557,148.152,-2.0535216331481934
2002-08-01T00:00:00Z,-35.6557,148.152,-2.088928699493408
2002-09-01T00:00:00Z,-35.6557,148.152,0.9106286764144897
2002-10-01T00:00:00Z,-35.6557,148.152,2.5904431343078613
2002-11-01T00:00:00Z,-35.6557,148.152,7.439241886138916
2002-12-01T00:00:00Z,-35.6557,148.152,8.353309631347656
2003-01-01T00:00:00Z,-35.6557,148.152,10.101505279541016
2003-02-01T00:00:00Z,-35.6557,148.152,11.363475799560547
2003-03-01T00:00:00Z,-35.6557,148.152,6.5615997314453125
2003-04-01T00:00:00Z,-35.6557,148.152,4.429185390472412
2003-05-01T00:00:00Z,-35.6557,148.152,2.618046760559082
2003-06-01T00:00:00Z,-35.6557,148.152,0.42297956347465515
2003-07-01T00:00:00Z,-35.6557,148.152,-1.2428852319717407
2003-08-01T00:00:00Z,-35.6557,148.152,-1.4532030820846558
2003-09-01T00:00:00Z,-35.6557,148.152,0.1235809177160263
2003-10-01T00:00:00Z,-35.6557,148.152,1.3111867904663086
2003-11-01T00:00:00Z,-35.6557,148.152,5.377512454986572
2003-12-01T00:00:00Z,-35.6557,148.152,10.022433280944824
2004-01-01T00:00:00Z,-35.6557,148.152,9.487640380859375
2004-02-01T00:00:00Z,-35.6557,148.152,10.566250801086426
2004-03-01T00:00:00Z,-35.6557,148.152,6.603352069854736
2004-04-01T00:00:00Z,-35.6557,148.152,4.551150321960449
2004-05-01T00:00:00Z,-35.6557,148.152,0.04499727860093117
2004-06-01T00:00:00Z,-35.6557,148.152,-0.3839210271835327
2004-07-01T00:00:00Z,-35.6557,148.152,-1.7875484228134155
2004-08-01T00:00:00Z,-35.6557,148.152,-0.692225456237793
2004-09-01T00:00:00Z,-35.6557,148.152,0.8430578708648682
2004-10-01T00:00:00Z,-35.6557,148.152,3.4971446990966797
2004-11-01T00:00:00Z,-35.6557,148.152,5.366045951843262
2004-12-01T00:00:00Z,-35.6557,148.152,7.924171447753906
2005-01-01T00:00:00Z,-35.6557,148.152,9.663599967956543
2005-02-01T00:00:00Z,-35.6557,148.152,8.09708023071289
2005-03-01T00:00:00Z,-35.6557,148.152,5.8001909255981445
2005-04-01T00:00:00Z,-35.6557,148.152,5.721742630004883
2005-05-01T00:00:00Z,-35.6557,148.152,0.8536823391914368
2005-06-01T00:00:00Z,-35.6557,148.152,0.4241677224636078
2005-07-01T00:00:00Z,-35.6557,148.152,-0.4402470886707306
2005-08-01T00:00:00Z,-35.6557,148.152,-1.2268210649490356
2005-09-01T00:00:00Z,-35.6557,148.152,1.4078634977340698
2005-10-01T00:00:00Z,-35.6557,148.152,4.008087635040283
2005-11-01T00:00:00Z,-35.6557,148.152,6.6517229080200195
2005-12-01T00:00:00Z,-35.6557,148.152,7.638071060180664
2006-01-01T00:00:00Z,-35.6557,148.152,12.755880355834961
2006-02-01T00:00:00Z,-35.6557,148.152,10.114015579223633
2006-03-01T00:00:00Z,-35.6557,148.152,7.864147663116455
2006-04-01T00:00:00Z,-35.6557,148.152,1.314327597618103
2006-05-01T00:00:00Z,-35.6557,148.152,-0.25830376148223877
2006-06-01T00:00:00Z,-35.6557,148.152,-2.8091232776641846
2006-07-01T00:00:00Z,-35.6557,148.152,-0.6761118769645691
2006-08-01T00:00:00Z,-35.6557,148.152,-2.116260528564453
2006-09-01T00:00:00Z,-35.6557,148.152,0.9830800294876099
2006-10-01T00:00:00Z,-35.6557,148.152,2.419051170349121
2006-11-01T00:00:00Z,-35.6557,148.152,5.9866461753845215
2006-12-01T00:00:00Z,-35.6557,148.152,8.26947021484375
2007-01-01T00:00:00Z,-35.6557,148.152,10.613807678222656
2007-02-01T00:00:00Z,-35.6557,148.152,11.527149200439453
2007-03-01T00:00:00Z,-35.6557,148.152,8.767538070678711
2007-04-01T00:00:00Z,-35.6557,148.152,4.797093868255615
2007-05-01T00:00:00Z,-35.6557,148.152,3.6760897636413574
2007-06-01T00:00:00Z,-35.6557,148.152,-1.5366969108581543
2007-07-01T00:00:00Z,-35.6557,148.152,-1.869783639907837
2007-08-01T00:00:00Z,-35.6557,148.152,0.7021988034248352
2007-09-01T00:00:00Z,-35.6557,148.152,0.11235039681196213
2007-10-01T00:00:00Z,-35.6557,148.152,4.102968215942383
2007-11-01T00:00:00Z,-35.6557,148.152,8.179679870605469
2007-12-01T00:00:00Z,-35.6557,148.152,9.194511413574219
2008-01-01T00:00:00Z,-35.6557,148.152,11.768038749694824
2008-02-01T00:00:00Z,-35.6557,148.152,7.906252861022949
2008-03-01T00:00:00Z,-35.6557,148.152,7.702467441558838
2008-04-01T00:00:00Z,-35.6557,148.152,2.247814416885376
2008-05-01T00:00:00Z,-35.6557,148.152,0.8081703782081604
2008-06-01T00:00:00Z,-35.6557,148.152,1.1466090679168701
2008-07-01T00:00:00Z,-35.6557,148.152,-1.8979346752166748
2008-08-01T00:00:00Z,-35.6557,148.152,-2.113093376159668
2008-09-01T00:00:00Z,-35.6557,148.152,0.9421281814575195
2008-10-01T00:00:00Z,-35.6557,148.152,3.853644847869873
2008-11-01T00:00:00Z,-35.6557,148.152,5.616257667541504
2008-12-01T00:00:00Z,-35.6557,148.152,7.50128698348999
2009-01-01T00:00:00Z,-35.6557,148.152,10.388029098510742
2009-02-01T00:00:00Z,-35.6557,148.152,10.238237380981445
2009-03-01T00:00:00Z,-35.6557,148.152,7.412851333618164
2009-04-01T00:00:00Z,-35.6557,148.152,4.142326831817627
2009-05-01T00:00:00Z,-35.6557,148.152,1.3387919664382935
2009-06-01T00:00:00Z,-35.6557,148.152,0.42473310232162476
2009-07-01T00:00:00Z,-35.6557,148.152,-0.9311665296554565
2009-08-01T00:00:00Z,-35.6557,148.152,-0.03814997896552086
2009-09-01T00:00:00Z,-35.6557,148.152,1.0475877523422241
2009-10-01T00:00:00Z,-35.6557,148.152,2.660857915878296
2009-11-01T00:00:00Z,-35.6557,148.152,9.416834831237793
2009-12-01T00:00:00Z,-35.6557,148.152,8.358025550842285
2010-01-01T00:00:00Z,-35.6557,148.152,11.375921249389648
2010-02-01T00:00:00Z,-35.6557,148.152,11.473127365112305
2010-03-01T00:00:00Z,-35.6557,148.152,7.9579176902771
2010-04-01T00:00:00Z,-35.6557,148.152,4.777776718139648
2010-05-01T00:00:00Z,-35.6557,148.152,1.082242727279663
2010-06-01T00:00:00Z,-35.6557,148.152,-1.2414973974227905
2010-07-01T00:00:00Z,-35.6557,148.152,-2.127091884613037
2010-08-01T00:00:00Z,-35.6557,148.152,-1.4435794353485107
2010-09-01T00:00:00Z,-35.6557,148.152,0.8945877552032471
2010-10-01T00:00:00Z,-35.6557,148.152,4.070532321929932
2010-11-01T00:00:00Z,-35.6557,148.152,7.260367393493652
2010-12-01T00:00:00Z,-35.6557,148.152,8.234251022338867
2011-01-01T00:00:00Z,-35.6557,148.152,11.934432029724121
2011-02-01T00:00:00Z,-35.6557,148.152,10.855712890625
2011-03-01T00:00:00Z,-35.6557,148.152,8.22006607055664
2011-04-01T00:00:00Z,-35.6557,148.152,2.809664726257324
2011-05-01T00:00:00Z,-35.6557,148.152,-0.5198211073875427
2011-06-01T00:00:00Z,-35.6557,148.152,-1.1276684999465942
2011-07-01T00:00:00Z,-35.6557,148.152,-1.8207422494888306
2011-08-01T00:00:00Z,-35.6557,148.152,-0.0512908399105072
2011-09-01T00:00:00Z,-35.6557,148.152,0.4922631084918976
2011-10-01T00:00:00Z,-35.6557,148.152,3.3213043212890625
2011-11-01T00:00:00Z,-35.6557,148.152,7.778805732727051
2011-12-01T00:00:00Z,-35.6557,148.152,7.015580654144287
2012-01-01T00:00:00Z,-35.6557,148.152,9.334278106689453
2012-02-01T00:00:00Z,-35.6557,148.152,9.054359436035156
2012-03-01T00:00:00Z,-35.6557,148.152,6.675136089324951
2012-04-01T00:00:00Z,-35.6557,148.152,4.188226699829102
2012-05-01T00:00:00Z,-35.6557,148.152,-0.4519130289554596
2012-06-01T00:00:00Z,-35.6557,148.152,-1.14427649974823
2012-07-01T00:00:00Z,-35.6557,148.152,-1.903991937637329
2012-08-01T00:00:00Z,-35.6557,148.152,-2.1241819858551025
2012-09-01T00:00:00Z,-35.6557,148.152,0.19397391378879547
2012-10-01T00:00:00Z,-35.6557,148.152,1.954125165939331
2012-11-01T00:00:00Z,-35.6557,148.152,6.6107635498046875
2012-12-01T00:00:00Z,-35.6557,148.152,8.160788536071777
