time,latitude[unit="degrees_north"],longitude[unit="degrees_east"],air_temperature[unit="C"]
1970-01-01T00:00:00Z,-30.37,152.1,23.600860595703125
1970-02-01T00:00:00Z,-30.37,152.1,23.472763061523438
1970-03-01T00:00:00Z,-30.37,152.1,21.580869674682617
1970-04-01T00:00:00Z,-30.37,152.1,18.776580810546875
1970-05-01T00:00:00Z,-30.37,152.1,13.831104278564453
1970-06-01T00:00:00Z,-30.37,152.1,12.877548217773438
1970-07-01T00:00:00Z,-30.37,152.1,12.649556159973145
1970-08-01T00:00:00Z,-30.37,152.1,12.6922607421875
1970-09-01T00:00:00Z,-30.37,152.1,14.382397651672363
1970-10-01T00:00:00Z,-30.37,152.1,19.75554847717285
1970-11-01T00:00:00Z,-30.37,152.1,19.705303192138672
1970-12-01T00:00:00Z,-30.37,152.1,22.12312126159668
1971-01-01T00:00:00Z,-30.37,152.1,22.978599548339844
1971-02-01T00:00:00Z,-30.37,152.1,21.90333366394043
1971-03-01T00:00:00Z,-30.37,152.1,19.894582748413086
1971-04-01T00:00:00Z,-30.37,152.1,17.52910614013672
1971-05-01T00:00:00Z,-30.37,152.1,14.214089393615723
1971-06-01T00:00:00Z,-30.37,152.1,12.17573070526123
1971-07-01T00:00:00Z,-30.37,152.1,11.004323959350586
1971-08-01T00:00:00Z,-30.37,152.1,12.510672569274902
1971-09-01T00:00:00Z,-30.37,152.1,15.510868072509766
1971-10-01T00:00:00Z,-30.37,152.1,19.46417808532715
1971-11-01T00:00:00Z,-30.37,152.1,19.45876121520996
1971-12-01T00:00:00Z,-30.37,152.1,22.54368019104004
1972-01-01T00:00:00Z,-30.37,152.1,21.647184371948242
1972-02-01T00:00:00Z,-30.37,152.1,20.25749969482422
1972-03-01T00:00:00Z,-30.37,152.1,20.67728042602539
1972-04-01T00:00:00Z,-30.37,152.1,17.805381774902344
1972-05-01T00:00:00Z,-30.37,152.1,14.022710800170898
1972-06-01T00:00:00Z,-30.37,152.1,13.129555702209473
1972-07-01T00:00:00Z,-30.37,152.1,11.463897705078125
1972-08-01T00:00:00Z,-30.37,152.1,13.52668571472168
1972-09-01T00:00:00Z,-30.37,152.1,18.151453018188477
1972-10-01T00:00:00Z,-30.37,152.1,18.587039947509766
1972-11-01T00:00:00Z,-30.37,152.1,20.048131942749023
1972-12-01T00:00:00Z,-30.37,152.1,24.83152961730957
1973-01-01T00:00:00Z,-30.37,152.1,24.820283889770508
1973-02-01T00:00:00Z,-30.37,152.1,23.023801803588867
1973-03-01T00:00:00Z,-30.37,152.1,22.90411949157715
1973-04-01T00:00:00Z,-30.37,152.1,19.931015014648438
1973-05-01T00:00:00Z,-30.37,152.1,17.39715003967285
1973-06-01T00:00:00Z,-30.37,152.1,12.901594161987305
1973-07-01T00:00:00Z,-30.37,152.1,12.893885612487793
1973-08-01T00:00:00Z,-30.37,152.1,13.71396255493164
1973-09-01T00:00:00Z,-30.37,152.1,17.179033279418945
1973-10-01T00:00:00Z,-30.37,152.1,19.47062873840332
1973-11-01T00:00:00Z,-30.37,152.1,21.369264602661133
1973-12-01T00:00:00Z,-30.37,152.1,22.37874984741211
1974-01-01T00:00:00Z,-30.37,152.1,21.277942657470703
1974-02-01T00:00:00Z,-30.37,152.1,22.50479507446289
1974-03-01T00:00:00Z,-30.37,152.1,20.29802703857422
1974-04-01T00:00:00Z,-30.37,152.1,18.717260360717773
1974-05-01T00:00:00Z,-30.37,152.1,14.922962188720703
1974-06-01T00:00:00Z,-30.37,152.1,12.16674518585205
1974-07-01T00:00:00Z,-30.37,152.1,11.18582820892334
1974-08-01T00:00:00Z,-30.37,152.1,11.653632164001465
1974-09-01T00:00:00Z,-30.37,152.1,14.040740966796875
1974-10-01T00:00:00Z,-30.37,152.1,17.37350082397461
1974-11-01T00:00:00Z,-30.37,152.1,19.224716186523438
1974-12-01T00:00:00Z,-30.37,152.1,24.458988189697266
1975-01-01T00:00:00Z,-30.37,152.1,24.80805015563965
1975-02-01T00:00:00Z,-30.37,152.1,23.045618057250977
1975-03-01T00:00:00Z,-30.37,152.1,20.92447280883789
1975-04-01T00:00:00Z,-30.37,152.1,18.26474952697754
1975-05-01T00:00:00Z,-30.37,152.1,16.107646942138672
1975-06-01T00:00:00Z,-30.37,152.1,11.612688064575195
1975-07-01T00:00:00Z,-30.37,152.1,13.25466251373291
1975-08-01T00:00:00Z,-30.37,152.1,12.789708137512207
1975-09-01T00:00:00Z,-30.37,152.1,16.081405639648438
1975-10-01T00:00:00Z,-30.37,152.1,17.61908721923828
1975-11-01T00:00:00Z,-30.37,152.1,20.895719528198242
1975-12-01T00:00:00Z,-30.37,152.1,22.66105079650879
1976-01-01T00:00:00Z,-30.37,152.1,22.071218490600586
1976-02-01T00:00:00Z,-30.37,152.1,20.732629776000977
1976-03-01T00:00:00Z,-30.37,152.1,21.1076602935791
1976-04-01T00:00:00Z,-30.37,152.1,17.595365524291992
1976-05-01T00:00:00Z,-30.37,152.1,15.784924507141113
1976-06-01T00:00:00Z,-30.37,152.1,12.493940353393555
1976-07-01T00:00:00Z,-30.37,152.1,12.228447914123535
1976-08-01T00:00:00Z,-30.37,152.1,12.675978660583496
1976-09-01T00:00:00Z,-30.37,152.1,14.54379940032959
1976-10-01T00:00:00Z,-30.37,152.1,16.749910354614258
1976-11-01T00:00:00Z,-30.37,152.1,21.525041580200195
1976-12-01T00:00:00Z,-30.37,152.1,25.70522117614746
1977-01-01T00:00:00Z,-30.37,152.1,24.058368682861328
1977-02-01T00:00:00Z,-30.37,152.1,23.518295288085938
1977-03-01T00:00:00Z,-30.37,152.1,21.042726516723633
1977-04-01T00:00:00Z,-30.37,152.1,18.94883155822754
1977-05-01T00:00:00Z,-30.37,152.1,14.192631721496582
1977-06-01T00:00:00Z,-30.37,152.1,11.473875045776367
1977-07-01T00:00:00Z,-30.37,152.1,11.41248893737793
1977-08-01T00:00:00Z,-30.37,152.1,15.313739776611328
1977-09-01T00:00:00Z,-30.37,152.1,15.44272518157959
1977-10-01T00:00:00Z,-30.37,152.1,21.29069709777832
1977-11-01T00:00:00Z,-30.37,152.1,23.08116340637207
1977-12-01T00:00:00Z,-30.37,152.1,25.18263816833496
1978-01-01T00:00:00Z,-30.37,152.1,23.951200485229492
1978-02-01T00:00:00Z,-30.37,152.1,24.77416229248047
1978-03-01T00:00:00Z,-30.37,152.1,21.68326759338379
1978-04-01T00:00:00Z,-30.37,152.1,19.025148391723633
1978-05-01T00:00:00Z,-30.37,152.1,15.337784767150879
1978-06-01T00:00:00Z,-30.37,152.1,10.749144554138184
1978-07-01T00:00:00Z,-30.37,152.1,11.001309394836426
1978-08-01T00:00:00Z,-30.37,152.1,12.04957103729248
1978-09-01T00:00:00Z,-30.37,152.1,15.064533233642578
1978-10-01T00:00:00Z,-30.37,152.1,17.91666030883789
1978-11-01T00:00:00Z,-30.37,152.1,20.348909378051758
1978-12-01T00:00:00Z,-30.37,152.1,21.994104385375977
1979-01-01T00:00:00Z,-30.37,152.1,25.102691650390625
1979-02-01T00:00:00Z,-30.37,152.1,23.54470443725586
1979-03-01T00:00:00Z,-30.37,152.1,21.535221099853516
1979-04-01T00:00:00Z,-30.37,152.1,19.619792938232422
1979-05-01T00:00:00Z,-30.37,152.1,13.858051300048828
1979-06-01T00:00:00Z,-30.37,152.1,13.948118209838867
1979-07-01T00:00:00Z,-30.37,152.1,12.038310050964355
1979-08-01T00:00:00Z,-30.37,152.1,13.295888900756836
1979-09-01T00:00:00Z,-30.37,152.1,16.295135498046875
1979-10-01T00:00:00Z,-30.37,152.1,18.923545837402344
1979-11-01T00:00:00Z,-30.37,152.1,22.223329544067383
1979-12-01T00:00:00Z,-30.37,152.1,27.368925094604492
1980-01-01T00:00:00Z,-30.37,152.1,24.945106506347656
1980-02-01T00:00:00Z,-30.37,152.1,24.001054763793945
1980-03-01T00:00:00Z,-30.37,152.1,24.89250373840332
1980-04-01T00:00:00Z,-30.37,152.1,21.026226043701172
1980-05-01T00:00:00Z,-30.37,152.1,15.466906547546387
1980-06-01T00:00:00Z,-30.37,152.1,12.837039947509766
1980-07-01T00:00:00Z,-30.37,152.1,11.016935348510742
1980-08-01T00:00:00Z,-30.37,152.1,14.685775756835938
1980-09-01T00:00:00Z,-30.37,152.1,19.858074188232422
1980-10-01T00:00:00Z,-30.37,152.1,21.570711135864258
1980-11-01T00:00:00Z,-30.37,152.1,24.162120819091797
1980-12-01T00:00:00Z,-30.37,152.1,23.58015251159668
1981-01-01T00:00:00Z,-30.37,152.1,26.331518173217773
1981-02-01T00:00:00Z,-30.37,152.1,24.96049690246582
1981-03-01T00:00:00Z,-30.37,152.1,23.203733444213867
1981-04-01T00:00:00Z,-30.37,152.1,20.37356185913086
1981-05-01T00:00:00Z,-30.37,152.1,14.536362648010254
1981-06-01T00:00:00Z,-30.37,152.1,11.202836990356445
1981-07-01T00:00:00Z,-30.37,152.1,11.345755577087402
1981-08-01T00:00:00Z,-30.37,152.1,11.91935920715332
1981-09-01T00:00:00Z,-30.37,152.1,18.39407730102539
1981-10-01T00:00:00Z,-30.37,152.1,18.597566604614258
1981-11-01T00:00:00Z,-30.37,152.1,19.07069206237793
1981-12-01T00:00:00Z,-30.37,152.1,24.2473201751709
1982-01-01T00:00:00Z,-30.37,152.1,24.618432998657227
1982-02-01T00:00:00Z,-30.37,152.1,23.958681106567383
1982-03-01T00:00:00Z,-30.37,152.1,20.81027603149414
1982-04-01T00:00:00Z,-30.37,152.1,18.391130447387695
1982-05-01T00:00:00Z,-30.37,152.1,16.29674530029297
1982-06-01T00:00:00Z,-30.37,152.1,11.770559310913086
1982-07-01T00:00:00Z,-30.37,152.1,11.235161781311035
1982-08-01T00:00:00Z,-30.37,152.1,15.652348518371582
1982-09-01T00:00:00Z,-30.37,152.1,16.27806282043457
1982-10-01T00:00:00Z,-30.37,152.1,19.39894676208496
1982-11-01T00:00:00Z,-30.37,152.1,24.305084228515625
1982-12-01T00:00:00Z,-30.37,152.1,24.59917640686035
1983-01-01T00:00:00Z,-30.37,152.1,24.305809020996094
1983-02-01T00:00:00Z,-30.37,152.1,25.429651260375977
1983-03-01T00:00:00Z,-30.37,152.1,22.7425594329834
1983-04-01T00:00:00Z,-30.37,152.1,16.997726440429688
1983-05-01T00:00:00Z,-30.37,152.1,14.801874160766602
1983-06-01T00:00:00Z,-30.37,152.1,11.819574356079102
1983-07-01T00:00:00Z,-30.37,152.1,10.974388122558594
1983-08-01T00:00:00Z,-30.37,152.1,12.426254272460938
1983-09-01T00:00:00Z,-30.37,152.1,17.449241638183594
1983-10-01T00:00:00Z,-30.37,152.1,18.70408821105957
1983-11-01T00:00:00Z,-30.37,152.1,19.41655921936035
1983-12-01T00:00:00Z,-30.37,152.1,21.29086685180664
1984-01-01T00:00:00Z,-30.37,152.1,21.3521785736084
1984-02-01T00:00:00Z,-30.37,152.1,22.30013084411621
1984-03-01T00:00:00Z,-30.37,152.1,20.680221557617188
1984-04-01T00:00:00Z,-30.37,152.1,17.742460250854492
1984-05-01T00:00:00Z,-30.37,152.1,15.140700340270996
1984-06-01T00:00:00Z,-30.37,152.1,13.217130661010742
1984-07-01T00:00:00Z,-30.37,152.1,9.80371379852295
1984-08-01T00:00:00Z,-30.37,152.1,12.614795684814453
1984-09-01T00:00:00Z,-30.37,152.1,14.36661148071289
1984-10-01T00:00:00Z,-30.37,152.1,18.64704704284668
1984-11-01T00:00:00Z,-30.37,152.1,21.52073860168457
1984-12-01T00:00:00Z,-30.37,152.1,23.028446197509766
1985-01-01T00:00:00Z,-30.37,152.1,26.387529373168945
1985-02-01T00:00:00Z,-30.37,152.1,23.34622573852539
1985-03-01T00:00:00Z,-30.37,152.1,21.222713470458984
1985-04-01T00:00:00Z,-30.37,152.1,17.809158325195312
1985-05-01T00:00:00Z,-30.37,152.1,14.4614839553833
1985-06-01T00:00:00Z,-30.37,152.1,11.571440696716309
1985-07-01T00:00:00Z,-30.37,152.1,11.914735794067383
1985-08-01T00:00:00Z,-30.37,152.1,12.407861709594727
1985-09-01T00:00:00Z,-30.37,152.1,15.023728370666504
1985-10-01T00:00:00Z,-30.37,152.1,18.092443466186523
1985-11-01T00:00:00Z,-30.37,152.1,20.457590103149414
1985-12-01T00:00:00Z,-30.37,152.1,22.831771850585938
1986-01-01T00:00:00Z,-30.37,152.1,23.376712799072266
1986-02-01T00:00:00Z,-30.37,152.1,24.94793128967285
1986-03-01T00:00:00Z,-30.37,152.1,23.262889862060547
1986-04-01T00:00:00Z,-30.37,152.1,21.163557052612305
1986-05-01T00:00:00Z,-30.37,152.1,16.08119010925293
1986-06-01T00:00:00Z,-30.37,152.1,12.759377479553223
1986-07-01T00:00:00Z,-30.37,152.1,11.907754898071289
1986-08-01T00:00:00Z,-30.37,152.1,12.280939102172852
1986-09-01T00:00:00Z,-30.37,152.1,16.8209171295166
1986-10-01T00:00:00Z,-30.37,152.1,18.658397674560547
1986-11-01T00:00:00Z,-30.37,152.1,19.904491424560547
1986-12-01T00:00:00Z,-30.37,152.1,23.098764419555664
1987-01-01T00:00:00Z,-30.37,152.1,25.65966033935547
1987-02-01T00:00:00Z,-30.37,152.1,23.947723388671875
1987-03-01T00:00:00Z,-30.37,152.1,20.504140853881836
1987-04-01T00:00:00Z,-30.37,152.1,18.618295669555664
1987-05-01T00:00:00Z,-30.37,152.1,14.542491912841797
1987-06-01T00:00:00Z,-30.37,152.1,12.96867561340332
1987-07-01T00:00:00Z,-30.37,152.1,11.457375526428223
1987-08-01T00:00:00Z,-30.37,152.1,13.253114700317383
1987-09-01T00:00:00Z,-30.37,152.1,16.83873176574707
1987-10-01T00:00:00Z,-30.37,152.1,18.147794723510742
1987-11-01T00:00:00Z,-30.37,152.1,20.607912063598633
1987-12-01T00:00:00Z,-30.37,152.1,23.251869201660156
1988-01-01T00:00:00Z,-30.37,152.1,24.066286087036133
1988-02-01T00:00:00Z,-30.37,152.1,21.66042137145996
1988-03-01T00:00:00Z,-30.37,152.1,19.888193130493164
1988-04-01T00:00:00Z,-30.37,152.1,17.03426170349121
1988-05-01T00:00:00Z,-30.37,152.1,14.999395370483398
1988-06-01T00:00:00Z,-30.37,152.1,12.736457824707031
1988-07-01T00:00:00Z,-30.37,152.1,12.497602462768555
1988-08-01T00:00:00Z,-30.37,152.1,13.28725814819336
1988-09-01T00:00:00Z,-30.37,152.1,16.63279151916504
1988-10-01T00:00:00Z,-30.37,152.1,22.777114868164062
1988-11-01T00:00:00Z,-30.37,152.1,21.790504455566406
1988-12-01T00:00:00Z,-30.37,152.1,23.365158081054688
1989-01-01T00:00:00Z,-30.37,152.1,21.911392211914062
1989-02-01T00:00:00Z,-30.37,152.1,21.929248809814453
1989-03-01T00:00:00Z,-30.37,152.1,21.441734313964844
1989-04-01T00:00:00Z,-30.37,152.1,17.74712371826172
1989-05-01T00:00:00Z,-30.37,152.1,15.567268371582031
1989-06-01T00:00:00Z,-30.37,152.1,11.773392677307129
1989-07-01T00:00:00Z,-30.37,152.1,10.050073623657227
1989-08-01T00:00:00Z,-30.37,152.1,11.330035209655762
1989-09-01T00:00:00Z,-30.37,152.1,16.489416122436523
1989-10-01T00:00:00Z,-30.37,152.1,20.552446365356445
1989-11-01T00:00:00Z,-30.37,152.1,19.955923080444336
1989-12-01T00:00:00Z,-30.37,152.1,22.38301658630371
1990-01-01T00:00:00Z,-30.37,152.1,24.38615608215332
1990-02-01T00:00:00Z,-30.37,152.1,23.071138381958008
1990-03-01T00:00:00Z,-30.37,152.1,20.6949405670166
1990-04-01T00:00:00Z,-30.37,152.1,16.98320198059082
1990-05-01T00:00:00Z,-30.37,152.1,15.747091293334961
1990-06-01T00:00:00Z,-30.37,152.1,11.127657890319824
1990-07-01T00:00:00Z,-30.37,152.1,11.486098289489746
1990-08-01T00:00:00Z,-30.37,152.1,10.395160675048828
1990-09-01T00:00:00Z,-30.37,152.1,14.944938659667969
1990-10-01T00:00:00Z,-30.37,152.1,18.864055633544922
1990-11-01T00:00:00Z,-30.37,152.1,23.29884147644043
1990-12-01T00:00:00Z,-30.37,152.1,27.258838653564453
1991-01-01T00:00:00Z,-30.37,152.1,24.986461639404297
1991-02-01T00:00:00Z,-30.37,152.1,25.050769805908203
1991-03-01T00:00:00Z,-30.37,152.1,22.70866584777832
1991-04-01T00:00:00Z,-30.37,152.1,19.392032623291016
1991-05-01T00:00:00Z,-30.37,152.1,15.887816429138184
1991-06-01T00:00:00Z,-30.37,152.1,14.346536636352539
1991-07-01T00:00:00Z,-30.37,152.1,10.805914878845215
1991-08-01T00:00:00Z,-30.37,152.1,13.591601371765137
1991-09-01T00:00:00Z,-30.37,152.1,17.130352020263672
1991-10-01T00:00:00Z,-30.37,152.1,21.290016174316406
1991-11-01T00:00:00Z,-30.37,152.1,22.23726463317871
1991-12-01T00:00:00Z,-30.37,152.1,22.49505615234375
1992-01-01T00:00:00Z,-30.37,152.1,24.4586181640625
1992-02-01T00:00:00Z,-30.37,152.1,22.663400650024414
1992-03-01T00:00:00Z,-30.37,152.1,21.382734298706055
1992-04-01T00:00:00Z,-30.37,152.1,17.723068237304688
1992-05-01T00:00:00Z,-30.37,152.1,14.697641372680664
1992-06-01T00:00:00Z,-30.37,152.1,11.899924278259277
1992-07-01T00:00:00Z,-30.37,152.1,12.657746315002441
1992-08-01T00:00:00Z,-30.37,152.1,13.218792915344238
1992-09-01T00:00:00Z,-30.37,152.1,15.227166175842285
1992-10-01T00:00:00Z,-30.37,152.1,18.22512435913086
1992-11-01T00:00:00Z,-30.37,152.1,19.9137020111084
1992-12-01T00:00:00Z,-30.37,152.1,21.778945922851562
1993-01-01T00:00:00Z,-30.37,152.1,25.66311264038086
1993-02-01T00:00:00Z,-30.37,152.1,24.031463623046875
1993-03-01T00:00:00Z,-30.37,152.1,20.778900146484375
1993-04-01T00:00:00Z,-30.37,152.1,19.89335060119629
1993-05-01T00:00:00Z,-30.37,152.1,16.716793060302734
1993-06-01T00:00:00Z,-30.37,152.1,12.648476600646973
1993-07-01T00:00:00Z,-30.37,152.1,14.410953521728516
1993-08-01T00:00:00Z,-30.37,152.1,14.608154296875
1993-09-01T00:00:00Z,-30.37,152.1,15.874882698059082
1993-10-01T00:00:00Z,-30.37,152.1,18.719219207763672
1993-11-01T00:00:00Z,-30.37,152.1,21.318002700805664
1993-12-01T00:00:00Z,-30.37,152.1,22.26154136657715
1994-01-01T00:00:00Z,-30.37,152.1,26.100826263427734
1994-02-01T00:00:00Z,-30.37,152.1,22.87332534790039
1994-03-01T00:00:00Z,-30.37,152.1,18.754758834838867
1994-04-01T00:00:00Z,-30.37,152.1,18.635013580322266
1994-05-01T00:00:00Z,-30.37,152.1,15.885285377502441
1994-06-01T00:00:00Z,-30.37,152.1,12.982823371887207
1994-07-01T00:00:00Z,-30.37,152.1,12.94491195678711
1994-08-01T00:00:00Z,-30.37,152.1,13.858429908752441
1994-09-01T00:00:00Z,-30.37,152.1,17.08372688293457
1994-10-01T00:00:00Z,-30.37,152.1,20.438310623168945
1994-11-01T00:00:00Z,-30.37,152.1,22.958023071289062
1994-12-01T00:00:00Z,-30.37,152.1,24.14565086364746
1995-01-01T00:00:00Z,-30.37,152.1,23.017719268798828
1995-02-01T00:00:00Z,-30.37,152.1,21.829681396484375
1995-03-01T00:00:00Z,-30.37,152.1,22.189699172973633
1995-04-01T00:00:00Z,-30.37,152.1,18.2028865814209
1995-05-01T00:00:00Z,-30.37,152.1,15.108465194702148
1995-06-01T00:00:00Z,-30.37,152.1,11.780802726745605
1995-07-01T00:00:00Z,-30.37,152.1,11.491425514221191
1995-08-01T00:00:00Z,-30.37,152.1,16.168657302856445
1995-09-01T00:00:00Z,-30.37,152.1,16.629798889160156
1995-10-01T00:00:00Z,-30.37,152.1,19.497573852539062
1995-11-01T00:00:00Z,-30.37,152.1,22.18867301940918
1995-12-01T00:00:00Z,-30.37,152.1,22.047319412231445
1996-01-01T00:00:00Z,-30.37,152.1,23.43136978149414
1996-02-01T00:00:00Z,-30.37,152.1,21.644908905029297
1996-03-01T00:00:00Z,-30.37,152.1,21.00681495666504
1996-04-01T00:00:00Z,-30.37,152.1,18.98919677734375
1996-05-01T00:00:00Z,-30.37,152.1,15.702407836914062
1996-06-01T00:00:00Z,-30.37,152.1,13.317771911621094
1996-07-01T00:00:00Z,-30.37,152.1,11.446215629577637
1996-08-01T00:00:00Z,-30.37,152.1,13.922049522399902
1996-09-01T00:00:00Z,-30.37,152.1,16.929737091064453
1996-10-01T00:00:00Z,-30.37,152.1,19.188922882080078
1996-11-01T00:00:00Z,-30.37,152.1,20.90764617919922
1996-12-01T00:00:00Z,-30.37,152.1,22.575668334960938
1997-01-01T00:00:00Z,-30.37,152.1,21.779071807861328
1997-02-01T00:00:00Z,-30.37,152.1,24.411087036132812
1997-03-01T00:00:00Z,-30.37,152.1,21.767179489135742
1997-04-01T00:00:00Z,-30.37,152.1,19.830350875854492
1997-05-01T00:00:00Z,-30.37,152.1,14.834930419921875
1997-06-01T00:00:00Z,-30.37,152.1,12.864972114562988
1997-07-01T00:00:00Z,-30.37,152.1,11.779709815979004
1997-08-01T00:00:00Z,-30.37,152.1,13.730864524841309
1997-09-01T00:00:00Z,-30.37,152.1,16.15928840637207
1997-10-01T00:00:00Z,-30.37,152.1,19.631677627563477
1997-11-01T00:00:00Z,-30.37,152.1,22.910438537597656
1997-12-01T00:00:00Z,-30.37,152.1,24.859861373901367
1998-01-01T00:00:00Z,-30.37,152.1,24.933149337768555
1998-02-01T00:00:00Z,-30.37,152.1,25.46220588684082
1998-03-01T00:00:00Z,-30.37,152.1,25.362932205200195
1998-04-01T00:00:00Z,-30.37,152.1,19.348194122314453
1998-05-01T00:00:00Z,-30.37,152.1,15.543341636657715
1998-06-01T00:00:00Z,-30.37,152.1,12.436290740966797
1998-07-01T00:00:00Z,-30.37,152.1,11.751165390014648
1998-08-01T00:00:00Z,-30.37,152.1,13.57647705078125
1998-09-01T00:00:00Z,-30.37,152.1,16.920129776000977
1998-10-01T00:00:00Z,-30.37,152.1,18.72030258178711
1998-11-01T00:00:00Z,-30.37,152.1,19.21232795715332
1998-12-01T00:00:00Z,-30.37,152.1,24.0616512298584
1999-01-01T00:00:00Z,-30.37,152.1,24.36188507080078
1999-02-01T00:00:00Z,-30.37,152.1,21.40850067138672
1999-03-01T00:00:00Z,-30.37,152.1,22.021989822387695
1999-04-01T00:00:00Z,-30.37,152.1,16.62191390991211
1999-05-01T00:00:00Z,-30.37,152.1,15.356522560119629
1999-06-01T00:00:00Z,-30.37,152.1,11.80832576751709
1999-07-01T00:00:00Z,-30.37,152.1,11.97762680053711
1999-08-01T00:00:00Z,-30.37,152.1,13.355499267578125
1999-09-01T00:00:00Z,-30.37,152.1,16.613431930541992
1999-10-01T00:00:00Z,-30.37,152.1,19.533100128173828
1999-11-01T00:00:00Z,-30.37,152.1,17.647130966186523
1999-12-01T00:00:00Z,-30.37,152.1,20.32791519165039
2000-01-01T00:00:00Z,-30.37,152.1,22.10269546508789
2000-02-01T00:00:00Z,-30.37,152.1,22.75888442993164
2000-03-01T00:00:00Z,-30.37,152.1,22.395511627197266
2000-04-01T00:00:00Z,-30.37,152.1,18.060184478759766
2000-05-01T00:00:00Z,-30.37,152.1,14.561605453491211
2000-06-01T00:00:00Z,-30.37,152.1,11.918146133422852
2000-07-01T00:00:00Z,-30.37,152.1,12.164739608764648
2000-08-01T00:00:00Z,-30.37,152.1,12.750273704528809
2000-09-01T00:00:00Z,-30.37,152.1,19.39493179321289
2000-10-01T00:00:00Z,-30.37,152.1,19.235301971435547
2000-11-01T00:00:00Z,-30.37,152.1,19.996749877929688
2000-12-01T00:00:00Z,-30.37,152.1,23.40740966796875
2001-01-01T00:00:00Z,-30.37,152.1,25.629596710205078
2001-02-01T00:00:00Z,-30.37,152.1,23.772626876831055
2001-03-01T00:00:00Z,-30.37,152.1,20.536149978637695
2001-04-01T00:00:00Z,-30.37,152.1,18.344579696655273
2001-05-01T00:00:00Z,-30.37,152.1,14.085790634155273
2001-06-01T00:00:00Z,-30.37,152.1,14.209413528442383
2001-07-01T00:00:00Z,-30.37,152.1,12.301359176635742
2001-08-01T00:00:00Z,-30.37,152.1,12.879773139953613
2001-09-01T00:00:00Z,-30.37,152.1,16.77219009399414
2001-10-01T00:00:00Z,-30.37,152.1,18.998382568359375
2001-11-01T00:00:00Z,-30.37,152.1,19.77770233154297
2001-12-01T00:00:00Z,-30.37,152.1,24.221206665039062
2002-01-01T00:00:00Z,-30.37,152.1,24.85163688659668
2002-02-01T00:00:00Z,-30.37,152.1,23.220325469970703
2002-03-01T00:00:00Z,-30.37,152.1,22.4052677154541
2002-04-01T00:00:00Z,-30.37,152.1,19.580656051635742
2002-05-01T00:00:00Z,-30.37,152.1,15.125533103942871
2002-06-01T00:00:00Z,-30.37,152.1,13.585671424865723
2002-07-01T00:00:00Z,-30.37,152.1,13.343069076538086
2002-08-01T00:00:00Z,-30.37,152.1,14.605278968811035
2002-09-01T00:00:00Z,-30.37,152.1,18.67941665649414
2002-10-01T00:00:00Z,-30.37,152.1,21.87787437438965
2002-11-01T00:00:00Z,-30.37,152.1,24.944669723510742
2002-12-01T00:00:00Z,-30.37,152.1,23.734973907470703
2003-01-01T00:00:00Z,-30.37,152.1,26.105165481567383
2003-02-01T00:00:00Z,-30.37,152.1,22.462892532348633
2003-03-01T00:00:00Z,-30.37,152.1,20.17390251159668
2003-04-01T00:00:00Z,-30.37,152.1,16.833805084228516
2003-05-01T00:00:00Z,-30.37,152.1,14.885595321655273
2003-06-01T00:00:00Z,-30.37,152.1,13.3189697265625
2003-07-01T00:00:00Z,-30.37,152.1,11.762713432312012
2003-08-01T00:00:00Z,-30.37,152.1,13.52933406829834
2003-09-01T00:00:00Z,-30.37,152.1,18.651134490966797
2003-10-01T00:00:00Z,-30.37,152.1,17.44249725341797
2003-11-01T00:00:00Z,-30.37,152.1,20.850374221801758
2003-12-01T00:00:00Z,-30.37,152.1,24.07394027709961
2004-01-01T00:00:00Z,-30.37,152.1,25.293970108032227
2004-02-01T00:00:00Z,-30.37,152.1,25.775197982788086
2004-03-01T00:00:00Z,-30.37,152.1,21.294078826904297
2004-04-01T00:00:00Z,-30.37,152.1,20.431562423706055
2004-05-01T00:00:00Z,-30.37,152.1,16.00838279724121
2004-06-01T00:00:00Z,-30.37,152.1,13.247239112854004
2004-07-01T00:00:00Z,-30.37,152.1,12.553667068481445
2004-08-01T00:00:00Z,-30.37,152.1,13.66666316986084
2004-09-01T00:00:00Z,-30.37,152.1,17.074045181274414
2004-10-01T00:00:00Z,-30.37,152.1,20.072996139526367
2004-11-01T00:00:00Z,-30.37,152.1,21.80577850341797
2004-12-01T00:00:00Z,-30.37,152.1,22.52606773376465
2005-01-01T00:00:00Z,-30.37,152.1,24.255538940429688
2005-02-01T00:00:00Z,-30.37,152.1,24.499835968017578
2005-03-01T00:00:00Z,-30.37,152.1,21.663501739501953
2005-04-01T00:00:00Z,-30.37,152.1,20.802785873413086
2005-05-01T00:00:00Z,-30.37,152.1,15.567108154296875
2005-06-01T00:00:00Z,-30.37,152.1,13.401105880737305
2005-07-01T00:00:00Z,-30.37,152.1,12.980063438415527
2005-08-01T00:00:00Z,-30.37,152.1,13.899116516113281
2005-09-01T00:00:00Z,-30.37,152.1,16.847888946533203
2005-10-01T00:00:00Z,-30.37,152.1,20.95903778076172
2005-11-01T00:00:00Z,-30.37,152.1,21.30306053161621
2005-12-01T00:00:00Z,-30.37,152.1,25.746320724487305
2006-01-01T00:00:00Z,-30.37,152.1,24.69759178161621
2006-02-01T00:00:00Z,-30.37,152.1,25.02933692932129
2006-03-01T00:00:00Z,-30.37,152.1,21.335756301879883
2006-04-01T00:00:00Z,-30.37,152.1,19.331689834594727
2006-05-01T00:00:00Z,-30.37,152.1,14.98654842376709
2006-06-01T00:00:00Z,-30.37,152.1,12.329743385314941
2006-07-01T00:00:00Z,-30.37,152.1,12.570693016052246
2006-08-01T00:00:00Z,-30.37,152.1,14.580738067626953
2006-09-01T00:00:00Z,-30.37,152.1,17.68084716796875
2006-10-01T00:00:00Z,-30.37,152.1,20.609317779541016
2006-11-01T00:00:00Z,-30.37,152.1,22.43012237548828
2006-12-01T00:00:00Z,-30.37,152.1,22.232637405395508
2007-01-01T00:00:00Z,-30.37,152.1,25.220172882080078
2007-02-01T00:00:00Z,-30.37,152.1,23.638734817504883
2007-03-01T00:00:00Z,-30.37,152.1,22.139419555664062
2007-04-01T00:00:00Z,-30.37,152.1,18.737268447875977
2007-05-01T00:00:00Z,-30.37,152.1,17.16877555847168
2007-06-01T00:00:00Z,-30.37,152.1,10.856833457946777
2007-07-01T00:00:00Z,-30.37,152.1,11.038141250610352
2007-08-01T00:00:00Z,-30.37,152.1,14.546045303344727
2007-09-01T00:00:00Z,-30.37,152.1,16.982255935668945
2007-10-01T00:00:00Z,-30.37,152.1,22.062255859375
2007-11-01T00:00:00Z,-30.37,152.1,20.114023208618164
2007-12-01T00:00:00Z,-30.37,152.1,21.7105655670166
2008-01-01T00:00:00Z,-30.37,152.1,22.282255172729492
2008-02-01T00:00:00Z,-30.37,152.1,21.12131118774414
2008-03-01T00:00:00Z,-30.37,152.1,21.059720993041992
2008-04-01T00:00:00Z,-30.37,152.1,16.72633934020996
2008-05-01T00:00:00Z,-30.37,152.1,15.677490234375
2008-06-01T00:00:00Z,-30.37,152.1,14.116531372070312
2008-07-01T00:00:00Z,-30.37,152.1,11.503973007202148
2008-08-01T00:00:00Z,-30.37,152.1,12.134350776672363
2008-09-01T00:00:00Z,-30.37,152.1,17.359033584594727
2008-10-01T00:00:00Z,-30.37,152.1,20.456701278686523
2008-11-01T00:00:00Z,-30.37,152.1,20.292797088623047
2008-12-01T00:00:00Z,-30.37,152.1,22.8775691986084
2009-01-01T00:00:00Z,-30.37,152.1,24.702672958374023
2009-02-01T00:00:00Z,-30.37,152.1,23.833393096923828
2009-03-01T00:00:00Z,-30.37,152.1,21.802946090698242
2009-04-01T00:00:00Z,-30.37,152.1,17.840744018554688
2009-05-01T00:00:00Z,-30.37,152.1,14.366243362426758
2009-06-01T00:00:00Z,-30.37,152.1,12.560526847839355
2009-07-01T00:00:00Z,-30.37,152.1,11.553956031799316
2009-08-01T00:00:00Z,-30.37,152.1,16.93552017211914
2009-09-01T00:00:00Z,-30.37,152.1,18.240253448486328
2009-10-01T00:00:00Z,-30.37,152.1,19.787551879882812
2009-11-01T00:00:00Z,-30.37,152.1,25.400367736816406
2009-12-01T00:00:00Z,-30.37,152.1,25.05291175842285
2010-01-01T00:00:00Z,-30.37,152.1,25.78842544555664
2010-02-01T00:00:00Z,-30.37,152.1,23.405670166015625
2010-03-01T00:00:00Z,-30.37,152.1,21.268028259277344
2010-04-01T00:00:00Z,-30.37,152.1,19.639511108398438
2010-05-01T00:00:00Z,-30.37,152.1,14.972575187683105
2010-06-01T00:00:00Z,-30.37,152.1,12.064201354980469
2010-07-01T00:00:00Z,-30.37,152.1,11.90596866607666
2010-08-01T00:00:00Z,-30.37,152.1,11.934792518615723
2010-09-01T00:00:00Z,-30.37,152.1,16.252878189086914
2010-10-01T00:00:00Z,-30.37,152.1,17.190237045288086
2010-11-01T00:00:00Z,-30.37,152.1,19.347261428833008
2010-12-01T00:00:00Z,-30.37,152.1,21.113941192626953
2011-01-01T00:00:00Z,-30.37,152.1,23.996074676513672
2011-02-01T00:00:00Z,-30.37,152.1,24.266855239868164
2011-03-01T00:00:00Z,-30.37,152.1,20.9267520904541
2011-04-01T00:00:00Z,-30.37,152.1,17.406993865966797
2011-05-01T00:00:00Z,-30.37,152.1,13.759410858154297
2011-06-01T00:00:00Z,-30.37,152.1,11.527912139892578
2011-07-01T00:00:00Z,-30.37,152.1,11.278091430664062
2011-08-01T00:00:00Z,-30.37,152.1,13.497228622436523
2011-09-01T00:00:00Z,-30.37,152.1,16.507122039794922
2011-10-01T00:00:00Z,-30.37,152.1,17.577083587646484
2011-11-01T00:00:00Z,-30.37,152.1,22.710018157958984
2011-12-01T00:00:00Z,-30.37,152.1,19.248584747314453
2012-01-01T00:00:00Z,-30.37,152.1,21.90540885925293
2012-02-01T00:00:00Z,-30.37,152.1,22.377798080444336
2012-03-01T00:00:00Z,-30.37,152.1,20.64373779296875
2012-04-01T00:00:00Z,-30.37,152.1,18.45294952392578
2012-05-01T00:00:00Z,-30.37,152.1,15.169610977172852
2012-06-01T00:00:00Z,-30.37,152.1,12.205251693725586
2012-07-01T00:00:00Z,-30.37,152.1,11.612747192382812
2012-08-01T00:00:00Z,-30.37,152.1,13.837690353393555
2012-09-01T00:00:00Z,-30.37,152.1,17.942739486694336
2012-10-01T00:00:00Z,-30.37,152.1,20.479108810424805
2012-11-01T00:00:00Z,-30.37,152.1,22.98187255859375
2012-12-01T00:00:00Z,-30.37,152.1,24.128984451293945
