"","DateTime","Tmin","Tmax","Tmean"
"1",2007-01-01,16.91,23.84,20.1516666666667
"2",2007-01-02,17.55,26.22,21.3160416666667
"3",2007-01-03,16.9,25.58,20.9302083333333
"4",2007-01-04,15.63,27.41,21.820625
"5",2007-01-05,12.49,31.6,22.2689583333333
"6",2007-01-06,14.15,35.97,24.76375
"7",2007-01-07,18.68,29.1,23.4627083333333
"8",2007-01-08,19.06,26.36,21.8854166666667
"9",2007-01-09,17.37,27.84,21.48625
"10",2007-01-10,17.15,33.56,24.000625
"11",2007-01-11,13.68,40.63,26.898125
"12",2007-01-12,17.11,41.55,28.4804166666667
"13",2007-01-13,19.77,28.3,23.5660416666667
"14",2007-01-14,15.45,29.16,22.2458333333333
"15",2007-01-15,13.66,30.93,22.360625
"16",2007-01-16,17.56,32.47,24.2672916666667
"17",2007-01-17,16.99,37.47,26.3679166666667
"18",2007-01-18,19.1,34.79,25.944375
"19",2007-01-19,20.11,35.2,26.2633333333333
"20",2007-01-20,17.45,40.1,27.8841666666667
"21",2007-01-21,16.88,41.67,31.1385416666667
"22",2007-01-22,18.62,32.56,26.0389583333333
"23",2007-01-23,15.93,34.42,24.3793617021277
"24",2007-01-24,20.03,26.84,23.2141666666667
"25",2007-01-25,19.41,26.02,21.9408333333333
"26",2007-01-26,19.42,33.92,25.0910416666667
"27",2007-01-27,18.62,34.42,23.644375
"28",2007-01-28,13.36,32.8,23.0835416666667
"29",2007-01-29,12.8,30.13,22.5689583333333
"30",2007-01-30,18.52,37.39,27.1835416666667
"31",2007-01-31,17.09,28.78,22.0258333333333
"32",2007-02-01,17.56,22.68,19.3952083333333
"33",2007-02-02,18.51,28.73,22.735625
"34",2007-02-03,17.83,34.1,24.3770833333333
"35",2007-02-04,18.41,29.88,24.036875
"36",2007-02-05,19.58,33.49,25.0764583333333
"37",2007-02-06,18.65,31.31,24.2464583333333
"38",2007-02-07,17.67,29.7,22.801875
"39",2007-02-08,17.68,28.02,23.1016666666667
"40",2007-02-09,18.61,26.12,22.8514583333333
"41",2007-02-10,17.5,30.51,22.7870833333333
"42",2007-02-11,19.3,25.63,21.0579166666667
"43",2007-02-12,18.57,21.77,19.6747916666667
"44",2007-02-13,18.34,25.5,21.2325
"45",2007-02-14,16.45,28.53,22.4754166666667
"46",2007-02-15,15.17,30.22,22.4510416666667
"47",2007-02-16,18.56,28.91,23.751875
"48",2007-02-17,17.41,31.83,24.14
"49",2007-02-18,17.05,31.02,23.2489583333333
"50",2007-02-19,16.98,32.6,23.27375
"51",2007-02-20,19.73,31.57,24.521875
"52",2007-02-21,19.65,30.93,24.6125
"53",2007-02-22,17.25,31.28,22.535625
"54",2007-02-23,17.32,32.26,24.1227083333333
"55",2007-02-24,16.92,34.01,23.1783333333333
"56",2007-02-25,19.53,23.4,21.3316666666667
"57",2007-02-26,17.98,25.57,20.754375
"58",2007-02-27,18.58,27.71,22.3725
"59",2007-02-28,18.34,27.34,21.5083333333333
"60",2007-03-01,18.57,26.3,21.0470833333333
"61",2007-03-02,17.77,29.99,23.3945833333333
"62",2007-03-03,18.01,37.9,26.7395833333333
"63",2007-03-04,18.11,34.84,26.1420833333333
"64",2007-03-05,19.12,25.68,21.6558333333333
"65",2007-03-06,17.89,24.14,20.2720833333333
"66",2007-03-07,16.67,25.99,21.118125
"67",2007-03-08,17.78,32.11,22.98
"68",2007-03-09,15.92,24.41,20.4395833333333
"69",2007-03-10,13.18,27.59,19.77375
"70",2007-03-11,12.76,34.03,22.2610416666667
"71",2007-03-12,18.07,23.44,20.9385416666667
"72",2007-03-13,15.27,22.95,19.0272916666667
"73",2007-03-14,11.19,26.69,18.966875
"74",2007-03-15,13.15,30.74,22.1064583333333
"75",2007-03-16,15.09,33.02,23.6014583333333
"76",2007-03-17,18.2,29.04,22.62625
"77",2007-03-18,17.78,21.91,19.605625
"78",2007-03-19,18.06,24.89,21.16125
"79",2007-03-20,19.17,31.34,22.825
"80",2007-03-21,19.78,29.16,23.3260416666667
"81",2007-03-22,20.67,30.98,24.79125
"82",2007-03-23,20.48,30.6,24.1235416666667
"83",2007-03-24,15.74,34.88,24.669375
"84",2007-03-25,15.17,20.09,16.9441666666667
"85",2007-03-26,15.06,21.78,18.156875
"86",2007-03-27,12.43,24.13,17.5827083333333
"87",2007-03-28,10.33,27.1,18.1591666666667
"88",2007-03-29,12.93,25.38,19.17625
"89",2007-03-30,11.25,24.82,18.2604166666667
"90",2007-03-31,6.132,24.12,15.4436666666667
"91",2007-04-01,9.08,25.6,17.179375
"92",2007-04-02,9.45,27.52,18.4685416666667
"93",2007-04-03,12.06,25.45,19.019347826087
"94",2007-04-04,14.3,26.97,19.5891666666667
"95",2007-04-05,11.35,27.7,18.3691666666667
"96",2007-04-06,13.15,20.9,17.3097916666667
"97",2007-04-07,12.51,21.32,16.489375
"98",2007-04-08,14.15,22.73,17.5222916666667
"99",2007-04-09,12.45,22.79,17.6472916666667
"100",2007-04-10,9.88,24.94,16.3729166666667
"101",2007-04-11,7.68,28.07,17.1760416666667
"102",2007-04-12,12.28,25.34,19.0964583333333
"103",2007-04-13,8.04,23.73,16.0347916666667
"104",2007-04-14,9.33,25.24,17.09625
"105",2007-04-15,8.81,28.95,18.2004166666667
"106",2007-04-16,12.63,27.07,18.2666666666667
"107",2007-04-17,11.61,26.44,18.6004166666667
"108",2007-04-18,11.78,26.02,18.291875
"109",2007-04-19,10.52,22.9,16.5652083333333
"110",2007-04-20,11.69,25.75,18.3975
"111",2007-04-21,9.78,25.45,17.0677083333333
"112",2007-04-22,13.16,25.07,18.0054166666667
"113",2007-04-23,15.27,22.11,17.971875
"114",2007-04-24,15.32,19.01,16.703125
"115",2007-04-25,14.56,18.72,15.806875
"116",2007-04-26,10.27,22.24,16.0072916666667
"117",2007-04-27,11.04,18.92,14.8391666666667
"118",2007-04-28,13.69,22.05,16.5254166666667
"119",2007-04-29,10.04,24.28,17.6475
"120",2007-04-30,13.18,23.52,18.4316666666667
"121",2007-05-01,8.23,24,15.7479166666667
"122",2007-05-02,10.17,26.88,16.8652083333333
"123",2007-05-03,8.62,29.56,17.8885416666667
"124",2007-05-04,9.98,27.48,19.504375
"125",2007-05-05,6.495,25.71,15.1492916666667
"126",2007-05-06,7.66,26.25,15.8927083333333
"127",2007-05-07,9.02,23.59,16.1504166666667
"128",2007-05-08,10.38,27.26,17.8641666666667
"129",2007-05-09,14.74,22.18,18.3485416666667
"130",2007-05-10,12.48,18.23,16.1489583333333
"131",2007-05-11,9.05,22.06,14.9247916666667
"132",2007-05-12,5.948,22.31,13.6119791666667
"133",2007-05-13,13.47,23.12,17.68875
"134",2007-05-14,11.21,24.49,16.0066666666667
"135",2007-05-15,10.43,22.79,14.97125
"136",2007-05-16,11.66,23.62,16.5739583333333
"137",2007-05-17,10.45,23.93,16.43625
"138",2007-05-18,15.36,20.53,17.196875
"139",2007-05-19,10.89,22.3,16.413125
"140",2007-05-20,7.21,23.45,14.4885416666667
"141",2007-05-21,8.09,21.02,14.3866666666667
"142",2007-05-22,8.57,18.76,13.675625
"143",2007-05-23,2.643,20.78,11.0451041666667
"144",2007-05-24,2.432,20.83,10.2437291666667
"145",2007-05-25,1.414,21.58,9.70645833333333
"146",2007-05-26,1.189,21.14,9.46214583333333
"147",2007-05-27,1.871,21.82,10.3462916666667
"148",2007-05-28,5.258,22.08,12.374125
"149",2007-05-29,7.75,25.28,15.5322916666667
"150",2007-05-30,4.294,18.94,13.8576458333333
"151",2007-05-31,0.604,18.81,8.29379166666667
"152",2007-06-01,1.289,19.1,10.5709791666667
"153",2007-06-02,5.679,19.61,11.8586666666667
"154",2007-06-03,3.756,18.81,9.94789583333333
"155",2007-06-04,2.196,19.81,10.3456458333333
"156",2007-06-05,2.996,18.47,10.3384166666667
"157",2007-06-06,4.69,18.24,11.0161666666667
"158",2007-06-07,10.87,14.28,12.6920833333333
"159",2007-06-08,11.58,13.58,12.7225
"160",2007-06-09,11.45,15.68,13.8135416666667
"161",2007-06-10,8.42,18.75,14.0635416666667
"162",2007-06-11,6.384,19.23,11.099625
"163",2007-06-12,3.02,16.55,8.45652083333333
"164",2007-06-13,0.125,16.26,8.0886875
"165",2007-06-14,2.487,14.03,8.8404375
"166",2007-06-15,8.47,14.21,11.2852083333333
"167",2007-06-16,10.85,15.46,13.1189583333333
"168",2007-06-17,11.49,18.05,14.2885416666667
"169",2007-06-18,10.46,15.79,13.094375
"170",2007-06-19,8.81,12.56,10.843125
"171",2007-06-20,8.33,17.12,12.3910416666667
"172",2007-06-21,4.94,15.9,10.4355416666667
"173",2007-06-22,2.281,15.7,7.492125
"174",2007-06-23,-0.787,16.23,6.54579166666667
"175",2007-06-24,3.611,15.72,9.15235416666667
"176",2007-06-25,9.41,16.73,12.58875
"177",2007-06-26,9.82,14.59,12.3277083333333
"178",2007-06-27,7,13.56,10.933125
"179",2007-06-28,4.293,14.33,10.24875
"180",2007-06-29,10.31,19.05,14.0864583333333
"181",2007-06-30,7.67,17.07,12.4725
"182",2007-07-01,2.325,17.58,10.5532083333333
"183",2007-07-02,6.767,19.17,13.4012083333333
"184",2007-07-03,11.06,23.44,16.6425
"185",2007-07-04,10.73,20.82,15.9520833333333
"186",2007-07-05,11.13,15.62,13.2279166666667
"187",2007-07-06,4.814,18.47,11.334375
"188",2007-07-07,2.647,17.83,9.23279166666667
"189",2007-07-08,2.649,15.44,8.57845833333333
"190",2007-07-09,10.35,14.79,11.9433333333333
"191",2007-07-10,6.136,15.58,11.04175
"192",2007-07-11,5.915,15.84,11.0250208333333
"193",2007-07-12,0.827,16.61,7.78220833333333
"194",2007-07-13,0.627,15.89,7.7084375
"195",2007-07-14,0.435,17.01,7.34414583333333
"196",2007-07-15,-1.491,15.81,5.66779166666667
"197",2007-07-16,-2.748,14.11,4.6829375
"198",2007-07-17,-3.972,14.98,5.763875
"199",2007-07-18,4.769,14.53,9.559625
"200",2007-07-19,-1.483,15.4,7.78858333333333
"201",2007-07-20,3.881,15.8,10.9351041666667
"202",2007-07-21,3.674,15.53,10.3129166666667
"203",2007-07-22,5.894,16.47,10.7765625
"204",2007-07-23,2.577,17.71,8.80710416666667
"205",2007-07-24,2.26,16.14,8.11872916666667
"206",2007-07-25,2.452,21.29,10.7106458333333
"207",2007-07-26,2.559,23.66,11.4187708333333
"208",2007-07-27,4.316,23.04,11.4917916666667
"209",2007-07-28,3.72,19.34,11.918625
"210",2007-07-29,-0.154,14.8,7.2188125
"211",2007-07-30,-0.659,17.63,7.61295833333333
"212",2007-07-31,0.008,18.93,9.86808333333333
"213",2007-08-01,7.12,24.94,17.7110416666667
"214",2007-08-02,12.11,25.53,18.8029166666667
"215",2007-08-03,7.8,17.03,13.0210416666667
"216",2007-08-04,1.955,16.68,9.7166875
"217",2007-08-05,7.99,19.51,13.1133333333333
"218",2007-08-06,1.069,20.21,10.969
"219",2007-08-07,0.44,20.44,9.43845833333333
"220",2007-08-08,1.153,23.41,11.561875
"221",2007-08-09,4.804,23.82,15.3782916666667
"222",2007-08-10,8.16,23.32,16.519375
"223",2007-08-11,10.64,25.94,18.264375
"224",2007-08-12,6.442,25.86,16.6075416666667
"225",2007-08-13,5.035,16.69,11.9690625
"226",2007-08-14,2.088,15.9,9.78766666666667
"227",2007-08-15,4.274,18.98,11.6158125
"228",2007-08-16,5.915,15.3,10.9165416666667
"229",2007-08-17,10.87,20.4,15.0872916666667
"230",2007-08-18,3.493,19.87,12.2473958333333
"231",2007-08-19,11.77,12.89,12.309375
"232",2007-08-20,11.88,14.25,12.96125
"233",2007-08-21,10.63,18.16,13.0775
"234",2007-08-22,10.7,14.92,12.6885416666667
"235",2007-08-23,9.47,16.62,12.56375
"236",2007-08-24,8.15,17.58,12.886875
"237",2007-08-25,9.76,19.45,14.04125
"238",2007-08-26,8.12,24.68,14.21
"239",2007-08-27,5.406,28.29,15.4401666666667
"240",2007-08-28,5.382,27.74,15.480375
"241",2007-08-29,6.337,23.49,14.9145833333333
"242",2007-08-30,12.53,27.75,18.6945833333333
"243",2007-08-31,9.47,26.54,18.2841666666667
"244",2007-09-01,5.186,21.18,14.5608333333333
"245",2007-09-02,11.84,27.29,18.1025
"246",2007-09-03,11.02,21.64,15.8014583333333
"247",2007-09-04,9.59,15.71,13.0783333333333
"248",2007-09-05,8.8,17.38,12.016875
"249",2007-09-06,8.93,17.12,12.25125
"250",2007-09-07,8.28,17.11,12.9254166666667
"251",2007-09-08,9.43,17.24,13.639375
"252",2007-09-09,6.875,18.5,12.4473958333333
"253",2007-09-10,4.268,23.47,13.6445
"254",2007-09-11,8.06,21.01,15.3075
"255",2007-09-12,5.318,22.38,14.5691458333333
"256",2007-09-13,4.618,23.05,13.9094791666667
"257",2007-09-14,7.37,28.63,17.210625
"258",2007-09-15,5.58,21.83,14.7024583333333
"259",2007-09-16,4.494,24.38,14.3903958333333
"260",2007-09-17,7.78,19.4,14.005
"261",2007-09-18,8.57,20.76,14.63875
"262",2007-09-19,5.036,27.41,16.0918333333333
"263",2007-09-20,9.8,19.26,14.7125
"264",2007-09-21,10.16,21.08,15.21875
"265",2007-09-22,5.486,17.37,12.0574166666667
"266",2007-09-23,2.686,20.67,11.7577291666667
"267",2007-09-24,3.368,28.04,15.3472708333333
"268",2007-09-25,4.807,26.44,15.124
"269",2007-09-26,9.8,23.32,16.5370833333333
"270",2007-09-27,11.34,28.35,19.0420833333333
"271",2007-09-28,8.97,29.06,20.8479166666667
"272",2007-09-29,8.13,23.38,16.3554166666667
"273",2007-09-30,5.653,26.54,17.9666458333333
"274",2007-10-01,13.21,30.61,22.0672916666667
"275",2007-10-02,7.66,31.79,19.5120833333333
"276",2007-10-03,6.976,35.55,22.5542916666667
"277",2007-10-04,8.8,24.9,17.589375
"278",2007-10-05,4.602,28.32,16.2543333333333
"279",2007-10-06,5.767,33.89,18.7568333333333
"280",2007-10-07,12.51,22.76,17.7177083333333
"281",2007-10-08,11.49,22.47,16.931875
"282",2007-10-09,8.85,23.5,16.1385416666667
"283",2007-10-10,10.15,22.81,16.891875
"284",2007-10-11,14.15,31.86,21.8302083333333
"285",2007-10-12,12.35,25.04,17.9479166666667
"286",2007-10-13,5.085,21.63,13.5029166666667
"287",2007-10-14,3.611,27.26,15.7183958333333
"288",2007-10-15,7.25,32.84,20.008125
"289",2007-10-16,11.75,33.65,22.665625
"290",2007-10-17,7.19,19.15,14.235625
"291",2007-10-18,5.446,22.18,14.8772708333333
"292",2007-10-19,5.649,32.77,19.7896875
"293",2007-10-20,13.46,27.08,19.3702083333333
"294",2007-10-21,9.08,33.68,21.3670833333333
"295",2007-10-22,10.65,34.63,23.38625
"296",2007-10-23,12.07,27.94,20.4470833333333
"297",2007-10-24,16.56,20,18.0610416666667
"298",2007-10-25,16.07,23.81,18.3320833333333
"299",2007-10-26,14.43,24.52,17.7958333333333
"300",2007-10-27,13.07,28.93,19.4252083333333
"301",2007-10-28,12.11,30.44,21.5820833333333
"302",2007-10-29,15.73,32.55,25.2519565217391
"303",2007-10-30,9.81,31.77,20.0120833333333
"304",2007-10-31,12.43,26.38,19.6710416666667
"305",2007-11-01,13.8,26.16,20.3260416666667
"306",2007-11-02,16.81,24.37,19.51125
"307",2007-11-03,17.54,21.65,19.2810416666667
"308",2007-11-04,16.96,25.86,20.8560416666667
"309",2007-11-05,10.8,19.08,15.4458333333333
"310",2007-11-06,11.15,18.02,14.4197916666667
"311",2007-11-07,12.81,16.78,14.499375
"312",2007-11-08,13.26,19.26,15.68375
"313",2007-11-09,13.81,19.35,15.714375
"314",2007-11-10,13.61,22.11,17.2958333333333
"315",2007-11-11,11.25,25.92,18.41375
"316",2007-11-12,10.53,28.47,19.4933333333333
"317",2007-11-13,12.78,28.69,20.099375
"318",2007-11-14,12.33,32.55,20.6322916666667
"319",2007-11-15,15.38,30.42,21.945625
"320",2007-11-16,18.79,29.53,22.0633333333333
"321",2007-11-17,19.79,31.93,24.0845833333333
"322",2007-11-18,15.13,31.65,23.1652083333333
"323",2007-11-19,15.12,31.97,23.0666666666667
"324",2007-11-20,17.42,30.76,22.93375
"325",2007-11-21,15.64,29.23,22.0133333333333
"326",2007-11-22,18.06,22.19,20.1129166666667
"327",2007-11-23,17.84,22.52,19.451875
"328",2007-11-24,17.73,23.19,20.1777083333333
"329",2007-11-25,18.72,28.67,22.708125
"330",2007-11-26,17.67,27.36,22.0352083333333
"331",2007-11-27,17.64,21.64,19.0558333333333
"332",2007-11-28,18.09,28.61,22.745625
"333",2007-11-29,16.36,27.8,22.125
"334",2007-11-30,19.05,27.21,21.18625
"335",2007-12-01,17.98,22.01,19.5285416666667
"336",2007-12-02,16.52,26.4,21.2825
"337",2007-12-03,16.03,29.55,20.4125
"338",2007-12-04,15.76,31.29,22.6016666666667
"339",2007-12-05,17.89,23.8,21.0460416666667
"340",2007-12-06,18.96,28.37,23.193125
"341",2007-12-07,19.03,29.66,22.890625
"342",2007-12-08,18.13,25.3,21.663125
"343",2007-12-09,20.4,32.65,24.7225
"344",2007-12-10,18.49,23.36,21.0785416666667
"345",2007-12-11,16.82,19.52,17.896875
"346",2007-12-12,15.56,21.07,18.15375
"347",2007-12-13,12.88,22,17.475
"348",2007-12-14,11.74,26.65,19.09375
"349",2007-12-15,11.97,32.18,22.1804166666667
"350",2007-12-16,17.84,25,21.0835416666667
"351",2007-12-17,17.02,23.92,20.0027083333333
"352",2007-12-18,16.16,23.46,19.7422916666667
"353",2007-12-19,15.86,26.57,20.8808333333333
"354",2007-12-20,18.15,26.17,21.9127083333333
"355",2007-12-21,19.58,34.07,26.0125
"356",2007-12-22,17.25,29.28,23.805
"357",2007-12-23,11.08,25.46,18.8825
"358",2007-12-24,16.44,26.4,20.7310416666667
"359",2007-12-25,16.44,19.93,18.14375
"360",2007-12-26,13.53,27.33,20.5270833333333
"361",2007-12-27,17.02,27.43,21.2633333333333
"362",2007-12-28,17.78,30.21,23.45875
"363",2007-12-29,14.39,31.94,23.2435416666667
"364",2007-12-30,14.61,31.01,22.8702083333333
"365",2007-12-31,17.1,29.98,23.2541666666667
"366",2008-01-01,15.33,30.32,22.8429166666667
"367",2008-01-02,16.41,30.02,23.121875
"368",2008-01-03,17.98,27.61,22.7714583333333
"369",2008-01-04,18.2,26.84,22.3645833333333
"370",2008-01-05,18.39,25.43,21.64875
"371",2008-01-06,20.11,33.19,25.90875
"372",2008-01-07,21.47,29.12,24.6497916666667
"373",2008-01-08,20.59,27.63,23.1583333333333
"374",2008-01-09,20.39,29.27,24.1160416666667
"375",2008-01-10,18.34,29.72,24.3925
"376",2008-01-11,14.93,33.32,24.38125
"377",2008-01-12,17.7,34.28,25.30625
"378",2008-01-13,19.36,37.74,25.9510416666667
"379",2008-01-14,18.53,21.1,19.4575
"380",2008-01-15,18.45,27.56,22.4297916666667
"381",2008-01-16,17.76,34.58,23.1652083333333
"382",2008-01-17,18.6,21.64,20.075625
"383",2008-01-18,17.6,19.89,18.8677083333333
"384",2008-01-19,19.87,22.2,20.7452083333333
"385",2008-01-20,18.99,31.08,24.6304166666667
"386",2008-01-21,17.23,22.95,20.393125
"387",2008-01-22,15.18,23.65,19.7185416666667
"388",2008-01-23,14.19,24.84,19.3591666666667
"389",2008-01-24,10.41,27.91,19.673125
"390",2008-01-25,15.18,24.94,20.0114583333333
"391",2008-01-26,14.23,29.5,21.8977083333333
"392",2008-01-27,14.03,32.31,23.5135416666667
"393",2008-01-28,16.26,30.44,23.5129166666667
"394",2008-01-29,22.28,33.44,25.7910416666667
"395",2008-01-30,21.9,33.33,26.1991666666667
"396",2008-01-31,18.13,33.15,24.956875
"397",2008-02-01,19.36,22.54,20.7079166666667
"398",2008-02-02,19.75,28.1,23.1279166666667
"399",2008-02-03,19.68,26.56,21.655625
"400",2008-02-04,19.86,21.85,20.7685416666667
"401",2008-02-05,19.35,26,22.0383333333333
"402",2008-02-06,16.83,30.89,21.9695833333333
"403",2008-02-07,16.99,27.6,19.9525
"404",2008-02-08,16.04,21.3,18.5883333333333
"405",2008-02-09,13.8,21.84,17.1172916666667
"406",2008-02-10,12.62,24.7,18.9897916666667
"407",2008-02-11,14.9,25.38,20.4972916666667
"408",2008-02-12,16.42,26.7,20.5975
"409",2008-02-13,15.09,23.28,19.3735416666667
"410",2008-02-14,15.97,24.91,19.7910416666667
"411",2008-02-15,14.77,25.18,19.7052083333333
"412",2008-02-16,14.08,24.7,19.0608333333333
"413",2008-02-17,13.98,23.82,19.3972916666667
"414",2008-02-18,17.06,25.27,20.5414583333333
"415",2008-02-19,16.51,26.45,20.775625
"416",2008-02-20,14.65,30.52,22.4272916666667
"417",2008-02-21,19.08,27.83,22.6572916666667
"418",2008-02-22,17.76,32.98,24.3239583333333
"419",2008-02-23,14.68,29.73,22.975
"420",2008-02-24,9.74,31.06,20.4958333333333
"421",2008-02-25,18.14,25.67,21.3710416666667
"422",2008-02-26,17.32,29.2,21.6502083333333
"423",2008-02-27,15.87,26.37,19.7783333333333
"424",2008-02-28,14.37,19.32,16.8260416666667
"425",2008-02-29,12.1,21.16,16.2870833333333
"426",2008-03-01,8.25,23.83,15.8485416666667
"427",2008-03-02,11.43,23.58,17.1389583333333
"428",2008-03-03,10.81,26.86,18.8152083333333
"429",2008-03-04,10.39,31.39,20.4464583333333
"430",2008-03-05,14.37,27.36,20.93625
"431",2008-03-06,16.24,31.68,23.4364583333333
"432",2008-03-07,15.46,28.14,20.9622916666667
"433",2008-03-08,16.03,25.82,20.4760416666667
"434",2008-03-09,12.68,27.92,19.9077083333333
"435",2008-03-10,14.57,28.74,21.68625
"436",2008-03-11,12.93,30,21.4347916666667
"437",2008-03-12,16.33,30.06,22.9664583333333
"438",2008-03-13,17.56,29.95,22.9864583333333
"439",2008-03-14,16.49,30.51,22.6945833333333
"440",2008-03-15,14.27,31.9,21.6685416666667
"441",2008-03-16,15.36,29.11,21.748125
"442",2008-03-17,14.32,28.68,20.6129166666667
"443",2008-03-18,12.01,30.89,21.0225
"444",2008-03-19,14.81,28.42,20.97875
"445",2008-03-20,15.1,32.84,23.831875
"446",2008-03-21,16.21,20.38,17.7552083333333
"447",2008-03-22,14.46,19.69,17.62
"448",2008-03-23,12.27,26.03,19.026875
"449",2008-03-24,18.18,27.95,21.686875
"450",2008-03-25,16.76,26.37,19.8641666666667
"451",2008-03-26,13.4,27.94,20.056875
"452",2008-03-27,7.92,23.94,16.4791666666667
"453",2008-03-28,12.89,22.7,16.74625
"454",2008-03-29,11.35,25.06,17.62875
"455",2008-03-30,6.932,26.7,16.5045833333333
"456",2008-03-31,5.213,25.52,15.1812916666667
"457",2008-04-01,6.428,25.7,15.7395
"458",2008-04-02,7.15,29.86,18.6960416666667
"459",2008-04-03,6.432,21.9,16.8786458333333
"460",2008-04-04,2.606,22.4,12.5233125
"461",2008-04-05,4.278,24,13.7805
"462",2008-04-06,6.728,22.53,14.5341458333333
"463",2008-04-07,10.5,20.94,15.5579166666667
"464",2008-04-08,13.09,22.25,16.4275
"465",2008-04-09,13.5,22.23,16.475
"466",2008-04-10,11.36,24.52,16.3745833333333
"467",2008-04-11,8.18,24.44,15.733125
"468",2008-04-12,9.02,25.17,15.2683333333333
"469",2008-04-13,9.75,22.76,15.156875
"470",2008-04-14,8.29,19.3,14.4677083333333
"471",2008-04-15,9.53,19.79,15.66875
"472",2008-04-16,11.65,20.25,16.0547916666667
"473",2008-04-17,13.41,18.73,16.199375
"474",2008-04-18,12.6,18.74,15.4497916666667
"475",2008-04-19,13.95,21.77,16.4902083333333
"476",2008-04-20,13.29,18.84,15.5870833333333
"477",2008-04-21,14.05,18.96,15.8139583333333
"478",2008-04-22,13.66,17.87,15.5570833333333
"479",2008-04-23,13.21,18.52,15.5804166666667
"480",2008-04-24,14.18,20.98,16.611875
"481",2008-04-25,11.98,21.25,17.050625
"482",2008-04-26,8.02,24.76,14.8983333333333
"483",2008-04-27,8.15,26.89,16.8752083333333
"484",2008-04-28,7.62,17.2,12.3279166666667
"485",2008-04-29,1.255,19.12,9.54795833333333
"486",2008-04-30,0.737,20.77,10.2184583333333
"487",2008-05-01,5.394,19.24,12.0507916666667
"488",2008-05-02,4.346,22.25,12.0041458333333
"489",2008-05-03,2.571,21.55,11.230125
"490",2008-05-04,1.909,21.11,9.98097916666667
"491",2008-05-05,0.82,22.73,10.4087708333333
"492",2008-05-06,5.04,20.82,11.81425
"493",2008-05-07,4.457,23.1,12.8794583333333
"494",2008-05-08,1.933,21.94,11.3566041666667
"495",2008-05-09,3.309,22.81,12.2028541666667
"496",2008-05-10,6.009,20.63,13.66125
"497",2008-05-11,12.02,20.29,16.1491666666667
"498",2008-05-12,8.23,21.46,14.7014583333333
"499",2008-05-13,8.87,22.14,14.0410416666667
"500",2008-05-14,5.77,21.62,12.2268958333333
"501",2008-05-15,5.942,22.95,12.6627916666667
"502",2008-05-16,9.94,24.74,15.1645833333333
"503",2008-05-17,5.39,22.45,13.594625
"504",2008-05-18,1.84,17.92,9.20545833333333
"505",2008-05-19,1.54,20.68,9.91983333333333
"506",2008-05-20,0.721,22.29,10.1232291666667
"507",2008-05-21,2.278,20.67,11.5111458333333
"508",2008-05-22,5.926,18.53,12.7041875
"509",2008-05-23,2.561,19.18,11.6272708333333
"510",2008-05-24,4.613,19.93,12.4786666666667
"511",2008-05-25,0.846,18.84,8.62845833333333
"512",2008-05-26,4.238,21.46,11.585125
"513",2008-05-27,3.948,21.82,11.0297291666667
"514",2008-05-28,4.07,20.47,10.7930833333333
"515",2008-05-29,3.854,20.41,11.3582291666667
"516",2008-05-30,5.61,20.34,10.7172916666667
"517",2008-05-31,5,21.14,10.9250625
"518",2008-06-01,6.178,18.24,13.236625
"519",2008-06-02,13.59,17.79,15.4089583333333
"520",2008-06-03,14.38,15.42,14.946875
"521",2008-06-04,14.41,15.82,15.0908333333333
"522",2008-06-05,13.84,18.09,15.7814583333333
"523",2008-06-06,9.61,19.36,15.0558333333333
"524",2008-06-07,6.971,18.77,12.7552291666667
"525",2008-06-08,9.95,17.79,13.405
"526",2008-06-09,10.82,18.04,13.9297916666667
"527",2008-06-10,11.34,20.87,14.6222916666667
"528",2008-06-11,10.16,22.19,15.5608333333333
"529",2008-06-12,9.71,21.72,14.5766666666667
"530",2008-06-13,7.8,19.68,13.2389583333333
"531",2008-06-14,3.883,16.32,10.6506875
"532",2008-06-15,6.113,16.85,14.1871458333333
"533",2008-06-16,11.26,17.47,14.848125
"534",2008-06-17,12.68,19.26,15.40875
"535",2008-06-18,10.22,20.44,14.93625
"536",2008-06-19,9.03,19.38,13.764375
"537",2008-06-20,12.3,18.05,14.3304166666667
"538",2008-06-21,4.66,19.65,11.7393333333333
"539",2008-06-22,1.523,18.25,9.06995833333333
"540",2008-06-23,0.415,17.29,7.8080625
"541",2008-06-24,0.923,18.95,8.3591875
"542",2008-06-25,1.635,19.96,9.47122916666667
"543",2008-06-26,0.594,20.3,9.41433333333333
"544",2008-06-27,-1.467,20.14,7.46160416666667
"545",2008-06-28,-0.69,18.7,7.43010416666667
"546",2008-06-29,0.365,19.99,7.6561875
"547",2008-06-30,-0.946,22.9,11.3604893617021
"548",2008-07-01,3.71,20.24,12.7209166666667
"549",2008-07-02,4.588,19.57,12.6331666666667
"550",2008-07-03,0.043,18.21,7.50177083333333
"551",2008-07-04,0.714,15.2,8.201625
"552",2008-07-05,4.42,17.29,11.4368333333333
"553",2008-07-06,2.085,17.19,8.05745833333333
"554",2008-07-07,5.176,20.8,11.7280833333333
"555",2008-07-08,2.974,17.52,10.4168958333333
"556",2008-07-09,-0.626,15.2,7.36333333333333
"557",2008-07-10,2.564,16.65,10.3886041666667
"558",2008-07-11,0.828,16.7,10.3345625
"559",2008-07-12,-2.752,16.44,5.76572916666667
"560",2008-07-13,4.461,15.61,8.5575625
"561",2008-07-14,3.881,22.43,11.0892916666667
"562",2008-07-15,0.753,20.14,9.3199375
"563",2008-07-16,0.506,18.73,8.751125
"564",2008-07-17,2.072,18.93,8.15814583333333
"565",2008-07-18,0.338,18.88,9.84777083333333
"566",2008-07-19,-0.377,18.09,8.992625
"567",2008-07-20,2.587,17.27,9.13620833333333
"568",2008-07-21,4.469,17.39,11.9125625
"569",2008-07-22,-0.472,15.11,6.219125
"570",2008-07-23,-2.526,15.91,5.780375
"571",2008-07-24,9.39,14.84,11.36375
"572",2008-07-25,4.079,16.23,10.182625
"573",2008-07-26,-1.206,16.91,7.2755
"574",2008-07-27,-1.064,16.2,6.6015
"575",2008-07-28,3.147,13.29,8.16508333333333
"576",2008-07-29,2.97,15.72,10.3545833333333
"577",2008-07-30,-0.215,17.99,7.70245833333333
"578",2008-07-31,-1.707,20.75,9.41758333333333
"579",2008-08-01,2.87,22.72,11.878625
"580",2008-08-02,5.875,17.13,12.2723958333333
"581",2008-08-03,-1.448,18.42,8.2801875
"582",2008-08-04,1.997,16.91,9.37839583333333
"583",2008-08-05,-1.592,17.32,7.55545833333333
"584",2008-08-06,4.447,16.42,10.7521666666667
"585",2008-08-07,0.741,18.02,7.98858333333333
"586",2008-08-08,1.337,18.42,10.1302291666667
"587",2008-08-09,-2.637,17.92,7.28529166666667
"588",2008-08-10,-0.755,15.94,6.80860416666667
"589",2008-08-11,1.297,16.28,9.0985625
"590",2008-08-12,-3.022,16.97,7.537625
"591",2008-08-13,1.933,18.17,10.1991041666667
"592",2008-08-14,-3.048,19.54,8.444
"593",2008-08-15,-1.623,19.87,9.97935416666667
"594",2008-08-16,1.554,19.53,10.6586666666667
"595",2008-08-17,-1.98,17.66,7.36672916666667
"596",2008-08-18,-2.059,16.59,6.88722916666667
"597",2008-08-19,-2.979,18.43,6.73702083333333
"598",2008-08-20,0.657,21.05,9.511875
"599",2008-08-21,1.397,22.71,10.3693958333333
"600",2008-08-22,5.068,15.12,9.08379166666667
"601",2008-08-23,3.363,15.97,10.1819166666667
"602",2008-08-24,-1.499,18.2,8.51522916666667
"603",2008-08-25,1.076,18.78,9.58897916666667
"604",2008-08-26,1.32,22.52,10.6417916666667
"605",2008-08-27,0.958,18.65,10.3594375
"606",2008-08-28,5.639,17.1,11.0524583333333
"607",2008-08-29,1.516,19.65,10.2889375
"608",2008-08-30,3.061,17.28,10.7145625
"609",2008-08-31,11.42,21.87,15.646875
"610",2008-09-01,5.11,22.06,13.5701875
"611",2008-09-02,0.312,22.3,10.5031875
"612",2008-09-03,4.994,17.41,11.49825
"613",2008-09-04,11,16.95,12.9335416666667
"614",2008-09-05,10.77,14.2,12.3435416666667
"615",2008-09-06,9.92,13.82,11.9085416666667
"616",2008-09-07,6.216,21.14,13.6187083333333
"617",2008-09-08,3.225,20.12,11.879875
"618",2008-09-09,5.388,18.18,12.097
"619",2008-09-10,0.29,17.95,9.15445833333333
"620",2008-09-11,1.074,21.32,9.87752083333333
"621",2008-09-12,1.581,26.6,14.5198125
"622",2008-09-13,6.722,32.25,20.0656875
"623",2008-09-14,16.66,25.56,20.2041666666667
"624",2008-09-15,15.99,28.27,22.09125
"625",2008-09-16,4.545,19.92,14.452375
"626",2008-09-17,3.359,17.13,11.196
"627",2008-09-18,7.35,22.12,14.4145833333333
"628",2008-09-19,10.13,29.38,19.3752083333333
"629",2008-09-20,10.95,33.65,21.5670833333333
"630",2008-09-21,7.39,27.5,16.5577083333333
"631",2008-09-22,5.951,30.31,19.2230625
"632",2008-09-23,9.06,20.9,15.899375
"633",2008-09-24,3.837,20.2,12.1377083333333
"634",2008-09-25,3.069,21.68,12.5362291666667
"635",2008-09-26,3.788,28.07,15.4989583333333
"636",2008-09-27,6.406,30.63,18.3508333333333
"637",2008-09-28,11.25,33.58,22.4604166666667
"638",2008-09-29,6.894,23.68,14.2196666666667
"639",2008-09-30,6.947,23.73,15.5438958333333
"640",2008-10-01,7.46,28.23,16.7883333333333
"641",2008-10-02,8.48,34.45,20.9216666666667
"642",2008-10-03,15.63,35.37,27.8102083333333
"643",2008-10-04,16.36,23.11,19.3058333333333
"644",2008-10-05,14.21,18.03,16.279375
"645",2008-10-06,11.82,26.38,18
"646",2008-10-07,3.557,23.32,14.2658333333333
"647",2008-10-08,3.874,22.1,13.7007291666667
"648",2008-10-09,3.548,23.3,13.9187291666667
"649",2008-10-10,6.745,26.42,16.6224375
"650",2008-10-11,13.13,25.34,18.1316666666667
"651",2008-10-12,8.93,27.43,17.903125
"652",2008-10-13,9.68,30.91,20.7108333333333
"653",2008-10-14,14.21,21.53,17.5270833333333
"654",2008-10-15,13.76,19.04,15.6233333333333
"655",2008-10-16,6.991,24.03,15.8412708333333
"656",2008-10-17,6.72,27.69,17.1866666666667
"657",2008-10-18,11.29,29.25,20.0202083333333
"658",2008-10-19,10.43,33.48,21.52375
"659",2008-10-20,14.09,26.57,19.1164583333333
"660",2008-10-21,14.11,20.76,16.3822916666667
"661",2008-10-22,8.75,17.1,12.63625
"662",2008-10-23,5.691,18.23,13.1089791666667
"663",2008-10-24,4.038,23.92,14.3308333333333
"664",2008-10-25,5.857,27.85,16.7545
"665",2008-10-26,6.875,31.02,19.9396875
"666",2008-10-27,11.49,35,24.3158333333333
"667",2008-10-28,13.16,26.77,19.575625
"668",2008-10-29,15,16.99,16.1172916666667
"669",2008-10-30,15.37,27.17,19.93625
"670",2008-10-31,17.47,36.12,25.6472916666667
"671",2008-11-01,16.37,21.93,18.6333333333333
"672",2008-11-02,15.4,21.51,18.4314583333333
"673",2008-11-03,13.19,29.71,22.0725
"674",2008-11-04,12.65,20.6,16.1029166666667
"675",2008-11-05,11.02,23.18,17.161875
"676",2008-11-06,7.9,32.63,20.1960416666667
"677",2008-11-07,10.58,25.99,19.260625
"678",2008-11-08,12.17,25.78,18.8241666666667
"679",2008-11-09,7.58,27.53,18.87
"680",2008-11-10,13.36,28.15,21.0635416666667
"681",2008-11-11,10.41,27.4,18.52
"682",2008-11-12,13.09,30.79,21.118125
"683",2008-11-13,10.64,31,20.958125
"684",2008-11-14,14.34,36.58,24.556875
"685",2008-11-15,19.12,24.64,21.0210416666667
"686",2008-11-16,14.07,24.49,18.365625
"687",2008-11-17,13.67,21.11,17.4525
"688",2008-11-18,9.98,23.67,17.6129166666667
"689",2008-11-19,16.65,25.81,20.2685416666667
"690",2008-11-20,16.23,29.13,21.8147916666667
"691",2008-11-21,11.27,29.97,21.75375
"692",2008-11-22,11.63,20.89,16.8322916666667
"693",2008-11-23,12.61,20.93,15.2552083333333
"694",2008-11-24,9.2,25.99,18.5414583333333
"695",2008-11-25,14.95,24.07,18.3425
"696",2008-11-26,14.17,21.32,17.06625
"697",2008-11-27,13.06,29.32,21.30375
"698",2008-11-28,16.04,24.77,20.353125
"699",2008-11-29,14.59,28.41,21.0070833333333
"700",2008-11-30,11.35,28.49,19.76
"701",2008-12-01,10.4,32.44,22.6945833333333
"702",2008-12-02,13.68,31.71,21.5858333333333
"703",2008-12-03,13.29,33.74,23.179375
"704",2008-12-04,16.64,24.61,20.2552083333333
"705",2008-12-05,17.22,32.53,23.48125
"706",2008-12-06,15.85,36,25.1535416666667
"707",2008-12-07,18.43,27.92,21.6102083333333
"708",2008-12-08,14.95,27.35,20.125625
"709",2008-12-09,13.52,33.04,22.9758333333333
"710",2008-12-10,16.36,26.1,20.5564583333333
"711",2008-12-11,15.94,19.16,17.236875
"712",2008-12-12,15.81,17.49,16.88125
"713",2008-12-13,17.35,33.73,24.3377083333333
"714",2008-12-14,17.4,25.47,21.7116666666667
"715",2008-12-15,13.2,26.99,20.0479166666667
"716",2008-12-16,9.54,32.05,20.8608333333333
"717",2008-12-17,11.41,32.06,22.4195833333333
"718",2008-12-18,17.6,33.52,24.578125
"719",2008-12-19,12.85,29.25,20.4622916666667
"720",2008-12-20,9.63,23.58,18.2977083333333
"721",2008-12-21,7.65,25.81,17.3702083333333
"722",2008-12-22,9.57,30.28,20.28
"723",2008-12-23,13.66,29.25,21.3441666666667
"724",2008-12-24,18.18,20.13,19.085
"725",2008-12-25,17.12,28.37,21.4395833333333
"726",2008-12-26,19.44,33.93,25.4527083333333
"727",2008-12-27,16.54,32.36,22.7345833333333
"728",2008-12-28,16.09,34.45,25.6479166666667
"729",2008-12-29,16.38,29.67,22.1572916666667
"730",2008-12-30,15.86,33.08,23.8214583333333
"731",2008-12-31,11.95,33.44,23.3820833333333
"732",2009-01-01,11.13,36.5,24.0833333333333
"733",2009-01-02,14.41,28.92,19.6133333333333
"734",2009-01-03,15.24,22.54,18.9052083333333
"735",2009-01-04,17.61,31.72,23.3375
"736",2009-01-05,14.88,40.06,27.248125
"737",2009-01-06,12.93,42.86,26.9166666666667
"738",2009-01-07,15,39.76,27.62125
"739",2009-01-08,15.29,25.07,20.3816666666667
"740",2009-01-09,14.68,22.29,18.0845833333333
"741",2009-01-10,11.01,26.67,19.3714583333333
"742",2009-01-11,11.45,30.78,21.2175
"743",2009-01-12,15.79,30.7,22.6466666666667
"744",2009-01-13,18.19,33.04,24.9120833333333
"745",2009-01-14,15.23,40.83,27.53875
"746",2009-01-15,17.06,43.7,27.9775
"747",2009-01-16,16.33,36.61,23.4866666666667
"748",2009-01-17,12.96,23.52,18.751875
"749",2009-01-18,9.23,30.23,19.761875
"750",2009-01-19,9.64,34.14,22.1904166666667
"751",2009-01-20,13.66,40.51,26.8552083333333
"752",2009-01-21,20.77,40.77,28.3354166666667
"753",2009-01-22,20.7,34.48,27.520625
"754",2009-01-23,21.32,35.91,29.110625
"755",2009-01-24,20.35,42.51,30.175625
"756",2009-01-25,19.88,29.07,23.681875
"757",2009-01-26,20.72,30.74,24.5089583333333
"758",2009-01-27,20.1,30.13,23.4489583333333
"759",2009-01-28,16.98,36,25.0339583333333
"760",2009-01-29,15.92,36.19,25.0897916666667
"761",2009-01-30,16.32,35.71,25.385625
"762",2009-01-31,16,38.01,25.9954166666667
"763",2009-02-01,18.53,34.19,25.9939583333333
"764",2009-02-02,18.53,35.81,26.0164583333333
"765",2009-02-03,19.38,34.82,26.0225
"766",2009-02-04,20.98,34.6,26.3516666666667
"767",2009-02-05,18.2,40.78,28.130625
"768",2009-02-06,20.5,41.27,29.313125
"769",2009-02-07,19.74,42.1,29.5504166666667
"770",2009-02-08,15.67,42.21,28.3579166666667
"771",2009-02-09,18.31,24.08,22.1583333333333
"772",2009-02-10,17.08,20.03,18.3858333333333
"773",2009-02-11,15.77,21.03,18.2735416666667
"774",2009-02-12,15.07,21.41,17.5683333333333
"775",2009-02-13,15.22,18.81,16.4333333333333
"776",2009-02-14,15.46,18.71,16.4395833333333
"777",2009-02-15,16.08,21.49,18.3810416666667
"778",2009-02-16,16.84,24.64,19.1341666666667
"779",2009-02-17,16.78,21.93,18.5620833333333
"780",2009-02-18,18.54,28.71,22.3985416666667
"781",2009-02-19,18,30.83,23.969375
"782",2009-02-20,17.97,32.77,24.36
"783",2009-02-21,19.69,27.54,21.8066666666667
"784",2009-02-22,18.8,27.71,22.0085416666667
"785",2009-02-23,18.83,32.16,23.4747916666667
"786",2009-02-24,18.04,33.8,24.2522916666667
"787",2009-02-25,19.83,30.66,24.1079166666667
"788",2009-02-26,16.8,26.34,21.2002083333333
"789",2009-02-27,14.28,26.68,20.1775
"790",2009-02-28,13.16,33.33,22.378125
"791",2009-03-01,18.87,29.96,23.73625
"792",2009-03-02,17.53,28.69,22.04125
"793",2009-03-03,16.33,28.77,22.7502083333333
"794",2009-03-04,12.6,25.44,21.31625
"795",2009-03-05,8.15,27.83,17.1166666666667
"796",2009-03-06,7.64,27.26,17.8472916666667
"797",2009-03-07,11.95,30.16,21.1277083333333
"798",2009-03-08,16.92,25.58,20.675625
"799",2009-03-09,16.9,26.57,20.2489583333333
"800",2009-03-10,14.83,26.44,20.6941666666667
"801",2009-03-11,14.23,25.35,19.1358333333333
"802",2009-03-12,15.26,27.41,20.954375
"803",2009-03-13,15.65,27.84,20.4452083333333
"804",2009-03-14,14.84,29.44,20.6964583333333
"805",2009-03-15,16.15,32.05,22.9577083333333
"806",2009-03-16,9.76,28.7,18.82375
"807",2009-03-17,7.92,26.79,17.6566666666667
"808",2009-03-18,13.44,27.87,20.846875
"809",2009-03-19,11.31,31.87,20.8760416666667
"810",2009-03-20,14.3,30.67,21.7083333333333
"811",2009-03-21,14.25,28.88,20.2058333333333
"812",2009-03-22,11.56,28.78,20.3533333333333
"813",2009-03-23,12.97,31.52,21.4654166666667
"814",2009-03-24,15.56,33.53,23.825
"815",2009-03-25,14.35,35.08,22.518125
"816",2009-03-26,17.86,32.14,23.4675
"817",2009-03-27,15.63,25.53,20.6933333333333
"818",2009-03-28,12,26.73,18.9872916666667
"819",2009-03-29,10.98,28.09,18.705
"820",2009-03-30,14.36,26.6,20.3435416666667
"821",2009-03-31,17.52,20.65,19.1060416666667
"822",2009-04-01,18.77,23.15,20.4466666666667
"823",2009-04-02,18.18,25.78,21.0097916666667
"824",2009-04-03,17.73,28.24,21.9222916666667
"825",2009-04-04,16.61,20.37,18.6814583333333
"826",2009-04-05,13.98,24.65,19.0716666666667
"827",2009-04-06,10.47,22.32,16.8429166666667
"828",2009-04-07,13.44,23.71,17.8283333333333
"829",2009-04-08,8.6,24.86,16.78375
"830",2009-04-09,9.98,24.59,16.88375
"831",2009-04-10,9.37,26.02,16.5108333333333
"832",2009-04-11,13.55,24.96,18.5595833333333
"833",2009-04-12,17.65,25.76,20.5902083333333
"834",2009-04-13,17.53,23.19,19.7047916666667
"835",2009-04-14,15,27.79,20.6427083333333
"836",2009-04-15,11.05,29.95,19.6822916666667
"837",2009-04-16,8.81,26.15,16.2322916666667
"838",2009-04-17,7.12,25.22,15.2533333333333
"839",2009-04-18,8.62,25.54,15.6875
"840",2009-04-19,10.54,20.98,16.3860416666667
"841",2009-04-20,14.53,18.83,15.99375
"842",2009-04-21,13.97,21.22,16.8672916666667
"843",2009-04-22,13.34,22.89,16.7145833333333
"844",2009-04-23,9.7,22.56,16.2508333333333
"845",2009-04-24,8.76,24.71,16.094375
"846",2009-04-25,10.91,24.2,17.3908333333333
"847",2009-04-26,11.3,21.12,16.90375
"848",2009-04-27,5.22,19.5,11.5072291666667
"849",2009-04-28,4.431,23.1,11.9740208333333
"850",2009-04-29,3.734,18.84,10.6830208333333
"851",2009-04-30,7.52,19.94,12.7458333333333
"852",2009-05-01,3.31,23.06,12.0488333333333
"853",2009-05-02,3.983,23.55,13.7460208333333
"854",2009-05-03,7.24,23.64,14.6514583333333
"855",2009-05-04,6.123,25.2,14.0476041666667
"856",2009-05-05,8.72,22.09,15.20625
"857",2009-05-06,8.58,23.62,13.8091666666667
"858",2009-05-07,5.451,24.75,13.5727291666667
"859",2009-05-08,7.11,22.41,13.489375
"860",2009-05-09,3.479,23.7,12.4724166666667
"861",2009-05-10,5.937,18.74,12.2405416666667
"862",2009-05-11,4.955,21.85,11.6715208333333
"863",2009-05-12,2.889,22.23,10.9348125
"864",2009-05-13,3.208,22.38,11.3425208333333
"865",2009-05-14,1.648,21.63,10.634
"866",2009-05-15,3.77,22.57,12.7019791666667
"867",2009-05-16,6.38,22.29,16.5925833333333
"868",2009-05-17,1.464,22.08,10.2311458333333
"869",2009-05-18,2.955,21.61,11.7509166666667
"870",2009-05-19,9.21,21.37,14.6666666666667
"871",2009-05-20,13.47,20.84,15.6729787234043
"872",2009-05-21,13.67,19.28,15.2808333333333
"873",2009-05-22,13.9,17.76,15.0008333333333
"874",2009-05-23,13.91,21.1,16.670625
"875",2009-05-24,10.76,21.59,15.8470833333333
"876",2009-05-25,10.07,20.06,14.2297916666667
"877",2009-05-26,8.5,23.19,14.07875
"878",2009-05-27,12.2,16.62,14.3972916666667
"879",2009-05-28,11.33,19.45,14.6058333333333
"880",2009-05-29,11.62,17.69,13.761875
"881",2009-05-30,11.5,18.17,13.488125
"882",2009-05-31,10.8,17.05,13.2427083333333
"883",2009-06-01,9.9,16.9,13.0402083333333
"884",2009-06-02,10.57,20.14,14.0654166666667
"885",2009-06-03,11.85,18.66,14.7902083333333
"886",2009-06-04,9.12,16.6,12.8227083333333
"887",2009-06-05,7.77,19.92,14.2297916666667
"888",2009-06-06,3.485,19.22,10.2098541666667
"889",2009-06-07,6.366,19.93,11.8194166666667
"890",2009-06-08,5.665,19.44,11.8309791666667
"891",2009-06-09,3.577,15.68,9.95195833333333
"892",2009-06-10,0.665,14.79,9.6255625
"893",2009-06-11,-2.577,17.34,5.37289583333333
"894",2009-06-12,-1.746,17.08,6.05679166666667
"895",2009-06-13,2.301,17.62,7.59458333333333
"896",2009-06-14,4.015,17.15,8.93835416666667
"897",2009-06-15,1.261,19.49,9.44927083333333
"898",2009-06-16,2.311,17.46,11.3158125
"899",2009-06-17,9.11,16.43,12.4954166666667
"900",2009-06-18,7.09,18.26,11.9897916666667
"901",2009-06-19,4.413,18,10.8175833333333
"902",2009-06-20,9.3,17.59,12.9060416666667
"903",2009-06-21,11.23,17.9,14.1125
"904",2009-06-22,11.73,15.72,13.8172727272727
"905",NA,-4.755,44.14,17.700807725132
"906",2009-01-01,11.13,36.5,24.0833333333333
"907",2009-01-02,14.41,28.92,19.6133333333333
"908",2009-01-03,15.24,22.54,18.9052083333333
"909",2009-01-04,17.61,31.72,23.3375
"910",2009-01-05,14.88,40.06,27.248125
"911",2009-01-06,12.93,42.86,26.9166666666667
"912",2009-01-07,15,39.76,27.62125
"913",2009-01-08,15.29,25.07,20.3816666666667
"914",2009-01-09,14.68,22.29,18.0845833333333
"915",2009-01-10,11.01,26.67,19.3714583333333
"916",2009-01-11,11.45,30.78,21.2175
"917",2009-01-12,15.79,30.7,22.6466666666667
"918",2009-01-13,18.19,33.04,24.9120833333333
"919",2009-01-14,15.23,40.83,27.53875
"920",2009-01-15,17.06,43.7,27.9775
"921",2009-01-16,16.33,36.61,23.4866666666667
"922",2009-01-17,12.96,23.52,18.751875
"923",2009-01-18,9.23,30.23,19.761875
"924",2009-01-19,9.64,34.14,22.1904166666667
"925",2009-01-20,13.66,40.51,26.8552083333333
"926",2009-01-21,20.77,40.77,28.3354166666667
"927",2009-01-22,20.7,34.48,27.520625
"928",2009-01-23,21.32,35.91,29.110625
"929",2009-01-24,20.35,42.51,30.175625
"930",2009-01-25,19.88,29.07,23.681875
"931",2009-01-26,20.72,30.74,24.5089583333333
"932",2009-01-27,20.1,30.13,23.4489583333333
"933",2009-01-28,16.98,36,25.0339583333333
"934",2009-01-29,15.92,36.19,25.0897916666667
"935",2009-01-30,16.32,35.71,25.385625
"936",2009-01-31,16,38.01,25.9954166666667
"937",2009-02-01,18.53,34.19,25.9939583333333
"938",2009-02-02,18.53,35.81,26.0164583333333
"939",2009-02-03,19.38,34.82,26.0225
"940",2009-02-04,20.98,34.6,26.3516666666667
"941",2009-02-05,18.2,40.78,28.130625
"942",2009-02-06,20.5,41.27,29.313125
"943",2009-02-07,19.74,42.1,29.5504166666667
"944",2009-02-08,15.67,42.21,28.3579166666667
"945",2009-02-09,18.31,24.08,22.1583333333333
"946",2009-02-10,17.08,20.03,18.3858333333333
"947",2009-02-11,15.77,21.03,18.2735416666667
"948",2009-02-12,15.07,21.41,17.5683333333333
"949",2009-02-13,15.22,18.81,16.4333333333333
"950",2009-02-14,15.46,18.71,16.4395833333333
"951",2009-02-15,16.08,21.49,18.3810416666667
"952",2009-02-16,16.84,24.64,19.1341666666667
"953",2009-02-17,16.78,21.93,18.5620833333333
"954",2009-02-18,18.54,28.71,22.3985416666667
"955",2009-02-19,18,30.83,23.969375
"956",2009-02-20,17.97,32.77,24.36
"957",2009-02-21,19.69,27.54,21.8066666666667
"958",2009-02-22,18.8,27.71,22.0085416666667
"959",2009-02-23,18.83,32.16,23.4747916666667
"960",2009-02-24,18.04,33.8,24.2522916666667
"961",2009-02-25,19.83,30.66,24.1079166666667
"962",2009-02-26,16.8,26.34,21.2002083333333
"963",2009-02-27,14.28,26.68,20.1775
"964",2009-02-28,13.16,33.33,22.378125
"965",2009-03-01,18.87,29.96,23.73625
"966",2009-03-02,17.53,28.69,22.04125
"967",2009-03-03,16.33,28.77,22.7502083333333
"968",2009-03-04,12.6,25.44,21.31625
"969",2009-03-05,8.15,27.83,17.1166666666667
"970",2009-03-06,7.64,27.26,17.8472916666667
"971",2009-03-07,11.95,30.16,21.1277083333333
"972",2009-03-08,16.92,25.58,20.675625
"973",2009-03-09,16.9,26.57,20.2489583333333
"974",2009-03-10,14.83,26.44,20.6941666666667
"975",2009-03-11,14.23,25.35,19.1358333333333
"976",2009-03-12,15.26,27.41,20.954375
"977",2009-03-13,15.65,27.84,20.4452083333333
"978",2009-03-14,14.84,29.44,20.6964583333333
"979",2009-03-15,16.15,32.05,22.9577083333333
"980",2009-03-16,9.76,28.7,18.82375
"981",2009-03-17,7.92,26.79,17.6566666666667
"982",2009-03-18,13.44,27.87,20.846875
"983",2009-03-19,11.31,31.87,20.8760416666667
"984",2009-03-20,14.3,30.67,21.7083333333333
"985",2009-03-21,14.25,28.88,20.2058333333333
"986",2009-03-22,11.56,28.78,20.3533333333333
"987",2009-03-23,12.97,31.52,21.4654166666667
"988",2009-03-24,15.56,33.53,23.825
"989",2009-03-25,14.35,35.08,22.518125
"990",2009-03-26,17.86,32.14,23.4675
"991",2009-03-27,15.63,25.53,20.6933333333333
"992",2009-03-28,12,26.73,18.9872916666667
"993",2009-03-29,10.98,28.09,18.705
"994",2009-03-30,14.36,26.6,20.3435416666667
"995",2009-03-31,17.52,20.65,19.1060416666667
"996",2009-04-01,18.77,23.15,20.4466666666667
"997",2009-04-02,18.18,25.78,21.0097916666667
"998",2009-04-03,17.73,28.24,21.9222916666667
"999",2009-04-04,16.61,20.37,18.6814583333333
"1000",2009-04-05,13.98,24.65,19.0716666666667
"1001",2009-04-06,10.47,22.32,16.8429166666667
"1002",2009-04-07,13.44,23.71,17.8283333333333
"1003",2009-04-08,8.6,24.86,16.78375
"1004",2009-04-09,9.98,24.59,16.88375
"1005",2009-04-10,9.37,26.02,16.5108333333333
"1006",2009-04-11,13.55,24.96,18.5595833333333
"1007",2009-04-12,17.65,25.76,20.5902083333333
"1008",2009-04-13,17.53,23.19,19.7047916666667
"1009",2009-04-14,15,27.79,20.6427083333333
"1010",2009-04-15,11.05,29.95,19.6822916666667
"1011",2009-04-16,8.81,26.15,16.2322916666667
"1012",2009-04-17,7.12,25.22,15.2533333333333
"1013",2009-04-18,8.62,25.54,15.6875
"1014",2009-04-19,10.54,20.98,16.3860416666667
"1015",2009-04-20,14.53,18.83,15.99375
"1016",2009-04-21,13.97,21.22,16.8672916666667
"1017",2009-04-22,13.34,22.89,16.7145833333333
"1018",2009-04-23,9.7,22.56,16.2508333333333
"1019",2009-04-24,8.76,24.71,16.094375
"1020",2009-04-25,10.91,24.2,17.3908333333333
"1021",2009-04-26,11.3,21.12,16.90375
"1022",2009-04-27,5.22,19.5,11.5072291666667
"1023",2009-04-28,4.431,23.1,11.9740208333333
"1024",2009-04-29,3.734,18.84,10.6830208333333
"1025",2009-04-30,7.52,19.94,12.7458333333333
"1026",2009-05-01,3.31,23.06,12.0488333333333
"1027",2009-05-02,3.983,23.55,13.7460208333333
"1028",2009-05-03,7.24,23.64,14.6514583333333
"1029",2009-05-04,6.123,25.2,14.0476041666667
"1030",2009-05-05,8.72,22.09,15.20625
"1031",2009-05-06,8.58,23.62,13.8091666666667
"1032",2009-05-07,5.451,24.75,13.5727291666667
"1033",2009-05-08,7.11,22.41,13.489375
"1034",2009-05-09,3.479,23.7,12.4724166666667
"1035",2009-05-10,5.937,18.74,12.2405416666667
"1036",2009-05-11,4.955,21.85,11.6715208333333
"1037",2009-05-12,2.889,22.23,10.9348125
"1038",2009-05-13,3.208,22.38,11.3425208333333
"1039",2009-05-14,1.648,21.63,10.634
"1040",2009-05-15,3.77,22.57,12.7019791666667
"1041",2009-05-16,6.38,22.29,16.5925833333333
"1042",2009-05-17,1.464,22.08,10.2311458333333
"1043",2009-05-18,2.955,21.61,11.7509166666667
"1044",2009-05-19,9.21,21.37,14.6666666666667
"1045",2009-05-20,13.47,20.84,15.6729787234043
"1046",2009-05-21,13.67,19.28,15.2808333333333
"1047",2009-05-22,13.9,17.76,15.0008333333333
"1048",2009-05-23,13.91,21.1,16.670625
"1049",2009-05-24,10.76,21.59,15.8470833333333
"1050",2009-05-25,10.07,20.06,14.2297916666667
"1051",2009-05-26,8.5,23.19,14.07875
"1052",2009-05-27,12.2,16.62,14.3972916666667
"1053",2009-05-28,11.33,19.45,14.6058333333333
"1054",2009-05-29,11.62,17.69,13.761875
"1055",2009-05-30,11.5,18.17,13.488125
"1056",2009-05-31,10.8,17.05,13.2427083333333
"1057",2009-06-01,9.9,16.9,13.0402083333333
"1058",2009-06-02,10.57,20.14,14.0654166666667
"1059",2009-06-03,11.85,18.66,14.7902083333333
"1060",2009-06-04,9.12,16.6,12.8227083333333
"1061",2009-06-05,7.77,19.92,14.2297916666667
"1062",2009-06-06,3.485,19.22,10.2098541666667
"1063",2009-06-07,6.366,19.93,11.8194166666667
"1064",2009-06-08,5.665,19.44,11.8309791666667
"1065",2009-06-09,3.577,15.68,9.95195833333333
"1066",2009-06-10,0.665,14.79,9.6255625
"1067",2009-06-11,-2.577,17.34,5.37289583333333
"1068",2009-06-12,-1.746,17.08,6.05679166666667
"1069",2009-06-13,2.301,17.62,7.59458333333333
"1070",2009-06-14,4.015,17.15,8.93835416666667
"1071",2009-06-15,1.261,19.49,9.44927083333333
"1072",2009-06-16,2.311,17.46,11.3158125
"1073",2009-06-17,9.11,16.43,12.4954166666667
"1074",2009-06-18,7.09,18.26,11.9897916666667
"1075",2009-06-19,4.413,18,10.8175833333333
"1076",2009-06-20,9.3,17.59,12.9060416666667
"1077",2009-06-21,11.23,17.9,14.1125
"1078",2009-06-22,8.14,20.91,14.46875
"1079",2009-06-23,4.432,20.31,10.195625
"1080",2009-06-24,3.361,19.36,8.4470625
"1081",2009-06-25,3.813,17.91,9.13835416666667
"1082",2009-06-26,3.227,19.35,10.2540416666667
"1083",2009-06-27,4.922,16.36,9.99708333333333
"1084",2009-06-28,6.675,20.3,11.6996875
"1085",2009-06-29,2.551,21.95,10.5134166666667
"1086",2009-06-30,5.836,20.59,12.6308125
"1087",2009-07-01,8.15,21.47,15.3441666666667
"1088",2009-07-02,6.495,18.64,12.5641666666667
"1089",2009-07-03,8.5,16.29,12.8347916666667
"1090",2009-07-04,0.999,17.62,9.4755
"1091",2009-07-05,1.486,19.39,8.75872916666667
"1092",2009-07-06,-1.963,13.98,5.25745833333333
"1093",2009-07-07,1.932,14.61,7.93183333333333
"1094",2009-07-08,5.016,16.24,9.72875
"1095",2009-07-09,4.924,15.88,9.5776875
"1096",2009-07-10,5.938,17.19,10.8429166666667
"1097",2009-07-11,4.593,16.49,9.6313125
"1098",2009-07-12,6.426,20.5,11.9003541666667
"1099",2009-07-13,5.859,18.44,12.4290833333333
"1100",2009-07-14,4.172,17.62,9.82239583333333
"1101",2009-07-15,0.896,16.52,7.4048125
"1102",2009-07-16,2.527,16.65,9.31939583333333
"1103",2009-07-17,5.069,17.24,10.8602083333333
"1104",2009-07-18,0.232,19.39,7.83733333333333
"1105",2009-07-19,0.405,21.25,8.44320833333333
"1106",2009-07-20,0.117,21.53,8.75460416666667
"1107",2009-07-21,0.19,24.2,9.81341666666667
"1108",2009-07-22,7.9,25.65,16.9370833333333
"1109",2009-07-23,4.416,18.73,12.0015416666667
"1110",2009-07-24,2.966,18.05,9.0035625
"1111",2009-07-25,-1.265,18.57,7.35352083333333
"1112",2009-07-26,2.91,12.53,8.08064583333333
"1113",2009-07-27,1.702,19.73,9.27902083333333
"1114",2009-07-28,-0.32,19.06,7.71933333333333
"1115",2009-07-29,-0.726,19.96,8.50489583333333
"1116",2009-07-30,0.156,20.49,8.6441875
"1117",2009-07-31,1.888,19.67,9.64089583333333
"1118",2009-08-01,-0.194,19.97,8.8846875
"1119",2009-08-02,-0.953,19.67,7.72804166666667
"1120",2009-08-03,0.119,21.23,9.28989583333333
"1121",2009-08-04,2.745,19.68,8.65141666666667
"1122",2009-08-05,-0.684,19.86,8.07133333333333
"1123",2009-08-06,-0.153,20.98,9.05685416666667
"1124",2009-08-07,1.647,24.09,11.575625
"1125",2009-08-08,0.062,17.98,7.816625
"1126",2009-08-09,-2.167,18.06,6.394125
"1127",2009-08-10,-1.029,18.56,7.50122916666667
"1128",2009-08-11,3.623,19.31,9.91066666666667
"1129",2009-08-12,2.403,19.62,9.82366666666667
"1130",2009-08-13,2.137,21.68,11.3235833333333
"1131",2009-08-14,1.982,22.02,10.9939375
"1132",2009-08-15,-0.2,22.11,9.75054166666667
"1133",2009-08-16,-0.167,27.13,13.7260416666667
"1134",2009-08-17,5.038,22.63,16.2368333333333
"1135",2009-08-18,-0.792,19.72,8.70616666666667
"1136",2009-08-19,-0.411,21.29,9.57304166666667
"1137",2009-08-20,2.868,15.14,6.38339393939394
"1138",2009-08-21,1.923,27.27,15.0031739130435
"1139",2009-08-22,8.18,22.03,15.011875
"1140",2009-08-23,5.543,26.86,15.399375
"1141",2009-08-24,9.83,24.36,15.5304166666667
"1142",2009-08-25,10.62,20.02,16.218125
"1143",2009-08-26,10,21.6,15.7552083333333
"1144",2009-08-27,3.738,25.97,13.2330625
"1145",2009-08-28,0.704,25.9,12.7919166666667
"1146",2009-08-29,9.15,27.14,18.3683333333333
"1147",2009-08-30,5.623,21,15.3249166666667
"1148",2009-08-31,0.965,21.83,11.2838333333333
"1149",2009-09-01,1.786,23.08,11.7536666666667
"1150",2009-09-02,2.296,21.72,11.7761041666667
"1151",2009-09-03,4.793,20.15,11.7280625
"1152",2009-09-04,9.86,25.71,16.5639583333333
"1153",2009-09-05,5.848,18.29,11.5293333333333
"1154",2009-09-06,2.775,22.82,12.00275
"1155",2009-09-07,7.41,23.62,13.5054166666667
"1156",2009-09-08,5.68,20.44,13.2311458333333
"1157",2009-09-09,4.521,21.05,12.3418958333333
"1158",2009-09-10,2.769,23.21,12.0971875
"1159",2009-09-11,0.514,24.19,11.5747291666667
"1160",2009-09-12,2.341,31.07,15.2956875
"1161",2009-09-13,4.23,33.02,17.5680416666667
"1162",2009-09-14,8.59,22.55,15.9922916666667
"1163",2009-09-15,11.74,24.72,17.3079166666667
"1164",2009-09-16,10.21,23.02,16.0164583333333
"1165",2009-09-17,11.19,32.84,22.17
"1166",2009-09-18,10.28,26.14,19.5770833333333
"1167",2009-09-19,7.32,26.83,16.7727083333333
"1168",2009-09-20,7.44,29.53,17.6591666666667
"1169",2009-09-21,9.99,21.74,16.0954166666667
"1170",2009-09-22,12.69,31.01,22.0079166666667
"1171",2009-09-23,13.07,21.44,18.1672916666667
"1172",2009-09-24,6.963,24.55,16.2036041666667
"1173",2009-09-25,4.275,27.84,16.316875
"1174",2009-09-26,8.82,21.99,17.331875
"1175",2009-09-27,8.93,18.49,13.5885416666667
"1176",2009-09-28,5.112,22.56,14.7151666666667
"1177",2009-09-29,2.133,24.26,12.7434166666667
"1178",2009-09-30,2.462,29.09,14.8760416666667
"1179",2009-10-01,4.869,34.3,18.6716458333333
"1180",2009-10-02,9.69,24.33,16.7202083333333
"1181",2009-10-03,11.56,16.18,14.2229166666667
"1182",2009-10-04,11.08,17.56,13.1077083333333
"1183",2009-10-05,9.61,21.41,14.13375
"1184",2009-10-06,6.849,22.07,14.079625
"1185",2009-10-07,6.577,19.31,13.3632916666667
"1186",2009-10-08,10.65,20.35,14.4758333333333
"1187",2009-10-09,9.06,17.53,13.3135416666667
"1188",2009-10-10,7.54,18.14,13.4391666666667
"1189",2009-10-11,8.51,19.13,14.0825
"1190",2009-10-12,5.63,22.21,15.55925
"1191",2009-10-13,11.23,24.95,19.2545833333333
"1192",2009-10-14,12.46,21.57,16.7422916666667
"1193",2009-10-15,8.26,23.46,16.7235416666667
"1194",2009-10-16,6.392,21.87,14.3104791666667
"1195",2009-10-17,3.087,23.33,13.8785
"1196",2009-10-18,9.23,24.13,16.125
"1197",2009-10-19,5.771,26.15,15.6946875
"1198",2009-10-20,8.64,32.36,19.7510416666667
"1199",2009-10-21,6.145,35.86,21.46675
"1200",2009-10-22,16.59,26,20.09375
"1201",2009-10-23,12.81,34.54,22.3839583333333
"1202",2009-10-24,16.16,27.47,20.5995833333333
"1203",2009-10-25,12.46,20.49,16.366875
"1204",2009-10-26,12,16.32,13.791875
"1205",2009-10-27,13.01,18.87,15.26375
"1206",2009-10-28,11.52,26.73,19.1566666666667
"1207",2009-10-29,16.03,24.74,19.6941666666667
"1208",2009-10-30,13.14,29.45,20.616875
"1209",2009-10-31,14.83,27.19,21.1952083333333
"1210",2009-11-01,10.78,31.62,21.37375
"1211",2009-11-02,15.02,32.13,22.591875
"1212",2009-11-03,16.56,38.83,28.0435416666667
"1213",2009-11-04,17.83,24.91,20.0429166666667
"1214",2009-11-05,15.85,24,18.7322916666667
"1215",2009-11-06,15.64,22.52,18.2752083333333
"1216",2009-11-07,14.83,25,19.5929166666667
"1217",2009-11-08,13.9,22.17,18.839375
"1218",2009-11-09,13.1,29.06,21.6502083333333
"1219",2009-11-10,9.59,31.58,19.8195833333333
"1220",2009-11-11,9.92,30.87,20.204375
"1221",2009-11-12,10.46,37.93,22.96875
"1222",2009-11-13,11.32,22.69,19.3164583333333
"1223",2009-11-14,8.35,33.47,20.7858333333333
"1224",2009-11-15,12.58,29.42,21.4172916666667
"1225",2009-11-16,17.23,37.76,26.1991666666667
"1226",2009-11-17,14.09,25.75,20.78875
"1227",2009-11-18,15.56,31.54,22.0966666666667
"1228",2009-11-19,13.29,38.84,25.2078723404255
"1229",2009-11-20,17.47,42,29.2320833333333
"1230",2009-11-21,19.34,36.23,27.63375
"1231",2009-11-22,17.08,41.67,29.6910416666667
"1232",2009-11-23,15.8,29.16,19.8477083333333
"1233",2009-11-24,15.66,21.74,18.571875
"1234",2009-11-25,16.31,33.49,23.6
"1235",2009-11-26,16.32,35.4,25.4552083333333
"1236",2009-11-27,17.18,35.41,26.5989583333333
"1237",2009-11-28,13.54,40.25,27.905
"1238",2009-11-29,16.02,32.55,24.9883333333333
"1239",2009-11-30,11.81,24.86,17.048125
"1240",2009-12-01,11.95,22.62,17.6104166666667
"1241",2009-12-02,12.84,24.16,17.76125
"1242",2009-12-03,9.19,31.62,20.5297916666667
"1243",2009-12-04,11.46,28.52,20.3266666666667
"1244",2009-12-05,15.23,30.87,21.9133333333333
"1245",2009-12-06,14.43,30.85,22.9025
"1246",2009-12-07,16.76,40.35,27.9997916666667
"1247",2009-12-08,16.79,39.06,25.0504166666667
"1248",2009-12-09,14.68,27.36,21.546875
"1249",2009-12-10,17.89,32.86,24.9939583333333
"1250",2009-12-11,13.43,31.51,23.32
"1251",2009-12-12,11.11,33.91,22.6891666666667
"1252",2009-12-13,16.26,32.76,24.2822916666667
"1253",2009-12-14,17.69,21.8,19.7504166666667
"1254",2009-12-15,16.95,28.04,22.241875
"1255",2009-12-16,20.53,36.92,27.0464583333333
"1256",2009-12-17,17.52,43.3,30.6183333333333
"1257",2009-12-18,16.75,27.51,20.2804166666667
"1258",2009-12-19,14.54,32.54,22.5325
"1259",2009-12-20,17.48,24.17,20.7225
"1260",2009-12-21,15.94,30.97,23.4772916666667
"1261",2009-12-22,15.93,37.18,26.0685416666667
"1262",2009-12-23,15.86,37.88,26.0675
"1263",2009-12-24,16.34,39.34,26.7989583333333
"1264",2009-12-25,17.65,28.96,22.4575
"1265",2009-12-26,16.93,19.66,18.135
"1266",2009-12-27,18.53,23.99,20.928125
"1267",2009-12-28,19.79,25.55,21.9972916666667
"1268",2009-12-29,17.93,29.04,22.993125
"1269",2009-12-30,17.03,27.16,22.373125
"1270",2009-12-31,18.61,28.05,23.0110416666667
"1271",2010-01-01,20.5,28.79,24.3275
"1272",2010-01-02,21.88,31.63,25.286875
"1273",2010-01-03,17.45,22.66,19.324375
"1274",2010-01-04,17.37,25.65,21.0541666666667
"1275",2010-01-05,15.06,34.7,24.2089583333333
"1276",2010-01-06,19.5,31.55,24.7610416666667
"1277",2010-01-07,19.68,25.1,21.888125
"1278",2010-01-08,18.4,31.11,23.5745833333333
"1279",2010-01-09,16.47,38.87,27.7310416666667
"1280",2010-01-10,19.46,36.71,26.934375
"1281",2010-01-11,19.06,31.85,24.7339583333333
"1282",2010-01-12,20.85,41.1,29.1666666666667
"1283",2010-01-13,19.25,34.39,25.3895833333333
"1284",2010-01-14,19.01,23.2,20.4545833333333
"1285",2010-01-15,19.03,28.04,22.815
"1286",2010-01-16,19.39,30.39,24.27125
"1287",2010-01-17,16.14,32.19,23.406875
"1288",2010-01-18,11.61,26.85,19.5991666666667
"1289",2010-01-19,8.76,30.54,20.20125
"1290",2010-01-20,8.37,37.23,23.4914583333333
"1291",2010-01-21,14.27,41.46,26.84125
"1292",2010-01-22,18.47,42.39,29.7054166666667
"1293",2010-01-23,20.91,44.14,30.38125
"1294",2010-01-24,19.61,26.35,21.8472916666667
"1295",2010-01-25,19.97,33.44,24.82
"1296",2010-01-26,20.92,41.08,28.46625
"1297",2010-01-27,21.27,30.42,24.9302083333333
"1298",2010-01-28,18.1,29.62,23.1754166666667
"1299",2010-01-29,16.14,33.36,24.008125
"1300",2010-01-30,19.84,28.68,23.7827083333333
"1301",2010-01-31,18.73,29.12,22.751875
"1302",2010-02-01,17.86,31.43,24.0785416666667
"1303",2010-02-02,18.92,28.85,23.1716666666667
"1304",2010-02-03,20.72,28.78,24.1404166666667
"1305",2010-02-04,22.09,28.77,23.9902083333333
"1306",2010-02-05,22.29,30.38,25.2572916666667
"1307",2010-02-06,20.14,23.61,21.5589583333333
"1308",2010-02-07,19.71,25.35,22.0897916666667
"1309",2010-02-08,19.8,27.63,23.525
"1310",2010-02-09,19.64,31.92,24.7877083333333
"1311",2010-02-10,18.01,34.25,25.1264583333333
"1312",2010-02-11,19.19,33.03,25.6854166666667
"1313",2010-02-12,21.15,36.83,27.595625
"1314",2010-02-13,21.58,25.98,23.0564583333333
"1315",2010-02-14,20.54,29.17,23.9220833333333
"1316",2010-02-15,20.3,33.83,25.3502083333333
"1317",2010-02-16,16.88,26.92,22.46125
"1318",2010-02-17,16.01,28.18,21.7683333333333
"1319",2010-02-18,15.59,25.69,20.305625
"1320",2010-02-19,14.01,26.39,19.9691666666667
"1321",2010-02-20,15,31.7,23.326875
"1322",2010-02-21,16.22,35.54,25.9733333333333
"1323",2010-02-22,18.07,36.4,27.199375
"1324",2010-02-23,19.79,32.24,24.3779166666667
"1325",2010-02-24,17.54,25.47,21.0085416666667
"1326",2010-02-25,13.95,26.67,20.1464583333333
"1327",2010-02-26,13.16,27.66,20.2247916666667
"1328",2010-02-27,13.77,32.34,22.9277083333333
"1329",2010-02-28,17.05,30.85,21.710625
"1330",2010-03-01,16.25,20.01,17.8414583333333
"1331",2010-03-02,15.38,23.16,18.5429166666667
"1332",2010-03-03,15.33,25.4,19.9247916666667
"1333",2010-03-04,15.28,26.61,20.8152083333333
"1334",2010-03-05,18.22,24.96,21.35875
"1335",2010-03-06,19.89,31.41,24.7035416666667
"1336",2010-03-07,21.04,28.89,24.5204166666667
"1337",2010-03-08,17.45,31.53,24.7310416666667
"1338",2010-03-09,14.16,30.06,21.6595833333333
"1339",2010-03-10,12.41,21.28,17.5570833333333
"1340",2010-03-11,16.33,23.15,19.4735416666667
"1341",2010-03-12,13.72,24.65,19.1991666666667
"1342",2010-03-13,15.62,23.82,19.5141666666667
"1343",2010-03-14,14.24,26.41,19.881875
"1344",2010-03-15,15.33,28.7,20.8314583333333
"1345",2010-03-16,12.35,29.25,19.93625
"1346",2010-03-17,8.74,30.27,19.1520833333333
"1347",2010-03-18,10.61,31.33,20.0814583333333
"1348",2010-03-19,11.13,33.2,21.331875
"1349",2010-03-20,13.84,34.66,23.3783333333333
"1350",2010-03-21,15.47,36.11,25.4995833333333
"1351",2010-03-22,18.9,28.17,22.731875
"1352",2010-03-23,15.18,31.35,22.6108333333333
"1353",2010-03-24,15.26,28.51,21.408125
"1354",2010-03-25,17.43,30.06,23.009375
"1355",2010-03-26,14.75,36.32,24.74
"1356",2010-03-27,20.52,30.68,24.704375
"1357",2010-03-28,17.32,32.64,23.8939583333333
"1358",2010-03-29,18.47,28.98,22.6977083333333
"1359",2010-03-30,18.09,21,19.8395833333333
"1360",2010-03-31,14.88,22.87,19.0725
"1361",2010-04-01,12.66,27.72,19.4635416666667
"1362",2010-04-02,13.16,25.41,19.2904166666667
"1363",2010-04-03,13.1,25.61,18.9925
"1364",2010-04-04,13.49,22.25,17.7804166666667
"1365",2010-04-05,11.61,23.24,17.3004166666667
"1366",2010-04-06,13.59,23.96,18.8054166666667
"1367",2010-04-07,17.64,24.19,20.549375
"1368",2010-04-08,15.42,29.41,22.6589583333333
"1369",2010-04-09,11.46,26.26,18.5097916666667
"1370",2010-04-10,13.54,28.34,19.5389583333333
"1371",2010-04-11,15.36,28.81,21.0460416666667
"1372",2010-04-12,7.87,25.51,17.09875
"1373",2010-04-13,5.032,24.85,14.0327083333333
"1374",2010-04-14,6.462,25.96,15.2314791666667
"1375",2010-04-15,9.16,26.37,17.56
"1376",2010-04-16,12.98,23.05,17.7333333333333
"1377",2010-04-17,12.97,27.4,18.8166666666667
"1378",2010-04-18,12.34,27.56,19.1241666666667
"1379",2010-04-19,13.87,28.24,20.078125
"1380",2010-04-20,12.58,27.65,19.18
"1381",2010-04-21,10.54,28.18,18.27625
"1382",2010-04-22,10.83,30.14,18.905
"1383",2010-04-23,10.49,31.66,19.460625
"1384",2010-04-24,14.1,29.36,20.6145833333333
"1385",2010-04-25,11.3,22.68,17.7866666666667
"1386",2010-04-26,7.21,23.8,14.3547916666667
"1387",2010-04-27,4.328,19.59,11.8716458333333
"1388",2010-04-28,4.583,24.93,14.545625
"1389",2010-04-29,6.877,26.01,15.4922291666667
"1390",2010-04-30,5.272,20.28,13.4765416666667
"1391",2010-05-01,11.29,23.32,16.47625
"1392",2010-05-02,8.35,27.08,15.6008333333333
"1393",2010-05-03,9.98,24.49,16.2320833333333
"1394",2010-05-04,11.95,26.45,17.23625
"1395",2010-05-05,6.234,20.76,14.2041875
"1396",2010-05-06,2.629,22.48,11.5160416666667
"1397",2010-05-07,2.438,23.84,11.7039583333333
"1398",2010-05-08,1.941,24.41,12.149375
"1399",2010-05-09,4.621,25.3,13.7393541666667
"1400",2010-05-10,5.699,25.02,14.0314375
"1401",2010-05-11,4.577,27.43,15.4213958333333
"1402",2010-05-12,2.126,19.8,10.5278958333333
"1403",2010-05-13,-0.144,22.23,11.2269166666667
"1404",2010-05-14,2.6,21.25,10.8226666666667
"1405",2010-05-15,2.417,22.96,11.2151875
"1406",2010-05-16,3.004,22.36,11.2760833333333
"1407",2010-05-17,6.805,17.01,11.5952708333333
"1408",2010-05-18,9.44,19.07,13.1572916666667
"1409",2010-05-19,8.16,21.12,12.9116666666667
"1410",2010-05-20,5.288,20.3,10.8982708333333
"1411",2010-05-21,7.18,21.36,13.0020833333333
"1412",2010-05-22,6.913,19.27,12.6702708333333
"1413",2010-05-23,3.451,18.6,10.4055
"1414",2010-05-24,6.252,18.69,12.2977291666667
"1415",2010-05-25,12.07,17.7,13.8810416666667
"1416",2010-05-26,12.16,15.75,14.0841666666667
"1417",2010-05-27,13.32,18.6,14.8502083333333
"1418",2010-05-28,8.24,20.84,13.6947916666667
"1419",2010-05-29,10.92,17.74,14.1539583333333
"1420",2010-05-30,9.33,20.22,14.3633333333333
"1421",2010-05-31,10.92,18.6,14.445625
"1422",2010-06-01,6.681,19.48,12.7661666666667
"1423",2010-06-02,6.708,20.98,12.8933125
"1424",2010-06-03,13.5,19.58,15.4083333333333
"1425",2010-06-04,13.92,16.11,14.6670833333333
"1426",2010-06-05,7.64,21.37,15.268125
"1427",2010-06-06,4.211,19.16,11.1371875
"1428",2010-06-07,3.448,17.79,10.468125
"1429",2010-06-08,4.838,19.07,10.1715
"1430",2010-06-09,2.938,17.18,9.95777083333333
"1431",2010-06-10,3.123,17.76,11.282875
"1432",2010-06-11,-0.638,18.14,7.3125
"1433",2010-06-12,-0.334,17.42,7.0053125
"1434",2010-06-13,-0.615,18.25,7.2503125
"1435",2010-06-14,0.027,18.7,7.73508333333333
"1436",2010-06-15,2.465,19.05,9.1890625
"1437",2010-06-16,3.616,20.51,9.5994375
"1438",2010-06-17,7.51,20.02,13.6952083333333
"1439",2010-06-18,3.765,19.31,10.9465833333333
"1440",2010-06-19,0.166,20.66,9.1421875
"1441",2010-06-20,1.286,20.93,9.69685416666667
"1442",2010-06-21,3.223,19.38,10.9547916666667
"1443",2010-06-22,10.97,16.51,13.40875
"1444",2010-06-23,9.81,17.04,12.7329166666667
"1445",2010-06-24,9.34,19.94,13.0402083333333
"1446",2010-06-25,8.94,20.82,13.9097916666667
"1447",2010-06-26,3.525,20.23,13.5603541666667
"1448",2010-06-27,-0.802,17.28,6.68397916666667
"1449",2010-06-28,-1.662,16.55,5.72114583333333
"1450",2010-06-29,-3.844,15.11,3.93510416666667
"1451",2010-06-30,-4.755,16.31,4.67645833333333
"1452",2010-07-01,-0.949,17.66,6.6208125
"1453",2010-07-02,2.425,11.93,6.7750625
"1454",2010-07-03,2.743,16.95,8.81010416666667
"1455",2010-07-04,0.94,19.27,8.74452083333333
"1456",2010-07-05,3.186,15.35,9.60385416666667
"1457",2010-07-06,8.99,18.88,12.063125
"1458",2010-07-07,7.16,16.63,11.23625
"1459",2010-07-08,2.186,16.32,9.65995833333333
"1460",2010-07-09,7.29,18.45,11.7808333333333
"1461",2010-07-10,6.374,18.45,11.4230833333333
"1462",2010-07-11,8.6,19.37,12.880625
"1463",2010-07-12,7.02,17.25,11.5195833333333
"1464",2010-07-13,9.7,17.36,13.7854166666667
"1465",2010-07-14,12.93,18.16,15.5722916666667
"1466",2010-07-15,3.684,17.81,11.5253333333333
"1467",2010-07-16,-1.063,17.92,7.49954166666667
"1468",2010-07-17,-0.286,17.66,7.41591666666667
"1469",2010-07-18,0.26,20.56,8.15064583333333
"1470",2010-07-19,3.572,18.99,9.06502083333333
"1471",2010-07-20,2.72,17.88,10.0142916666667
"1472",2010-07-21,1.267,14.8,7.0880625
"1473",2010-07-22,-1.305,16.73,6.97289583333333
"1474",2010-07-23,0.654,19.61,9.76579166666667
"1475",2010-07-24,8.17,19.56,12.2910416666667
"1476",2010-07-25,7.29,17.62,11.8729166666667
"1477",2010-07-26,6.893,18.18,11.6672916666667
"1478",2010-07-27,9.63,17.83,12.913125
"1479",2010-07-28,10.66,13.03,12.129375
"1480",2010-07-29,8.57,14.85,12.2964583333333
"1481",2010-07-30,10.35,21.95,14.3620833333333
"1482",2010-07-31,9.23,21.23,14.9495833333333
"1483",2010-08-01,4.433,20.97,12.0745625
"1484",2010-08-02,7.01,15.83,11.8827083333333
"1485",2010-08-03,8.44,18.5,14.078125
"1486",2010-08-04,3.422,19.71,10.629875
"1487",2010-08-05,1.428,16.8,8.92347916666667
"1488",2010-08-06,-0.667,18.2,7.78027083333333
"1489",2010-08-07,-0.075,16.86,7.99902083333333
"1490",2010-08-08,-0.027,17.96,7.96702083333333
"1491",2010-08-09,-0.221,19.24,8.55970833333333
"1492",2010-08-10,6.089,13,10.2640625
"1493",2010-08-11,8,17.06,12.5679166666667
"1494",2010-08-12,10.65,17.44,13.95
"1495",2010-08-13,3.167,20.04,11.58625
"1496",2010-08-14,1.896,22,11.81575
"1497",2010-08-15,5.68,20.5,14.2076458333333
"1498",2010-08-16,10.33,18.25,14.4791666666667
"1499",2010-08-17,2.072,18.56,9.48825
"1500",2010-08-18,0.192,21.05,10.7580625
"1501",2010-08-19,10.39,24.64,17.2208333333333
"1502",2010-08-20,3.62,18.22,12.5845833333333
"1503",2010-08-21,3.038,16.92,9.82016666666667
"1504",2010-08-22,-0.402,19.01,9.24247916666667
"1505",2010-08-23,8.31,15.86,11.2820833333333
"1506",2010-08-24,4.157,19.92,12.9789375
"1507",2010-08-25,7.89,17.02,12.741875
"1508",2010-08-26,9.03,17.11,12.68625
"1509",2010-08-27,6.662,18.35,12.9731666666667
"1510",2010-08-28,1.629,19.35,10.0991041666667
"1511",2010-08-29,0.705,19.99,10.7786041666667
"1512",2010-08-30,8.03,20.98,14.19375
"1513",2010-08-31,5.976,24.16,14.3473541666667
"1514",2010-09-01,7.22,25.31,15.4260416666667
"1515",2010-09-02,12.86,20.58,15.9852083333333
"1516",2010-09-03,11.47,15.22,13.2472916666667
"1517",2010-09-04,13.14,20.87,16.8283333333333
"1518",2010-09-05,11.52,20.43,17.4729166666667
"1519",2010-09-06,5.485,20.58,13.318875
"1520",2010-09-07,3.275,18.98,10.5780625
"1521",2010-09-08,2.353,20.25,10.897625
"1522",2010-09-09,4.59,19.09,11.5912083333333
"1523",2010-09-10,8.06,24.35,14.43125
"1524",2010-09-11,4.033,23.03,13.3213958333333
"1525",2010-09-12,2.522,21.33,12.3613333333333
"1526",2010-09-13,9.9,24.79,15.855625
"1527",2010-09-14,9.86,19.4,14.398125
"1528",2010-09-15,8.19,23.45,14.893125
"1529",2010-09-16,5.749,20.34,13.004125
"1530",2010-09-17,2.058,20.97,12.0357708333333
"1531",2010-09-18,2.037,24.62,12.5396666666667
"1532",2010-09-19,6.046,19.59,12.5252291666667
"1533",2010-09-20,5.309,22.09,13.8257083333333
"1534",2010-09-21,6.13,26.35,15.0005
"1535",2010-09-22,12.14,24.27,16.5354166666667
"1536",2010-09-23,13.97,21.09,16.6939583333333
"1537",2010-09-24,9.9,27.84,18.4339583333333
"1538",2010-09-25,5.221,26.33,16.0193333333333
"1539",2010-09-26,5.66,26.75,15.954125
"1540",2010-09-27,6.804,28.85,17.966875
"1541",2010-09-28,7.33,27.41,17.914375
"1542",2010-09-29,8.03,20.72,13.9235416666667
"1543",2010-09-30,2.81,21.11,11.9149791666667
"1544",2010-10-01,3.809,19,12.5510833333333
"1545",2010-10-02,9.85,19.05,14.53875
"1546",2010-10-03,13.79,19.78,16.0570833333333
"1547",2010-10-04,14.87,19.18,16.610625
"1548",2010-10-05,15.63,25.33,19.2045833333333
"1549",2010-10-06,15.99,23.43,19.0910416666667
"1550",2010-10-07,13.63,24.72,17.1166666666667
"1551",2010-10-08,13.19,23.38,17.3089583333333
"1552",2010-10-09,13.66,18.19,15.60625
"1553",2010-10-10,13.23,21.77,16.4797916666667
"1554",2010-10-11,12,21.93,16.7139583333333
"1555",2010-10-12,11.23,25.17,17.7560416666667
"1556",2010-10-13,13.07,27.29,18.7010416666667
"1557",2010-10-14,16.95,29.72,22.6070833333333
"1558",2010-10-15,15.2,25.5,20.3660416666667
"1559",2010-10-16,5.57,16.53,13.0535416666667
"1560",2010-10-17,3.086,24.41,14.2448125
"1561",2010-10-18,4.784,25.89,15.7577291666667
"1562",2010-10-19,5.783,16.73,12.1602083333333
"1563",2010-10-20,11.03,25.2,17.508125
"1564",2010-10-21,8.52,26.21,17.59375
"1565",2010-10-22,10.75,26.36,18.970625
"1566",2010-10-23,9.65,30.72,19.2908333333333
"1567",2010-10-24,12.52,16.68,14.0416666666667
"1568",2010-10-25,11.49,20.85,16.4995833333333
"1569",2010-10-26,9.84,28.36,18.3922916666667
"1570",2010-10-27,8.44,27.8,17.3785416666667
"1571",2010-10-28,13.54,20.06,16.5385416666667
"1572",2010-10-29,11.68,22.04,16.9375
"1573",2010-10-30,10.94,31.62,20.7052083333333
"1574",2010-10-31,16.78,31.64,22.6197916666667
"1575",2010-11-01,13.53,21.43,17.104375
"1576",2010-11-02,10.87,20.48,16.1795833333333
"1577",2010-11-03,7.69,25.29,17.0660416666667
"1578",2010-11-04,12.81,18.76,14.858125
"1579",2010-11-05,11.86,19.61,14.819375
"1580",2010-11-06,12.44,19.09,14.7704166666667
"1581",2010-11-07,11.64,25.8,17.5725
"1582",2010-11-08,12.89,33.03,21.7714583333333
"1583",2010-11-09,16.74,26.49,20.9260416666667
"1584",2010-11-10,16.85,31.2,22.4279166666667
"1585",2010-11-11,17.44,30.07,23.4360416666667
"1586",2010-11-12,14.97,33.68,23.8147916666667
"1587",2010-11-13,16.61,34.61,25.4995833333333
"1588",2010-11-14,20.57,34.45,27.63625
"1589",2010-11-15,18.47,25.38,20.96125
"1590",2010-11-16,17.66,27.66,21.174375
"1591",2010-11-17,17.2,23.02,18.9572916666667
"1592",2010-11-18,13.98,27.27,20.8947916666667
"1593",2010-11-19,15.28,18.3,16.9272916666667
"1594",2010-11-20,11.34,26.11,18.608125
"1595",2010-11-21,10.34,26.85,18.81625
"1596",2010-11-22,12.09,26.73,19.6125
"1597",2010-11-23,11.7,28.36,20.1620833333333
"1598",2010-11-24,12.14,30.85,21.6147916666667
"1599",2010-11-25,14.18,32.99,23.4822916666667
"1600",2010-11-26,14.54,31.81,23.3445833333333
"1601",2010-11-27,16.26,31.1,23.3139583333333
"1602",2010-11-28,17.12,23.79,19.7425
"1603",2010-11-29,16.65,19.64,17.9972916666667
"1604",2010-11-30,16.69,22.06,19.1416666666667
"1605",2010-12-01,17.83,21.74,19.4785416666667
"1606",2010-12-02,18.09,26.95,21.6089583333333
"1607",2010-12-03,18.72,28.93,22.1729166666667
"1608",2010-12-04,18.82,26.37,21.5164583333333
"1609",2010-12-05,19.52,26.85,22.4397916666667
"1610",2010-12-06,18.84,28.56,23.1139583333333
"1611",2010-12-07,18.08,28.86,23.1608333333333
"1612",2010-12-08,16.58,34.68,25.455625
"1613",2010-12-09,22.72,32.73,26.935
"1614",2010-12-10,18.86,31.13,25.0589583333333
"1615",2010-12-11,14.15,33.6,23.3620833333333
"1616",2010-12-12,14.13,32.14,23.9797916666667
"1617",2010-12-13,14.29,29.25,21.8427083333333
"1618",2010-12-14,17.82,27.95,22.861875
"1619",2010-12-15,18.01,32.79,24.8825
"1620",2010-12-16,17.21,31.15,22.1277083333333
"1621",2010-12-17,16.76,27.74,20.9497916666667
"1622",2010-12-18,15.08,25.15,20.3133333333333
"1623",2010-12-19,13.88,27.88,19.1877083333333
"1624",2010-12-20,12.08,23.35,17.5291666666667
"1625",2010-12-21,11.3,27.96,20.2241666666667
"1626",2010-12-22,10.86,27.36,19.9614583333333
"1627",2010-12-23,14.57,32.54,22.2275
"1628",2010-12-24,14.7,24.46,20
"1629",2010-12-25,13.39,32.98,23.6404166666667
"1630",2010-12-26,19.24,31.03,23.48125
"1631",2010-12-27,14.13,20.07,17.7304166666667
"1632",2010-12-28,13.67,21.82,17.7760416666667
"1633",2010-12-29,13.78,31.45,22.55875
"1634",2010-12-30,16.48,32.79,24.529375
"1635",2010-12-31,16.57,36.54,25.3658333333333
"1636",2011-01-01,16.83,40.01,27.1722916666667
"1637",2011-01-02,19.09,33.51,23.6452083333333
"1638",2011-01-03,16.89,21.41,18.7989583333333
"1639",2011-01-04,16.63,22.83,19.7325
"1640",2011-01-05,17.61,26.43,20.4641666666667
"1641",2011-01-06,17.58,26.74,22.025625
"1642",2011-01-07,17.37,27.6,22.2220833333333
"1643",2011-01-08,19.78,29.81,24.458125
"1644",2011-01-09,21.25,29.66,24.3435416666667
"1645",2011-01-10,21.14,27.29,23.6447916666667
"1646",2011-01-11,21,24.57,22.8229166666667
"1647",2011-01-12,21.94,30.28,25.5233333333333
"1648",2011-01-13,19.11,28.34,24.85625
"1649",2011-01-14,17.76,31.37,24.823125
"1650",2011-01-15,20.66,31.57,25.1314583333333
"1651",2011-01-16,21.03,30.48,25.226875
"1652",2011-01-17,18.08,35.38,24.570625
"1653",2011-01-18,19.01,28.57,22.7954166666667
"1654",2011-01-19,19.53,28.12,22.6402083333333
"1655",2011-01-20,18.33,28.29,23.9495833333333
"1656",2011-01-21,15.74,32.28,23.9827083333333
"1657",2011-01-22,16.38,31.82,24.103125
"1658",2011-01-23,17.63,32.64,24.7289583333333
"1659",2011-01-24,17.4,34.87,26.1647916666667
"1660",2011-01-25,22.03,38.19,27.333125
"1661",2011-01-26,20.34,41.86,29.3908333333333
"1662",2011-01-27,22.43,37.68,27.6789583333333
"1663",2011-01-28,20.29,26.8,23.1529166666667
"1664",2011-01-29,14.41,28.44,21.5222916666667
"1665",2011-01-30,12.16,38.43,24.7754166666667
"1666",2011-01-31,17.21,41.09,28.6920833333333
"1667",2011-02-01,18.28,41.74,29.9102083333333
"1668",2011-02-02,24.54,39.3,31.4329166666667
"1669",2011-02-03,23.52,39.02,30.3410416666667
"1670",2011-02-04,22.76,40.47,29.84375
"1671",2011-02-05,22.46,41.06,32.90875
"1672",2011-02-06,16.23,34.65,24.8583333333333
"1673",2011-02-07,17.13,24.35,20.3852083333333
"1674",2011-02-08,15.75,26.93,21.585
"1675",2011-02-09,18.41,26.8,22.3429166666667
"1676",2011-02-10,15.46,31.06,22.62625
"1677",2011-02-11,17.1,38.02,26.993125
"1678",2011-02-12,19.24,25.92,21.7689583333333
"1679",2011-02-13,17.99,24.45,20.483125
"1680",2011-02-14,18.61,22.57,20.2441666666667
"1681",2011-02-15,15.8,23.11,20.1029166666667
"1682",2011-02-16,18.16,27.36,22.4495833333333
"1683",2011-02-17,19.71,31.57,24.8154166666667
"1684",2011-02-18,21.03,28.64,24.0452083333333
"1685",2011-02-19,20.89,37.31,28.6264583333333
"1686",2011-02-20,19.83,35.91,28.83375
"1687",2011-02-21,17.07,29.03,21.8466666666667
"1688",2011-02-22,15.19,23.62,18.9191666666667
"1689",2011-02-23,15.32,25.33,20.2029166666667
"1690",2011-02-24,12.95,31.79,21.9258333333333
"1691",2011-02-25,12.09,31.29,21.389375
"1692",2011-02-26,16.53,34.81,24.3695833333333
"1693",2011-02-27,16.36,28.69,22.4585416666667
"1694",2011-02-28,21.69,31.6,24.4539583333333
"1695",2011-03-01,19.75,31.84,25.215
"1696",2011-03-02,17.57,21.12,19.4870833333333
"1697",2011-03-03,14.12,31.77,22.4566666666667
"1698",2011-03-04,15.71,32.4,23.1141666666667
"1699",2011-03-05,16.78,21.71,19.2325
"1700",2011-03-06,13.07,23.85,19.225625
"1701",2011-03-07,12.04,26.51,19.169375
"1702",2011-03-08,11.8,30.82,21.6929166666667
"1703",2011-03-09,16.75,31.31,23.163125
"1704",2011-03-10,17.69,29.11,23.58
"1705",2011-03-11,18.62,29.39,22.70875
"1706",2011-03-12,17.83,30.61,22.855
"1707",2011-03-13,17.81,32.89,23.855625
"1708",2011-03-14,17.32,28.86,21.5447916666667
"1709",2011-03-15,17.91,28.12,22.0377083333333
"1710",2011-03-16,16.63,31.18,22.5047916666667
"1711",2011-03-17,19.34,27.38,22.1841666666667
"1712",2011-03-18,19.45,25.29,21.5191666666667
"1713",2011-03-19,18.98,23.51,20.2483333333333
"1714",2011-03-20,18.93,23.71,20.6010416666667
"1715",2011-03-21,20.38,27.6,22.4422916666667
"1716",2011-03-22,19.45,33.26,24.376875
"1717",2011-03-23,16.1,30.56,22.73
"1718",2011-03-24,12.32,26.57,19.52375
"1719",2011-03-25,13.86,27.19,20.7614583333333
"1720",2011-03-26,13.51,23.19,18.5314583333333
"1721",2011-03-27,12.98,20.85,17.436875
"1722",2011-03-28,12.36,24.12,18.57125
"1723",2011-03-29,14.2,28.61,20.6045833333333
"1724",2011-03-30,13.59,30.98,19.8070833333333
"1725",2011-03-31,15.57,21.5,18.1789583333333
"1726",2011-04-01,13.61,25.4,18.721875
"1727",2011-04-02,11.66,24,17.7077083333333
"1728",2011-04-03,11.12,25.98,18.3958333333333
"1729",2011-04-04,15.65,24.42,19.2595833333333
"1730",2011-04-05,14.95,20.16,16.710625
"1731",2011-04-06,14.55,22.14,17.4679166666667
"1732",2011-04-07,13.43,24.21,18.2125
"1733",2011-04-08,12.33,25.28,17.6154166666667
"1734",2011-04-09,9.2,28.64,17.4445833333333
"1735",2011-04-10,9.66,28.03,17.4016666666667
"1736",2011-04-11,8.09,22.85,15.7239583333333
"1737",2011-04-12,5.622,21.72,14.0393958333333
"1738",2011-04-13,7.11,23.69,16.25625
"1739",2011-04-14,8.57,24.03,15.6172916666667
"1740",2011-04-15,6.361,22.95,15.5194583333333
"1741",2011-04-16,14.38,17.95,15.67875
"1742",2011-04-17,13.48,22.15,17.26875
"1743",2011-04-18,9.57,23.46,15.8695833333333
"1744",2011-04-19,7.74,26.18,15.8022916666667
"1745",2011-04-20,9.08,20.58,14.9810416666667
"1746",2011-04-21,10.6,26.75,17.2195833333333
"1747",2011-04-22,10.39,26.13,17.465
"1748",2011-04-23,8.41,18.88,14.1597916666667
"1749",2011-04-24,10.29,22.48,15.8395833333333
"1750",2011-04-25,13.65,17.97,16.2439583333333
"1751",2011-04-26,14.27,18.55,16.1395833333333
"1752",2011-04-27,14.07,19.66,16.0779166666667
"1753",2011-04-28,14.16,18.04,15.4979166666667
"1754",2011-04-29,12.76,21.22,16.5652083333333
"1755",2011-04-30,15.28,23.31,17.935625
"1756",2011-05-01,11.21,23.07,16.6622916666667
"1757",2011-05-02,8.26,18.69,12.8927083333333
"1758",2011-05-03,12.97,19.57,15.1695833333333
"1759",2011-05-04,9.39,22.98,15.2325
"1760",2011-05-05,5.68,20.6,12.31825
"1761",2011-05-06,4.486,20.32,12.171625
"1762",2011-05-07,NA,NA,NA
"1763",2011-05-08,NA,NA,NA
"1764",2011-05-09,NA,NA,NA
"1765",2011-05-10,NA,NA,NA
"1766",2011-05-11,NA,NA,NA
"1767",2011-05-12,NA,NA,NA
"1768",2011-05-13,NA,NA,NA
"1769",2011-05-14,NA,NA,NA
"1770",2011-05-15,NA,NA,NA
"1771",2011-05-16,NA,NA,NA
"1772",2011-05-17,NA,NA,NA
"1773",2011-05-18,NA,NA,NA
"1774",2011-05-19,NA,NA,NA
"1775",2011-05-20,NA,NA,NA
"1776",2011-05-21,NA,NA,NA
"1777",2011-05-22,NA,NA,NA
"1778",2011-05-23,NA,NA,NA
"1779",2011-05-24,NA,NA,NA
"1780",2011-05-25,NA,NA,NA
"1781",2011-05-26,NA,NA,NA
"1782",2011-05-27,NA,NA,NA
"1783",2011-05-28,NA,NA,NA
"1784",2011-05-29,NA,NA,NA
"1785",2011-05-30,NA,NA,NA
"1786",2011-05-31,NA,NA,NA
"1787",2011-06-01,NA,NA,NA
"1788",2011-06-02,NA,NA,NA
"1789",2011-06-03,NA,NA,NA
"1790",2011-06-04,NA,NA,NA
"1791",2011-06-05,NA,NA,NA
"1792",2011-06-06,NA,NA,NA
"1793",2011-06-07,NA,NA,NA
"1794",2011-06-08,NA,NA,NA
"1795",2011-06-09,NA,NA,NA
"1796",2011-06-10,NA,NA,NA
"1797",2011-06-11,NA,NA,NA
"1798",2011-06-12,NA,NA,NA
"1799",2011-06-13,NA,NA,NA
"1800",2011-06-14,NA,NA,NA
"1801",2011-06-15,NA,NA,NA
"1802",2011-06-16,NA,NA,NA
"1803",2011-06-17,NA,NA,NA
"1804",2011-06-18,NA,NA,NA
"1805",2011-06-19,NA,NA,NA
"1806",2011-06-20,NA,NA,NA
"1807",2011-06-21,NA,NA,NA
"1808",2011-06-22,NA,NA,NA
"1809",2011-06-23,NA,NA,NA
"1810",2011-06-24,NA,NA,NA
"1811",2011-06-25,NA,NA,NA
"1812",2011-06-26,NA,NA,NA
"1813",2011-06-27,NA,NA,NA
"1814",2011-06-28,NA,NA,NA
"1815",2011-06-29,NA,NA,NA
"1816",2011-06-30,NA,NA,NA
"1817",2011-07-01,NA,NA,NA
"1818",2011-07-02,NA,NA,NA
"1819",2011-07-03,NA,NA,NA
"1820",2011-07-04,NA,NA,NA
"1821",2011-07-05,NA,NA,NA
"1822",2011-07-06,NA,NA,NA
"1823",2011-07-07,NA,NA,NA
"1824",2011-07-08,NA,NA,NA
"1825",2011-07-09,NA,NA,NA
"1826",2011-07-10,NA,NA,NA
"1827",2011-07-11,NA,NA,NA
"1828",2011-07-12,NA,NA,NA
"1829",2011-07-13,NA,NA,NA
"1830",2011-07-14,NA,NA,NA
"1831",2011-07-15,NA,NA,NA
"1832",2011-07-16,9.97,16.11,12.7638095238095
"1833",2011-07-17,6.322,16.73,11.0977083333333
"1834",2011-07-18,5.338,19.99,11.2824791666667
"1835",2011-07-19,1.535,16.19,8.544
"1836",2011-07-20,12.13,17.92,14.7454166666667
"1837",2011-07-21,11.05,14.12,12.4897916666667
"1838",2011-07-22,10.44,13.94,11.7314583333333
"1839",2011-07-23,5.034,15.99,11.2940833333333
"1840",2011-07-24,0.422,15.24,7.62820833333333
"1841",2011-07-25,3.925,18.56,10.52825
"1842",2011-07-26,1.791,18.88,8.9640625
"1843",2011-07-27,1.328,17.35,8.75602083333333
"1844",2011-07-28,1.605,20.31,8.617625
"1845",2011-07-29,-0.222,19.72,8.030875
"1846",2011-07-30,-0.871,21.28,8.24689583333333
"1847",2011-07-31,-0.277,20.23,9.52579166666667
"1848",2011-08-01,3.347,21.84,11.5655
"1849",2011-08-02,1.717,23.6,10.9758333333333
"1850",2011-08-03,6.312,25.07,13.3355833333333
"1851",2011-08-04,4.006,27.24,13.221375
"1852",2011-08-05,3.733,24.91,12.98375
"1853",2011-08-06,4.152,23.97,13.0341458333333
"1854",2011-08-07,8.19,19.6,13.638125
"1855",2011-08-08,2.855,18.28,9.65066666666667
"1856",2011-08-09,3.322,16.91,8.57547916666667
"1857",2011-08-10,-0.225,17.64,7.655125
"1858",2011-08-11,0.098,18.09,8.4395
"1859",2011-08-12,5.751,18.28,11.9616458333333
"1860",2011-08-13,1.108,18.67,9.51533333333333
"1861",2011-08-14,7.57,19.23,11.4972916666667
"1862",2011-08-15,2.811,19.58,10.840875
"1863",2011-08-16,5.492,20.53,11.8356041666667
"1864",2011-08-17,5.303,12.85,9.80791666666667
"1865",2011-08-18,5.825,17.47,12.2068541666667
"1866",2011-08-19,2.842,15.42,9.83883333333333
"1867",2011-08-20,9.45,18.9,13.6164583333333
"1868",2011-08-21,9.65,17.7,13.3245833333333
"1869",2011-08-22,7.08,17.04,12.995
"1870",2011-08-23,8.92,18.99,13.5077083333333
"1871",2011-08-24,5.353,19.51,12.1311041666667
"1872",2011-08-25,4.437,23.98,11.5871458333333
"1873",2011-08-26,3.671,23.58,13.0873125
"1874",2011-08-27,8.27,19.69,12.5922916666667
"1875",2011-08-28,6.847,21.29,13.4647291666667
"1876",2011-08-29,5.384,24.23,13.9790625
"1877",2011-08-30,8.03,19.46,14.3910416666667
"1878",2011-08-31,7.27,21.43,14.5697916666667
"1879",2011-09-01,8.86,22.05,15.5275
"1880",2011-09-02,7.96,18.07,13.834375
"1881",2011-09-03,3.702,21.87,12.3707708333333
"1882",2011-09-04,3.883,24.35,13.303375
"1883",2011-09-05,8.88,25.89,16.0045833333333
"1884",2011-09-06,6.93,27.52,17.09125
"1885",2011-09-07,9,21.25,14.720625
"1886",2011-09-08,10.59,19.5,14.685625
"1887",2011-09-09,7.77,15.91,12.1822916666667
"1888",2011-09-10,5.953,17.74,12.1896041666667
"1889",2011-09-11,4.201,19.65,12.6213541666667
"1890",2011-09-12,5.195,19.7,12.8254166666667
"1891",2011-09-13,0.595,23.5,11.9655
"1892",2011-09-14,2.03,25.86,14.6162291666667
"1893",2011-09-15,9.28,24.65,16.35125
"1894",2011-09-16,4.532,30.14,16.3868541666667
"1895",2011-09-17,6.523,30.26,17.3770833333333
"1896",2011-09-18,8.71,32.79,18.1185416666667
"1897",2011-09-19,13.6,27.6,19.2697916666667
"1898",2011-09-20,9.33,27.59,17.8725
"1899",2011-09-21,3.98,24.88,14.8826458333333
"1900",2011-09-22,4.391,24.96,14.80225
"1901",2011-09-23,5.171,31.55,17.8819166666667
"1902",2011-09-24,12.42,18.3,15.1625
"1903",2011-09-25,11.36,13.19,12.1029166666667
"1904",2011-09-26,8.74,18.95,13.58
"1905",2011-09-27,5.892,21.98,13.617
"1906",2011-09-28,8.13,15.74,12.9654166666667
"1907",2011-09-29,13.03,21.21,16.0175
"1908",2011-09-30,8.42,20.62,15.0695833333333
"1909",2011-10-01,5.116,19.14,12.2802916666667
"1910",2011-10-02,10.39,15.56,12.7995833333333
"1911",2011-10-03,7.96,18.38,13.406875
"1912",2011-10-04,6.641,18.85,13.0830833333333
"1913",2011-10-05,8.26,19.51,14.1020833333333
"1914",2011-10-06,11.21,16.81,13.8491666666667
"1915",2011-10-07,13.18,21.65,16.2960416666667
"1916",2011-10-08,14.14,21.93,16.4764583333333
"1917",2011-10-09,9.83,23.34,16.2408333333333
"1918",2011-10-10,6.974,23.47,15.481125
"1919",2011-10-11,6.404,23.18,14.9465
"1920",2011-10-12,6.062,22.09,14.5843958333333
"1921",2011-10-13,12.9,21.07,16.7239583333333
"1922",2011-10-14,13.87,17.57,15.73375
"1923",2011-10-15,15.65,27.22,20.1714583333333
"1924",2011-10-16,11.77,27.72,18.7989583333333
"1925",2011-10-17,6.65,20.99,14.4437291666667
"1926",2011-10-18,9.28,22.61,15.8079166666667
"1927",2011-10-19,6.275,26.33,16.1394583333333
"1928",2011-10-20,7.29,29.21,18.2420833333333
"1929",2011-10-21,9.75,31.57,20.491875
"1930",2011-10-22,11.63,30.43,20.385625
"1931",2011-10-23,14.18,30.75,21.4577083333333
"1932",2011-10-24,12.57,33.8,24.345
"1933",2011-10-25,13.28,23.05,18.1320833333333
"1934",2011-10-26,12.53,15.68,13.8
"1935",2011-10-27,12.11,18.27,15.2154166666667
"1936",2011-10-28,12.66,25.85,18.905
"1937",2011-10-29,13.6,29.26,21.2329166666667
"1938",2011-10-30,12.14,28.52,20.9341666666667
"1939",2011-10-31,9.28,22.86,16.8210416666667
"1940",2011-11-01,13.66,22.86,17.8954166666667
"1941",2011-11-02,11.02,27.09,19.1470833333333
"1942",2011-11-03,14.38,17.67,15.9304166666667
"1943",2011-11-04,13.8,24.85,18.5091666666667
"1944",2011-11-05,10.65,29.53,20.2835416666667
"1945",2011-11-06,13.14,33.3,23.28125
"1946",2011-11-07,17.97,32.62,23.8995833333333
"1947",2011-11-08,16.91,36.8,24.62625
"1948",2011-11-09,18.2,35.83,25.6060416666667
"1949",2011-11-10,18.34,29.5,24.7420833333333
"1950",2011-11-11,16.18,26.41,20.7297916666667
"1951",2011-11-12,17.95,29.92,22.4275
"1952",2011-11-13,16.09,28.37,21.3622916666667
"1953",2011-11-14,14.71,37.19,25.9891666666667
"1954",2011-11-15,14.63,30.09,22.1339583333333
"1955",2011-11-16,13.21,23.5,17.5141666666667
"1956",2011-11-17,15.95,18.28,17.1789583333333
"1957",2011-11-18,17.69,27.79,21.5745833333333
"1958",2011-11-19,17.68,35.93,25.565
"1959",2011-11-20,18.58,35.86,24.96
"1960",2011-11-21,13.59,23.01,19.069375
"1961",2011-11-22,14.77,20.97,17.705625
"1962",2011-11-23,14.23,16.73,15.1602083333333
"1963",2011-11-24,14.53,16.65,15.4716666666667
"1964",2011-11-25,14.46,18.6,16.7258333333333
"1965",2011-11-26,15.97,31.2,22.3020833333333
"1966",2011-11-27,13.27,31.14,22.0985416666667
"1967",2011-11-28,13.34,32.5,23.088125
"1968",2011-11-29,15.77,33.51,23.9783333333333
"1969",2011-11-30,19.06,30.34,24.7564583333333
"1970",2011-12-01,11.88,21.79,17.2602083333333
"1971",2011-12-02,12.78,19.78,16.15625
"1972",2011-12-03,8.73,25.75,17.7472916666667
"1973",2011-12-04,10.48,23.59,15.4595833333333
"1974",2011-12-05,10.29,19.31,15.0064583333333
"1975",2011-12-06,12.3,19.23,15.1510416666667
"1976",2011-12-07,11.87,20.97,16.676875
"1977",2011-12-08,15.53,20.64,17.398125
"1978",2011-12-09,15.28,25.17,19.63625
"1979",2011-12-10,16.18,25.99,20.4170833333333
"1980",2011-12-11,14.96,28.18,20.1427083333333
"1981",2011-12-12,16.59,20.01,17.9641666666667
"1982",2011-12-13,15.69,23.68,18.74
"1983",2011-12-14,12.48,22.39,17.63375
"1984",2011-12-15,14.43,23.39,18.7510416666667
"1985",2011-12-16,11.08,22.54,17.5670833333333
"1986",2011-12-17,13.83,24.06,18.5472916666667
"1987",2011-12-18,12.71,24.88,19.1275
"1988",2011-12-19,17.29,23.97,19.7341666666667
"1989",2011-12-20,16.18,24.18,20.2689583333333
"1990",2011-12-21,17.4,25.5,20.1185416666667
"1991",2011-12-22,17.47,21.31,18.86875
"1992",2011-12-23,18.2,26.95,21.3860416666667
"1993",2011-12-24,18.05,29.06,23.1560416666667
"1994",2011-12-25,16.21,30.23,23.3172916666667
"1995",2011-12-26,18.24,28.91,22.8370833333333
"1996",2011-12-27,18.42,24.64,20.7810416666667
"1997",2011-12-28,17.25,26.23,21.0514583333333
"1998",2011-12-29,14.25,26,20.406875
"1999",2011-12-30,14.02,25.71,19.760625
"2000",2011-12-31,13.1,25.9,19.0422916666667
