Season,Obs,Time,Photo,Cond,Ci,Trmmol,VpdL,Area,StmRat,BLCond,Tair,Tleaf,TBlk,CO2R,CO2S,H2OR,H2OS,RH_R,RH_S,Flow,PARi,PARo,Press,CsMch,HsMch,Status,HHMMSS
Dry,1,316.3,-1.75,0.0398,423,0.93,2.24,6,0.5,2.56,34.83,33.66,35.07,364.5,366.6,"28,995","30,348",51.2,53.59,399.9,0,253,98.79,4.7,2.53,111115,9:21:51
Dry,2,412.5,-0.0821,0.0317,355,0.72,2.18,6,0.5,2.56,34.41,33.34,34.63,364.4,364.2,"29,046","30,093",52.5,54.39,400.2,25,309,98.79,4.77,2.51,111115,9:23:28
Dry,3,509,0.841,0.0256,298,0.558,2.08,6,0.5,2.56,34.07,33,34.33,364.2,362.7,"29,211","30,022",53.8,55.29,400.3,50,292,98.79,4.87,2.51,111115,9:25:05
Dry,4,605.3,1.77,0.0243,233,0.51,2.01,6,0.5,2.56,33.76,32.75,34.02,364.2,361.2,"29,283","30,026",54.86,56.26,400.1,100,280,98.79,4.92,2.53,111115,9:26:40
Dry,5,699.5,2.51,0.0228,174,0.47,1.97,6,0.5,2.56,33.5,32.64,33.76,364.2,360.1,"29,518","30,200",56.12,57.42,400.2,200,288,98.79,4.65,2.46,111115,9:28:15
Dry,6,796.3,3.5,0.0293,157,0.595,1.95,6,0.5,2.56,33.25,32.71,33.48,364.1,358.5,"29,726","30,592",57.33,59,400.2,399,743,98.79,4.85,2.54,111115,9:29:52
Dry,7,892.5,5.34,0.0452,155,0.953,2.03,6,0.5,2.56,33.26,33.36,33.45,364.4,355.9,"30,229","31,612",58.27,60.93,400.3,800,418,98.79,4.89,2.56,111115,9:31:28
Dry,8,990.3,6.87,0.0763,195,1.74,2.21,6,0.5,2.56,33.32,34.44,33.43,364,352.8,"30,541","33,056",58.66,63.49,400.2,1602,347,98.78,5.29,2.62,111115,9:33:05
Dry,09:46:59 23min ,,,,,,,,,,,,,,,,,,,,,,,,,,
Dry,9,1831.5,-1.86,0.157,20.7,5.33,3.34,6,0.5,2.56,43.04,39.93,44.85,-1.3,1.4,"33,286","40,947",37.78,46.47,400.1,1001,981,98.79,1.94,2.91,111105,9:47:06
Dry,10,1978,-1.2,0.159,60.4,5.29,3.3,6,0.5,2.56,43.01,39.68,45.04,49.4,50.8,"32,780","40,389",37.25,45.9,400.3,1000,1031,98.79,2.54,2.92,111115,9:49:33
Dry,11,2083,-2.58,0.165,122,5.42,3.26,6,0.5,2.56,43.35,39.56,45.72,99.1,102.2,"32,507","40,311",36.3,45.01,400.2,1001,363,98.79,2.77,2.85,111115,9:51:17
Dry,12,2256.5,2.06,0.146,162,5.07,3.41,6,0.5,2.56,43.62,39.78,46.06,200.3,195.8,"32,321","39,627",35.58,43.63,400.1,1000,1135,98.8,3.91,2.87,111115,9:54:12
Dry,13,2373.3,6.4,0.118,245,4.45,3.68,6,0.5,2.56,43.39,40.21,45.43,366.4,354.4,"32,238","38,656",35.93,43.08,400.1,1000,564,98.79,4.9,2.87,111115,9:56:08
Dry,14,2486.3,-2.29,0.0812,390,2.99,3.55,6,0.5,2.56,43.6,39.34,45.96,364.9,366.7,"32,189","36,512",35.47,40.23,400.1,0,1156,98.78,4.84,2.81,111115,9:58:01
Dry,15,2675.3,9.54,0.0399,353,1.86,4.41,6,0.5,2.56,42.85,41.13,44.26,800.2,783.6,"32,345","35,038",37.07,40.16,399.9,999,487,98.78,6.62,2.82,111115,10:01:10
Dry,16,2841.3,12.8,0.0242,642,1.07,4.17,6,0.5,2.56,41.43,40.3,42.68,1599.3,1577.6,"32,467","34,016",40.08,41.99,400.4,1000,393,98.77,7.72,2.87,111115,10:03:56
Dry,17,3141.5,-0.157,0.034,101,1.37,3.81,6,0.5,2.56,41.27,39.28,43.28,99.6,99.6,"31,654","33,636",39.42,41.89,400.2,1000,405,98.78,2.54,2.64,111115,10:08:55
Dry,10:15:54 8min ,,,,,,,,,,,,,,,,,,,,,,,,,,
Dry,18,3561.8,-1.39,0.0777,29.1,1.8,2.25,6,0.5,2.56,35.19,34.58,36.47,-1.8,0.2,"30,464","33,074",52.72,57.23,400.1,1001,232,98.76,1.15,2.56,111105,10:15:57
Dry,19,3689.3,-0.349,0.0828,57.2,2.03,2.39,6,0.5,2.56,35.77,34.96,36.84,52.1,52.5,"29,910","32,860",50.11,55.05,400.1,1000,271,98.76,2.01,2.56,111115,10:18:05
Dry,20,3801.3,0.612,0.0906,87.5,2.26,2.43,6,0.5,2.56,35.76,35.11,36.64,103.8,102.5,"29,640","32,912",49.69,55.17,400.2,999,238,98.76,2.78,2.57,111115,10:19:57
Dry,21,3916.3,2.69,0.101,146,2.48,2.4,6,0.5,2.56,35.67,35.03,36.45,201.9,197.2,"29,378","32,974",49.5,55.55,400,1000,262,98.76,3.71,2.59,111115,10:21:51
Dry,22,4035.3,7.13,0.111,236,2.66,2.36,6,0.5,2.56,35.67,34.91,36.46,366.4,354.3,"29,209","33,065",49.21,55.7,400.2,999,280,98.75,5.06,2.62,111115,10:23:50
Dry,23,4161.5,-1.54,0.11,376,2.36,2.11,6,0.5,2.56,36.15,33.98,37.25,365,366,"29,233","32,661",47.96,53.59,400.1,0,240,98.75,4.8,2.61,111115,10:25:57
Dry,24,4302.3,14.3,0.0879,483,2.21,2.46,6,0.5,2.56,34.97,35.01,35.28,801,777,"29,158","32,369",51.05,56.67,400.1,1001,190,98.74,7.07,2.67,111115,10:28:18
Dry,25,4453.3,18,0.0583,1.01E+03,1.55,2.57,6,0.5,2.56,35.23,35.03,35.86,1601.1,1570.5,"28,979","31,236",50.01,53.91,400.2,1000,265,98.74,7.44,2.67,111115,10:30:48
Dry,10:40:13 8min ,,,,,,,,,,,,,,,,,,,,,,,,,,
Dry,26,5021.3,-1.22,0.128,16.6,1.79,1.39,6,0.5,2.56,29.41,31.05,28.63,-0.9,0.9,"29,093","31,691",69.76,75.98,400.1,999,96,98.73,1.51,2.53,111105,10:40:15
Dry,27,5142.3,-0.339,0.143,53.8,1.9,1.33,6,0.5,2.56,29.22,30.91,28.43,50.7,51,"29,246","32,007",70.9,77.59,400,1000,74,98.72,2.24,2.59,111115,10:42:17
Dry,28,5311,0.911,0.151,85.3,1.95,1.29,6,0.5,2.56,29.34,31.03,28.46,99,97.4,"29,872","32,699",71.9,78.7,400,1000,132,98.72,2.78,2.61,111115,10:45:06
Dry,29,5419,3.63,0.166,154,2.07,1.26,6,0.5,2.56,29.28,31.14,28.25,200.5,194.4,"30,258","33,266",73.08,80.34,400.1,999,140,98.71,3.96,2.69,111115,10:46:54
Dry,30,5568.3,8.9,0.184,263,2.18,1.21,6,0.5,2.56,29.2,31.11,28.04,365.6,351.1,"30,603","33,771",74.25,81.93,399.9,1000,134,98.7,5.3,2.77,111115,10:49:23
Dry,31,5665.3,-0.705,0.199,365,1.96,1.01,6,0.5,2.56,30.31,30.29,30.02,364.9,364.9,"30,846","33,685",70.2,76.66,400.1,1,86,98.7,5.01,2.72,111115,10:51:01
Dry,32,5813.3,15.3,0.157,596,1.88,1.2,6,0.5,2.56,29.05,31.24,27.65,798.6,773.5,"31,412","34,139",76.85,83.52,400.1,1001,220,98.7,7.53,2.84,111115,10:53:29
Dry,33,5964.5,16.5,0.175,1.38E+03,2.01,1.16,6,0.5,2.56,29.07,31.21,27.85,1601,1571.6,"31,574","34,483",77.19,84.3,400,1000,178,98.69,8.73,3.02,111115,10:56:00
Dry,11:11:40 15min ,,,,,,,,,,,,,,,,,,,,,,,,,,
Dry,34,6911,-1.58,0.211,13.7,2.51,1.23,6,0.5,2.56,25.87,28.46,24.13,-1.3,1,"23,381","27,046",68.89,79.69,399.8,1000,58,98.68,1.54,2.36,111105,11:11:45
Dry,35,7084,-0.184,0.206,50.1,2.13,1.06,6,0.5,2.56,25.41,28.13,23.67,49.4,49.5,"24,865","27,968",75.31,84.71,400.1,1000,59,98.67,2.76,2.57,111115,11:14:39
Dry,36,7258.5,1.21,0.282,88.4,3.12,1.17,6,0.5,2.56,24.99,27.55,23.26,100,97.7,"21,023","25,578",65.28,79.42,400,1000,134,98.67,2.88,2.32,111115,11:17:34
Dry,37,7378,4.39,0.276,163,3.13,1.2,6,0.5,2.56,25.05,27.54,23.34,201.7,194.2,"20,704","25,281",64.06,78.22,400.1,998,167,98.66,3.93,2.29,111115,11:19:33
Dry,38,7497,9.36,0.289,287,3.32,1.22,6,0.5,2.56,25.11,27.7,23.39,366.2,350.4,"20,551","25,410",63.34,78.32,399.9,1000,194,98.65,5.11,2.31,111115,11:21:31
Dry,39,7598.3,-0.822,0.302,363,3.1,1.1,6,0.5,2.56,26,26.87,24.91,364.9,364.5,"20,358","24,892",59.5,72.76,400,0,164,98.65,5.05,2.28,111115,11:23:14
Dry,40,7743.3,12.8,0.281,680,3.61,1.36,6,0.5,2.56,25.96,28.42,24.21,799.9,776.5,"20,365","25,642",59.67,75.13,400.1,1000,125,98.65,7.41,2.35,111115,11:25:38
Dry,41,7896.3,14.3,0.28,1.45E+03,3.65,1.38,6,0.5,2.56,26.11,28.6,24.34,1599.5,1569.4,"20,477","25,814",59.47,74.97,400.1,1000,186,98.64,7.05,2.42,111115,11:28:11
