"Parameter","Aad","alpha_ad","delta","R2_Marginal","R2_conditional"
"delSJ","654.37 (4.21)","-0.81 (0.24)","-0.5 (0.15)",0.113441257659045,0.563864603568465
"JVr","2.29 (0.13)","-0.03 (0.01)","-0.02 (0)",0.151859718903589,0.727577588694542
