"","PFT","Vcmax25.mean"
"1","BDT_TE",39.043042798262
"2","BET_TE",82.9746309749906
"3","NET_B",80.4004663017122
"4","NET_TE",42.8136285750056
"5","TET_TE",39.452395958391
"6","TUNDRA",78.3006062100312
