Curve,Tleaf,Ci,Photo,Species,Season,Leaf,Treatment
1,20.04,61.1,-0.0981,C_g,1,1,20
1,20.07,87.4,1.33,C_g,1,1,20
1,20.03,130,2.39,C_g,1,1,20
1,20.02,233,3.32,C_g,1,1,20
1,19.97,407,6.49,C_g,1,1,20
1,19.95,593,9.02,C_g,1,1,20
1,19.97,872,9.79,C_g,1,1,20
1,19.98,986,12.3,C_g,1,1,20
2,24.99,69.4,-0.283,C_g,1,1,25
2,25.07,93.2,0.679,C_g,1,1,25
2,25.09,135,2.28,C_g,1,1,25
2,25.01,209,4.91,C_g,1,1,25
2,25.07,433,10.1,C_g,1,1,25
2,24.97,635,13.3,C_g,1,1,25
2,24.93,937,13.9,C_g,1,1,25
2,24.98,1.23E+03,15.7,C_g,1,1,25
3,29.85,73.2,-0.4,C_g,1,1,30
3,30.04,91.1,0.767,C_g,1,1,30
3,29.99,140,2.18,C_g,1,1,30
3,29.96,216,4.86,C_g,1,1,30
3,30.05,411,9.58,C_g,1,1,30
3,29.97,582,12.4,C_g,1,1,30
3,29.9,762,14.6,C_g,1,1,30
3,29.97,1.00E+03,15.7,C_g,1,1,30
4,34.83,103,-0.647,C_g,1,1,35
4,34.93,103,0.205,C_g,1,1,35
4,35.11,127,1.28,C_g,1,1,35
4,34.78,184,2.49,C_g,1,1,35
4,34.95,283,4.17,C_g,1,1,35
4,34.99,536,5.49,C_g,1,1,35
4,34.93,608,5.33,C_g,1,1,35
4,35.01,906,5.52,C_g,1,1,35
5,34.11,74.4,-0.555,C_g,1,2,35
5,33.9,98.4,0.712,C_g,1,2,35
5,34.07,136,3.02,C_g,1,2,35
5,34.28,195,5.98,C_g,1,2,35
5,34.28,484,17.6,C_g,1,2,35
5,34.83,542,20.2,C_g,1,2,35
5,34.16,615,20.6,C_g,1,2,35
5,33.95,709,22.9,C_g,1,2,35
6,29.21,66.2,-0.255,C_g,1,2,30
6,29.17,87.6,0.932,C_g,1,2,30
6,29.14,128,2.74,C_g,1,2,30
6,29.11,194,5.8,C_g,1,2,30
6,29.37,749,18.7,C_g,1,2,30
6,29.17,825,17.7,C_g,1,2,30
7,25.43,63,-0.225,C_g,1,2,25
7,25.35,88.8,1.23,C_g,1,2,25
7,25.29,141,3.2,C_g,1,2,25
7,25.25,234,6.92,C_g,1,2,25
7,25.22,550,13.2,C_g,1,2,25
7,25.23,572,12.8,C_g,1,2,25
7,25.24,586,12.8,C_g,1,2,25
7,25.13,1.06E+03,16.2,C_g,1,2,25
7,25.21,1.29E+03,16.8,C_g,1,2,25
8,20.99,58.5,-0.0479,C_g,1,2,20
8,21.1,92.4,1.07,C_g,1,2,20
8,21.1,141,2.95,C_g,1,2,20
8,21.01,245,6.16,C_g,1,2,20
8,21.08,733,11.3,C_g,1,2,20
8,21.1,774,10.3,C_g,1,2,20
8,20.92,1.31E+03,11,C_g,1,2,20
8,21.04,1.59E+03,12.4,C_g,1,2,20
9,38.95,101,-0.81,C_g,1,2,40
9,39.27,125,-0.151,C_g,1,2,40
9,39.31,150,0.911,C_g,1,2,40
9,39.47,181,2.95,C_g,1,2,40
9,39.57,567,12.2,C_g,1,2,40
9,39.39,647,14.2,C_g,1,2,40
10,34.4,78.5,-0.597,C_g,1,3,35
10,33.93,104,0.724,C_g,1,3,35
10,34.1,154,2.94,C_g,1,3,35
10,34.45,168,3.6,C_g,1,3,35
10,34.1,442,16,C_g,1,3,35
10,34.93,735,16.5,C_g,1,3,35
10,34.48,754,17.6,C_g,1,3,35
11,30.71,61.9,-0.187,C_g,1,3,30
11,30.53,104,0.96,C_g,1,3,30
11,30.53,171,3.38,C_g,1,3,30
11,30.82,282,4.56,C_g,1,3,30
11,30.62,640,14,C_g,1,3,30
11,29.84,1.28E+03,21.4,C_g,1,3,30
12,25.77,64.8,-0.183,C_g,1,3,25
12,25.75,90.5,0.799,C_g,1,3,25
12,25.8,125,2.86,C_g,1,3,25
12,25.51,235,6.74,C_g,1,3,25
12,25.64,897,17.4,C_g,1,3,25
12,25.97,1.42E+03,18,C_g,1,3,25
12,25.93,1.45E+03,18.1,C_g,1,3,25
12,25.9,1.47E+03,17.9,C_g,1,3,25
12,25.88,1.49E+03,18,C_g,1,3,25
13,21.65,69,-0.281,C_g,1,3,20
13,21.66,103,0.726,C_g,1,3,20
13,21.72,222,4.33,C_g,1,3,20
13,21.89,271,6.19,C_g,1,3,20
13,21.81,1.27E+03,13.6,C_g,1,3,20
13,21.79,1.48E+03,13.6,C_g,1,3,20
14,34.62,76.5,-0.511,C_g,1,4,35
14,34.61,96.5,0.574,C_g,1,4,35
14,34.68,145,2.23,C_g,1,4,35
14,34.83,223,4.9,C_g,1,4,35
14,35.3,646,15.1,C_g,1,4,35
14,35.87,661,20.8,C_g,1,4,35
14,35.28,675,15.1,C_g,1,4,35
14,35.27,682,15.1,C_g,1,4,35
14,35.87,774,18.8,C_g,1,4,35
14,35.86,848.3333333,17.6,C_g,1,4,35
14,35.84,1.11E+03,13.2,C_g,1,4,35
15,30.01,66.6,-0.412,C_g,1,4,30
15,30.01,93.5,1.13,C_g,1,4,30
15,29.96,147,3.45,C_g,1,4,30
15,29.99,243,7.04,C_g,1,4,30
15,30.47,799,17,C_g,1,4,30
15,30.25,969,18.7,C_g,1,4,30
15,30.23,990,18.5,C_g,1,4,30
15,30.23,994,18.5,C_g,1,4,30
16,25.53,57.8,0.0216,C_g,1,4,25
16,25.36,90.8,1.32,C_g,1,4,25
16,25.27,145,3.49,C_g,1,4,25
16,25.12,251,7.11,C_g,1,4,25
16,25.32,1.19E+03,16.5,C_g,1,4,25
16,25.31,1.20E+03,16.3,C_g,1,4,25
16,25.31,1.21E+03,16.4,C_g,1,4,25
16,25.49,1.22E+03,16.7,C_g,1,4,25
16,25.51,1.22E+03,16.5,C_g,1,4,25
16,25.5,1.22E+03,16.4,C_g,1,4,25
17,21.34,59.2,-0.047,C_g,1,4,20
17,21.19,84.8,1.57,C_g,1,4,20
17,21.03,148,3.2,C_g,1,4,20
17,21.01,256,6.19,C_g,1,4,20
17,21.05,1.31E+03,13.1,C_g,1,4,20
17,21.06,1.31E+03,13.1,C_g,1,4,20
17,21.08,1.31E+03,12.9,C_g,1,4,20
17,21.15,1.63E+03,14.5,C_g,1,4,20
17,21.15,1.63E+03,14.1,C_g,1,4,20
17,21.15,1.63E+03,14.1,C_g,1,4,20
18,34.38,76.1,-0.543,C_g,1,5,35
18,34.35,93.3,0.681,C_g,1,5,35
18,33.74,143,3.23,C_g,1,5,35
18,34.75,174,2.86,C_g,1,5,35
18,34.58,676,9.31,C_g,1,5,35
18,34.52,678,9.03,C_g,1,5,35
18,34.57,694,9.26,C_g,1,5,35
18,34.53,780,8.76,C_g,1,5,35
18,34.53,826,8.5,C_g,1,5,35
18,34.54,838,8.48,C_g,1,5,35
19,29.49,65.6,-0.274,C_g,1,5,30
19,29.26,89.2,1.35,C_g,1,5,30
19,28.95,140,4.1,C_g,1,5,30
19,29.6,197,7.05,C_g,1,5,30
19,28.83,228,8.83,C_g,1,5,30
19,29.06,758,19.6,C_g,1,5,30
19,29.04,786,20.4,C_g,1,5,30
19,29.03,791,20.5,C_g,1,5,30
20,24.72,57.3,0.054,C_g,1,5,25
20,24.52,82.8,1.55,C_g,1,5,25
20,24.24,131,4.51,C_g,1,5,25
20,24.1,233,9.46,C_g,1,5,25
20,24.38,619,16.5,C_g,1,5,25
20,24.02,1.29E+03,19.2,C_g,1,5,25
20,24.23,1.52E+03,22.2,C_g,1,5,25
21,20.58,55,0.298,C_g,1,5,20
21,20.51,94.9,2.07,C_g,1,5,20
21,20.49,157,5.19,C_g,1,5,20
21,20.36,278,10.1,C_g,1,5,20
21,20.34,1.01E+03,15.1,C_g,1,5,20
21,20.6,1.31E+03,17.9,C_g,1,5,20
21,20.88,1.45E+03,19,C_g,1,5,20
22,34.03,69.1,-0.563,C_g,1,6,35
22,34.01,100,0.902,C_g,1,6,35
22,34.22,149,3.27,C_g,1,6,35
22,34.9,176,4.24,C_g,1,6,35
22,33.56,222,6.68,C_g,1,6,35
22,35.1,524,11.2,C_g,1,6,35
22,35.08,528,12,C_g,1,6,35
22,35.14,530,10.8,C_g,1,6,35
23,29.98,70.9,-0.261,C_g,1,6,30
23,29.47,85.9,0.945,C_g,1,6,30
23,29,139,3.54,C_g,1,6,30
23,28.73,230,7.59,C_g,1,6,30
23,29.33,820,15.1,C_g,1,6,30
23,29.29,841,15.6,C_g,1,6,30
23,29.28,848,15.8,C_g,1,6,30
23,29.09,1.06E+03,18.5,C_g,1,6,30
23,29.06,1.10E+03,19.5,C_g,1,6,30
23,29.05,1.10E+03,19.7,C_g,1,6,30
24,24.16,57.7,-0.0249,C_g,1,6,25
24,24.14,85.3,1.66,C_g,1,6,25
24,24.05,140,4.13,C_g,1,6,25
24,23.9,255,8.16,C_g,1,6,25
24,24.29,1.26E+03,17.2,C_g,1,6,25
24,23.97,1.27E+03,16,C_g,1,6,25
24,23.97,1.27E+03,16.1,C_g,1,6,25
24,24.22,1.30E+03,17.5,C_g,1,6,25
25,19.64,51.8,0.251,C_g,1,6,20
25,19.71,90.2,1.36,C_g,1,6,20
25,19.68,137,3.36,C_g,1,6,20
25,19.65,249,6.58,C_g,1,6,20
25,19.67,1.31E+03,12.9,C_g,1,6,20
25,19.83,1.57E+03,15.4,C_g,1,6,20
26,24.78,59.9,-0.0665,C_s,1,1,25
26,24.98,90,1.44,C_s,1,1,25
26,25.06,142,4.16,C_s,1,1,25
26,25.26,232,9.13,C_s,1,1,25
26,25.12,491,17.9,C_s,1,1,25
26,24.67,742,22.5,C_s,1,1,25
26,24.95,1.13E+03,23.1,C_s,1,1,25
26,25.06,1.46E+03,24.1,C_s,1,1,25
27,29.7,62.9,-0.242,C_s,1,1,30
27,29.97,95.7,1.06,C_s,1,1,30
27,30.01,138,3.77,C_s,1,1,30
27,30.05,217,8.52,C_s,1,1,30
27,30.11,386,17.6,C_s,1,1,30
27,29.93,544,22.3,C_s,1,1,30
27,30.05,769,25.5,C_s,1,1,30
27,30.02,969,28.6,C_s,1,1,30
29,39.44,90.4,-0.863,C_s,1,1,40
29,39.76,106,0.199,C_s,1,1,40
29,39.98,129,1.89,C_s,1,1,40
29,39.74,195,3.61,C_s,1,1,40
29,39.37,306,9.2,C_s,1,1,40
29,39.64,517,12.3,C_s,1,1,40
29,39.99,754,14.8,C_s,1,1,40
29,39.92,875,18.8,C_s,1,1,40
30,22.68,56.6,0.0956,C_s,1,1,20
30,22.78,87.4,2.45,C_s,1,1,20
30,22.72,138,6.16,C_s,1,1,20
30,22.67,243,11.4,C_s,1,1,20
30,22.7,565,17.2,C_s,1,1,20
30,22.78,907,19,C_s,1,1,20
30,22.98,1.23E+03,20.9,C_s,1,1,20
30,23.02,1.56E+03,21.8,C_s,1,1,20
33,34.21,73.9,-0.405,C_s,1,2,35
33,34.37,94.2,0.526,C_s,1,2,35
33,34.14,132,1.99,C_s,1,2,35
33,34.4,188,4.67,C_s,1,2,35
33,34.6,594,20.3,C_s,1,2,35
33,34.71,764,22,C_s,1,2,35
34,30.15,66,-0.303,C_s,1,2,30
34,30.11,85.4,1.36,C_s,1,2,30
34,30.09,127,3.94,C_s,1,2,30
34,30.06,198,8.49,C_s,1,2,30
34,30.12,355,15.8,C_s,1,2,30
34,29.99,631,22.1,C_s,1,2,30
34,30.15,794,25.9,C_s,1,2,30
34,30.24,1.02E+03,28.4,C_s,1,2,30
35,25.62,59,-0.0147,C_s,1,2,25
35,25.52,84.7,1.89,C_s,1,2,25
35,25.39,131,5.02,C_s,1,2,25
35,25.29,218,10.2,C_s,1,2,25
35,25.25,495,17.5,C_s,1,2,25
35,25.26,830,20.3,C_s,1,2,25
35,25.38,1.17E+03,22.2,C_s,1,2,25
35,25.5,1.51E+03,23.9,C_s,1,2,25
36,21.17,54.5,0.289,C_s,1,2,20
36,21.02,85.8,2.28,C_s,1,2,20
36,21.01,136,5.37,C_s,1,2,20
36,21.03,221,10.8,C_s,1,2,20
36,21.1,599,14.5,C_s,1,2,20
36,21.18,962,14.9,C_s,1,2,20
36,21.27,1.30E+03,17.3,C_s,1,2,20
36,21.17,1.62E+03,19.4,C_s,1,2,20
37,39.89,99,-0.6,C_s,1,2,40
37,39.92,129,-0.207,C_s,1,2,40
37,40.04,172,0.42,C_s,1,2,40
37,40.28,247,1.42,C_s,1,2,40
37,39.71,791,8.02,C_s,1,2,40
37,39.5,963,9.9,C_s,1,2,40
38,33.84,77.1,-0.506,C_s,1,3,35
38,33.88,87.9,0.756,C_s,1,3,35
38,33.97,104,2.92,C_s,1,3,35
38,33.64,142,5.49,C_s,1,3,35
38,34.52,229,8.02,C_s,1,3,35
38,34.56,257,11.1,C_s,1,3,35
38,34.4,327,14.1,C_s,1,3,35
38,34.6,513,25.5,C_s,1,3,35
38,34.6,525,24.9,C_s,1,3,35
38,34.25,538,25,C_s,1,3,35
39,30.21,66.2,-0.416,C_s,1,3,30
39,30,87.9,1.68,C_s,1,3,30
39,29.8,131,5.42,C_s,1,3,30
39,29.8,202,11.3,C_s,1,3,30
39,29.89,363,20.3,C_s,1,3,30
39,29.98,568,26.1,C_s,1,3,30
39,30.13,795,29.3,C_s,1,3,30
39,30.24,999,30.8,C_s,1,3,30
40,25.92,59.2,-0.0989,C_s,1,3,25
40,25.97,87.6,2.48,C_s,1,3,25
40,25.81,132,6.83,C_s,1,3,25
40,25.75,234,13,C_s,1,3,25
40,25.72,525,21.3,C_s,1,3,25
40,25.82,876,23.1,C_s,1,3,25
40,25.94,1.24E+03,24.5,C_s,1,3,25
40,26.18,1.59E+03,25.6,C_s,1,3,25
41,22.85,54,0.307,C_s,1,3,20
41,22.87,89.3,2.4,C_s,1,3,20
41,22.76,139,6.65,C_s,1,3,20
41,22.81,245,12.8,C_s,1,3,20
41,22.8,575,18.6,C_s,1,3,20
41,22.96,916,19.7,C_s,1,3,20
41,23.02,1.26E+03,21.2,C_s,1,3,20
41,23.27,1.58E+03,22.6,C_s,1,3,20
42,39.16,97.9,-0.501,C_s,1,3,40
42,39.08,111,0.034,C_s,1,3,40
42,38.95,146,0.959,C_s,1,3,40
42,38.97,197,2.41,C_s,1,3,40
42,39.16,518,10.7,C_s,1,3,40
42,39.27,619,12.6,C_s,1,3,40
43,35.71,76.7,-0.603,C_s,1,4,35
43,35.48,97.4,0.621,C_s,1,4,35
43,35.21,133,2.86,C_s,1,4,35
43,34.74,192,6.91,C_s,1,4,35
43,34.65,335,15.2,C_s,1,4,35
43,34.99,493,22.7,C_s,1,4,35
43,34.98,678,29.4,C_s,1,4,35
43,34.69,914,34.7,C_s,1,4,35
44,29.82,63.1,-0.241,C_s,1,4,30
44,29.7,88.2,1.8,C_s,1,4,30
44,29.79,135,5.45,C_s,1,4,30
44,30.24,219,11,C_s,1,4,30
44,30.49,396,20.1,C_s,1,4,30
44,30.38,595,26.8,C_s,1,4,30
44,30.37,845,31.4,C_s,1,4,30
44,30.51,1.13E+03,33.8,C_s,1,4,30
45,26.24,58.5,0.0184,C_s,1,4,25
45,26.23,89,2.5,C_s,1,4,25
45,26.43,140,6.46,C_s,1,4,25
45,26.44,236,12.8,C_s,1,4,25
45,26.27,482,21.8,C_s,1,4,25
45,26.34,759,25.3,C_s,1,4,25
45,26.37,1.05E+03,28.1,C_s,1,4,25
45,26.45,1.34E+03,29.8,C_s,1,4,25
46,40.39,89.6,-0.73,C_s,1,4,40
46,40.18,113,-0.0518,C_s,1,4,40
46,39.55,153,0.99,C_s,1,4,40
46,39.19,209,3.08,C_s,1,4,40
46,39.28,505,11.4,C_s,1,4,40
46,39.34,634,14.9,C_s,1,4,40
46,39.05,795,18.7,C_s,1,4,40
47,34.62,74.9,-0.651,C_s,1,5,35
47,34.7,92.5,0.846,C_s,1,5,35
47,34.78,125,3.16,C_s,1,5,35
47,34.67,178,7.57,C_s,1,5,35
47,34.57,306,16.9,C_s,1,5,35
47,34.54,420,25.2,C_s,1,5,35
47,34.51,550,32.2,C_s,1,5,35
47,34.51,552,31.9,C_s,1,5,35
47,34.61,704,36.6,C_s,1,5,35
47,34.59,708,36.8,C_s,1,5,35
48,30.26,63.7,-0.306,C_s,1,5,30
48,30.23,86.4,1.99,C_s,1,5,30
48,30.3,133,5.71,C_s,1,5,30
48,30.19,214,12.2,C_s,1,5,30
48,30.08,426,25,C_s,1,5,30
48,30.08,693,32.7,C_s,1,5,30
48,30.08,1.01E+03,36.5,C_s,1,5,30
48,30.14,1.31E+03,39.5,C_s,1,5,30
49,25.56,58.2,0.0511,C_s,1,5,25
49,25.53,85.4,2.77,C_s,1,5,25
49,25.59,135,6.96,C_s,1,5,25
49,25.72,233,13.8,C_s,1,5,25
49,25.61,500,24.7,C_s,1,5,25
49,25.48,803,28.8,C_s,1,5,25
49,25.3,1.09E+03,30.8,C_s,1,5,25
49,25.25,1.41E+03,32.2,C_s,1,5,25
50,21.97,55.6,0.226,C_s,1,5,20
50,22.04,84.6,2.83,C_s,1,5,20
50,22.15,132,7.13,C_s,1,5,20
50,22.2,226,13.5,C_s,1,5,20
50,22.19,527,22,C_s,1,5,20
50,22.46,876,24.1,C_s,1,5,20
50,22.85,1.18E+03,26.5,C_s,1,5,20
50,23.09,1.47E+03,28.1,C_s,1,5,20
51,38.14,99.8,-0.507,C_s,1,5,40
51,38.06,120,-0.0857,C_s,1,5,40
51,37.96,134,0.854,C_s,1,5,40
51,38.16,194,2,C_s,1,5,40
51,38.36,538,9.36,C_s,1,5,40
51,38.63,618,10.6,C_s,1,5,40
52,20.41,61.6,-0.113,E_e,1,1,20
52,20.4,105,0.469,E_e,1,1,20
52,20.38,172,1.35,E_e,1,1,20
52,20.43,283,3.01,E_e,1,1,20
52,20.52,555,6.44,E_e,1,1,20
52,20.63,867,8.54,E_e,1,1,20
52,20.66,1.18E+03,9.72,E_e,1,1,20
52,20.75,1.54E+03,10.3,E_e,1,1,20
53,25.62,79.9,-0.42,E_e,1,1,25
53,25.66,108,0.311,E_e,1,1,25
53,25.78,156,2.06,E_e,1,1,25
53,25.91,269,4.76,E_e,1,1,25
53,25.97,530,10.1,E_e,1,1,25
53,25.95,843,12.3,E_e,1,1,25
53,26.05,1.21E+03,13.4,E_e,1,1,25
53,26.07,1.51E+03,14.9,E_e,1,1,25
54,30.07,72,-0.242,E_e,1,1,30
54,30.16,97.9,0.544,E_e,1,1,30
54,30.19,152,1.99,E_e,1,1,30
54,30.14,203,4.68,E_e,1,1,30
54,30.17,418,8.71,E_e,1,1,30
54,30.46,500,11.8,E_e,1,1,30
54,30.3,670,11.1,E_e,1,1,30
57,34.7,79,-0.527,E_e,1,2,35
57,34.86,100,0.41,E_e,1,2,35
57,34.87,146,1.75,E_e,1,2,35
57,34.76,223,3.84,E_e,1,2,35
57,34.84,876,15.2,E_e,1,2,35
57,34.8,1.10E+03,17.2,E_e,1,2,35
58,30.75,73.2,-0.382,E_e,1,2,30
58,30.71,97.6,0.528,E_e,1,2,30
58,30.69,137,1.85,E_e,1,2,30
58,30.69,217,3.94,E_e,1,2,30
58,30.84,686,10.7,E_e,1,2,30
58,30.81,765,12.6,E_e,1,2,30
59,25.97,66.3,-0.177,E_e,1,2,25
59,25.99,97.1,0.606,E_e,1,2,25
59,25.8,143,2,E_e,1,2,25
59,25.81,240,4.21,E_e,1,2,25
59,25.73,507,7.49,E_e,1,2,25
59,25.74,783,9.33,E_e,1,2,25
59,25.75,1.07E+03,11.1,E_e,1,2,25
59,25.86,1.37E+03,12.2,E_e,1,2,25
60,20.96,60.2,-0.0312,E_e,1,2,20
60,20.84,95.3,0.691,E_e,1,2,20
60,20.96,146,2.06,E_e,1,2,20
60,20.96,255,3.94,E_e,1,2,20
60,20.93,565,6.46,E_e,1,2,20
60,20.92,916,7.41,E_e,1,2,20
60,20.94,1.24E+03,8.71,E_e,1,2,20
60,20.66,1.59E+03,9.24,E_e,1,2,20
61,39.49,97.7,-0.528,E_e,1,2,40
61,39.55,128,-0.18,E_e,1,2,40
61,39.66,165,0.496,E_e,1,2,40
61,39.67,245,1.41,E_e,1,2,40
61,39.5,718,8.16,E_e,1,2,40
61,39.62,955,8.93,E_e,1,2,40
62,34.26,81.7,-0.512,E_e,1,3,35
62,34.16,105,0.207,E_e,1,3,35
62,34.1,144,1.2,E_e,1,3,35
62,33.95,201,3.05,E_e,1,3,35
62,34.22,682,13.4,E_e,1,3,35
62,34.53,866,15.2,E_e,1,3,35
63,30.3,84.6,-0.382,E_e,1,3,30
63,30.06,100,0.26,E_e,1,3,30
63,29.92,138,1.21,E_e,1,3,30
63,29.89,201,2.97,E_e,1,3,30
63,29.83,773,11.6,E_e,1,3,30
63,29.92,1.04E+03,12.6,E_e,1,3,30
64,25.82,75.9,-0.275,E_e,1,3,25
64,25.82,98.8,0.365,E_e,1,3,25
64,25.83,134,1.44,E_e,1,3,25
64,25.81,210,3.18,E_e,1,3,25
64,25.84,1.05E+03,8.89,E_e,1,3,25
64,25.88,1.34E+03,9.91,E_e,1,3,25
65,20.92,68.4,-0.189,E_e,1,3,20
65,20.94,97.7,0.437,E_e,1,3,20
65,20.93,142,1.49,E_e,1,3,20
65,20.99,247,3.14,E_e,1,3,20
65,21.02,1.22E+03,7.38,E_e,1,3,20
65,20.99,1.59E+03,7.46,E_e,1,3,20
66,40.56,103,-0.808,E_e,1,3,40
66,40.52,121,-0.176,E_e,1,3,40
66,40.83,155,0.724,E_e,1,3,40
66,40.73,229,1.97,E_e,1,3,40
66,40.73,726,10.2,E_e,1,3,40
66,40.68,852,13.2,E_e,1,3,40
67,33.63,90.1,-0.496,E_e,1,4,35
67,33.63,103,0.193,E_e,1,4,35
67,33.7,154,0.934,E_e,1,4,35
67,33.71,226,2.78,E_e,1,4,35
67,33.69,750,14.4,E_e,1,4,35
67,33.69,754,14.4,E_e,1,4,35
67,33.61,920,17.2,E_e,1,4,35
67,33.61,929,17.1,E_e,1,4,35
68,30.39,75.2,-0.394,E_e,1,4,30
68,30.29,93.8,0.557,E_e,1,4,30
68,30.29,135,1.85,E_e,1,4,30
68,30.39,206,4.06,E_e,1,4,30
68,30.38,589,11.8,E_e,1,4,30
68,30.41,755,14.2,E_e,1,4,30
68,30.48,963,15.8,E_e,1,4,30
69,25.47,74.3,-0.243,E_e,1,4,25
69,25.35,86.7,0.566,E_e,1,4,25
69,25.37,117,1.73,E_e,1,4,25
69,25.29,187,3.94,E_e,1,4,25
69,25.2,382,8.14,E_e,1,4,25
69,25.2,621,10.4,E_e,1,4,25
69,25.2,843,11.5,E_e,1,4,25
69,25.17,1.09E+03,12.8,E_e,1,4,25
70,21.21,66,-0.169,E_e,1,4,20
70,21.12,99,0.466,E_e,1,4,20
70,20.93,171,1.54,E_e,1,4,20
70,20.68,227,3.83,E_e,1,4,20
70,20.54,525,7.01,E_e,1,4,20
70,20.47,870,8.21,E_e,1,4,20
70,20.49,1.20E+03,9.27,E_e,1,4,20
70,20.43,1.50E+03,9.89,E_e,1,4,20
71,37.53,93.6,-0.469,E_e,1,4,40
71,37.47,123,-0.116,E_e,1,4,40
71,37.39,147,0.744,E_e,1,4,40
71,37.36,225,1.65,E_e,1,4,40
71,37.41,389,3.64,E_e,1,4,40
71,37.58,518,5.84,E_e,1,4,40
71,37.49,679,7.51,E_e,1,4,40
71,37.31,896,8.55,E_e,1,4,40
72,33.54,75.3,-0.57,E_e,1,5,35
72,33.34,102,0.431,E_e,1,5,35
72,33.19,154,2.05,E_e,1,5,35
72,33.37,236,5.04,E_e,1,5,35
72,34.14,502,13.9,E_e,1,5,35
72,34.12,523,13.9,E_e,1,5,35
72,34.11,528,14.1,E_e,1,5,35
72,34.46,829,14.9,E_e,1,5,35
72,34.42,856,15.2,E_e,1,5,35
72,34.41,872,15.2,E_e,1,5,35
73,30.18,84.6,-0.533,E_e,1,5,30
73,30.15,95.7,0.503,E_e,1,5,30
73,30.07,127,2.43,E_e,1,5,30
73,30.12,195,5.28,E_e,1,5,30
73,30.25,703,12.7,E_e,1,5,30
73,30.23,724,13,E_e,1,5,30
73,30.24,741,12.9,E_e,1,5,30
74,25.67,71.3,-0.237,E_e,1,5,25
74,25.65,91.7,0.657,E_e,1,5,25
74,25.63,131,2.29,E_e,1,5,25
74,25.68,220,5.01,E_e,1,5,25
74,25.68,1.03E+03,10.8,E_e,1,5,25
74,25.67,1.04E+03,10.3,E_e,1,5,25
74,25.67,1.05E+03,10.6,E_e,1,5,25
75,20.26,59.2,-0.023,E_e,1,5,20
75,20.2,94.2,0.832,E_e,1,5,20
75,20.11,153,2.54,E_e,1,5,20
75,20.09,246,5.3,E_e,1,5,20
75,19.95,1.33E+03,9.23,E_e,1,5,20
75,20.01,1.53E+03,10.5,E_e,1,5,20
75,20.03,1.55E+03,10.1,E_e,1,5,20
75,20.01,1.56E+03,10.2,E_e,1,5,20
76,34.11,84.4,-0.368,E_e,1,6,35
76,34.14,111,0.0704,E_e,1,6,35
76,34.25,150,0.894,E_e,1,6,35
76,34.24,213,2.43,E_e,1,6,35
76,34.25,627,10.9,E_e,1,6,35
76,34.26,635,10.9,E_e,1,6,35
76,34.24,778,11.1,E_e,1,6,35
76,34.24,779,11.2,E_e,1,6,35
76,34.24,793,11.2,E_e,1,6,35
77,30.24,72.1,-0.233,E_e,1,6,30
77,30.18,91.5,0.441,E_e,1,6,30
77,30.12,143,1.23,E_e,1,6,30
77,30.12,207,3.09,E_e,1,6,30
77,30.22,744,10.9,E_e,1,6,30
77,30.21,765,10.9,E_e,1,6,30
77,30.27,812,12.5,E_e,1,6,30
77,30.26,815,12.8,E_e,1,6,30
78,25.44,72.3,-0.208,E_e,1,6,25
78,25.36,89.6,0.503,E_e,1,6,25
78,25.41,130,1.52,E_e,1,6,25
78,25.58,214,3.16,E_e,1,6,25
78,25.73,852,10.5,E_e,1,6,25
78,25.86,1.03E+03,10.9,E_e,1,6,25
79,34.19,62.9,-0.812,E_i,1,1,35
79,34.34,96,2.45,E_i,1,1,35
79,34.29,150,7.3,E_i,1,1,35
79,34.12,246,15.6,E_i,1,1,35
79,34.19,487,31.6,E_i,1,1,35
79,34.56,791,38.7,E_i,1,1,35
79,34.96,1.07E+03,42.1,E_i,1,1,35
79,35.27,1.31E+03,44.8,E_i,1,1,35
80,29.58,59.1,-0.175,E_i,1,1,30
80,29.48,88.6,3.09,E_i,1,1,30
80,29.37,141,8.15,E_i,1,1,30
80,29.72,234,16.5,E_i,1,1,30
80,30.02,500,30.8,E_i,1,1,30
80,30.17,837,35.8,E_i,1,1,30
80,30.28,1.17E+03,38.8,E_i,1,1,30
80,30.48,1.47E+03,40.6,E_i,1,1,30
81,25.44,56.2,0.239,E_i,1,1,25
81,25.19,88.4,3.79,E_i,1,1,25
81,25.2,146,8.85,E_i,1,1,25
81,25.2,255,17.2,E_i,1,1,25
81,25.29,584,26.2,E_i,1,1,25
81,25.41,948,30.3,E_i,1,1,25
81,25.54,1.32E+03,32.1,E_i,1,1,25
81,25.67,1.69E+03,33.5,E_i,1,1,25
82,20.31,54.9,0.594,E_i,1,1,20
82,20.11,94.3,4.51,E_i,1,1,20
82,19.94,160,9.78,E_i,1,1,20
82,19.95,285,17.1,E_i,1,1,20
82,20.19,653,21.5,E_i,1,1,20
82,20.48,1.03E+03,24.1,E_i,1,1,20
82,20.63,1.41E+03,25,E_i,1,1,20
82,20.7,1.78E+03,26.6,E_i,1,1,20
83,40.01,77.5,-1.45,E_i,1,1,40
83,40.35,106,0.381,E_i,1,1,40
83,40.8,144,3.11,E_i,1,1,40
83,40.91,198,6.76,E_i,1,1,40
83,40.53,322,14.4,E_i,1,1,40
83,40.32,421,21.1,E_i,1,1,40
83,40.04,545,27.5,E_i,1,1,40
83,39.63,663,32.6,E_i,1,1,40
84,35.42,68.5,-0.958,E_i,1,2,35
84,35.17,97.1,1.85,E_i,1,2,35
84,34.95,146,6.84,E_i,1,2,35
84,34.7,243,15.4,E_i,1,2,35
84,34.57,486,32.9,E_i,1,2,35
84,34.59,755,43.1,E_i,1,2,35
84,34.87,1.01E+03,47.9,E_i,1,2,35
84,35.06,1.17E+03,50.5,E_i,1,2,35
85,29.97,60.7,-0.282,E_i,1,2,30
85,29.77,92.5,3.41,E_i,1,2,30
85,29.76,150,9.36,E_i,1,2,30
85,29.65,254,18.6,E_i,1,2,30
85,29.68,547,32.6,E_i,1,2,30
85,29.66,895,37.4,E_i,1,2,30
85,29.83,1.25E+03,39.9,E_i,1,2,30
85,30.12,1.60E+03,41.7,E_i,1,2,30
86,25.77,58.3,0.16,E_i,1,2,25
86,25.38,96.1,4.67,E_i,1,2,25
86,25.09,159,11.2,E_i,1,2,25
86,24.82,279,20.8,E_i,1,2,25
86,24.86,628,29.8,E_i,1,2,25
86,24.89,1.01E+03,31.3,E_i,1,2,25
86,24.95,1.38E+03,33.3,E_i,1,2,25
86,25.42,1.74E+03,35.7,E_i,1,2,25
87,23.3,56.8,0.454,E_i,1,2,20
87,23.22,97.1,5.02,E_i,1,2,20
87,23.14,163,11.8,E_i,1,2,20
87,23.09,292,20.6,E_i,1,2,20
87,23.04,654,27.1,E_i,1,2,20
87,23.06,1.03E+03,30.2,E_i,1,2,20
87,23.32,1.40E+03,31.6,E_i,1,2,20
87,23.69,1.74E+03,34.3,E_i,1,2,20
88,40.55,81.7,-1.65,E_i,1,2,40
88,40.53,107,0.298,E_i,1,2,40
88,40.51,147,3.11,E_i,1,2,40
88,40.53,214,8.11,E_i,1,2,40
88,40.84,365,17.3,E_i,1,2,40
88,40.94,494,24.6,E_i,1,2,40
88,40.61,642,30.9,E_i,1,2,40
88,40.49,812,35.8,E_i,1,2,40
89,33.78,65.3,-1.59,E_i,1,3,35
89,33.67,107,2.2,E_i,1,3,35
89,34.24,174,7.29,E_i,1,3,35
89,34.67,292,15.7,E_i,1,3,35
89,34.77,576,29.7,E_i,1,3,35
89,34.92,851,37.4,E_i,1,3,35
89,35.12,1.15E+03,41.8,E_i,1,3,35
89,35.64,1.44E+03,44.5,E_i,1,3,35
90,29.96,62.6,-0.563,E_i,1,3,30
90,29.76,96.4,2.74,E_i,1,3,30
90,29.62,151,7.56,E_i,1,3,30
90,29.47,256,15.5,E_i,1,3,30
90,29.52,543,28.7,E_i,1,3,30
90,29.58,887,33.9,E_i,1,3,30
90,29.61,1.24E+03,36.8,E_i,1,3,30
90,30.03,1.58E+03,39.7,E_i,1,3,30
91,24.98,58.2,0.0895,E_i,1,3,25
91,24.93,96.8,4.04,E_i,1,3,25
91,24.96,161,9.3,E_i,1,3,25
91,24.97,283,17.9,E_i,1,3,25
91,24.96,623,27.1,E_i,1,3,25
91,25.01,996,30.8,E_i,1,3,25
91,25.3,1.37E+03,33.5,E_i,1,3,25
92,39.95,84.5,-2.04,E_i,1,3,40
92,40.14,114,-0.114,E_i,1,3,40
92,40.1,161,2.79,E_i,1,3,40
92,40,250,7.89,E_i,1,3,40
92,39.96,679,28.4,E_i,1,3,40
92,39.87,880,35.9,E_i,1,3,40
92,39.73,1.11E+03,42.5,E_i,1,3,40
93,34.22,67.9,-1.11,E_i,1,4,35
93,34.19,98,1.58,E_i,1,4,35
93,33.91,147,6.25,E_i,1,4,35
93,34.18,234,14.1,E_i,1,4,35
93,34.59,449,29.9,E_i,1,4,35
93,35.05,613,38.1,E_i,1,4,35
93,34.9,817,45,E_i,1,4,35
93,34.54,1.06E+03,49.5,E_i,1,4,35
94,30.27,59.9,-0.323,E_i,1,4,30
94,30.09,91,3.02,E_i,1,4,30
94,29.97,144,8.03,E_i,1,4,30
94,29.88,236,17.5,E_i,1,4,30
94,29.89,489,32.9,E_i,1,4,30
94,30.02,792,39.7,E_i,1,4,30
94,30.17,1.11E+03,42.8,E_i,1,4,30
94,30.37,1.41E+03,44.4,E_i,1,4,30
95,25.37,57.1,0.0378,E_i,1,4,25
95,25.08,86.3,3.89,E_i,1,4,25
95,25.15,141,9.31,E_i,1,4,25
95,25.17,243,18.2,E_i,1,4,25
95,25.17,562,28.3,E_i,1,4,25
95,25.26,919,32.8,E_i,1,4,25
95,25.42,1.28E+03,35.3,E_i,1,4,25
95,25.36,1.64E+03,36.6,E_i,1,4,25
96,20.63,53.9,0.572,E_i,1,4,20
96,20.47,91.2,4.55,E_i,1,4,20
96,20.53,152,10.5,E_i,1,4,20
96,20.45,278,18.7,E_i,1,4,20
96,20.49,648,23.2,E_i,1,4,20
96,20.63,1.02E+03,26.6,E_i,1,4,20
96,20.77,1.40E+03,28.7,E_i,1,4,20
96,20.98,1.76E+03,30.6,E_i,1,4,20
97,39.26,79.9,-1.58,E_i,1,4,40
97,39.01,105,0.627,E_i,1,4,40
97,39.25,152,3.79,E_i,1,4,40
97,39.75,223,8.85,E_i,1,4,40
97,40,382,18.9,E_i,1,4,40
97,39.91,537,26.8,E_i,1,4,40
97,39.73,723,34.6,E_i,1,4,40
97,39.52,924,40.4,E_i,1,4,40
98,34.32,68.9,-1.84,E_i,1,5,35
98,34.33,109,1.55,E_i,1,5,35
98,34.35,172,6.51,E_i,1,5,35
98,34.32,283,14.7,E_i,1,5,35
98,34.25,553,29.8,E_i,1,5,35
98,34.34,874,38.1,E_i,1,5,35
98,34.41,1.23E+03,42.1,E_i,1,5,35
98,34.44,1.55E+03,44.2,E_i,1,5,35
99,30.4,64,-0.78,E_i,1,5,30
99,30.11,103,2.25,E_i,1,5,30
99,29.79,161,7.04,E_i,1,5,30
99,29.72,271,14.7,E_i,1,5,30
99,29.91,554,27.8,E_i,1,5,30
99,29.95,874,33.9,E_i,1,5,30
99,29.92,1.22E+03,37.2,E_i,1,5,30
99,30.07,1.55E+03,39.9,E_i,1,5,30
100,25.9,61.6,-0.314,E_i,1,5,25
100,25.59,96.1,3.32,E_i,1,5,25
100,25.41,158,8.42,E_i,1,5,25
100,25.33,271,16.6,E_i,1,5,25
100,25.28,599,26.3,E_i,1,5,25
100,25.15,968,30.4,E_i,1,5,25
100,25.29,1.33E+03,33.3,E_i,1,5,25
100,25.43,1.70E+03,34.8,E_i,1,5,25
101,22.14,57.3,0.188,E_i,1,5,20
101,21.58,105,2.21,E_i,1,5,20
101,21.61,158,8.92,E_i,1,5,20
101,21.74,275,16.8,E_i,1,5,20
101,21.76,635,22.4,E_i,1,5,20
101,21.97,1.00E+03,26.6,E_i,1,5,20
101,22.11,1.37E+03,29,E_i,1,5,20
101,22.22,1.75E+03,30.4,E_i,1,5,20
102,39.68,85,-2.18,E_i,1,5,40
102,40.03,116,-0.208,E_i,1,5,40
102,40.22,164,2.44,E_i,1,5,40
102,40.21,244,6.99,E_i,1,5,40
102,40.29,423,16.1,E_i,1,5,40
102,40.21,578,24.1,E_i,1,5,40
102,40,734,29.9,E_i,1,5,40
102,39.95,911,35.4,E_i,1,5,40
103,40.45,86.7,-2.04,E_i,1,6,40
103,40.5,115,-0.267,E_i,1,6,40
103,40.33,165,2.37,E_i,1,6,40
103,40.42,245,7.23,E_i,1,6,40
103,40.34,413,18.7,E_i,1,6,40
103,40.31,576,29.4,E_i,1,6,40
103,40.38,761,37.8,E_i,1,6,40
103,40.33,990,43.7,E_i,1,6,40
104,34.9,68.9,-1.13,E_i,1,6,35
104,34.76,101,1.86,E_i,1,6,35
104,34.69,158,6.3,E_i,1,6,35
104,34.91,254,14.2,E_i,1,6,35
104,35.18,485,28.9,E_i,1,6,35
104,35.06,656,36.7,E_i,1,6,35
104,35.05,923,42.3,E_i,1,6,35
104,34.98,1.19E+03,45,E_i,1,6,35
105,30.08,62.3,-0.51,E_i,1,6,30
105,30.01,95.6,2.91,E_i,1,6,30
105,30.12,151,8.22,E_i,1,6,30
105,30.12,256,16.6,E_i,1,6,30
105,30.1,544,29.9,E_i,1,6,30
105,30.18,879,36.2,E_i,1,6,30
105,30.38,1.22E+03,38.5,E_i,1,6,30
105,30,1.58E+03,39.7,E_i,1,6,30
106,25.78,57.8,0.151,E_i,1,6,25
106,25.72,94.1,4.19,E_i,1,6,25
106,25.77,158,9.79,E_i,1,6,25
106,25.75,275,19.1,E_i,1,6,25
106,25.47,623,27.1,E_i,1,6,25
106,25.46,988,31,E_i,1,6,25
106,25.55,1.36E+03,33.6,E_i,1,6,25
106,25.9,1.70E+03,35.9,E_i,1,6,25
107,24.72,55.7,0.599,E_m,1,1,25
107,24.84,96.2,4.85,E_m,1,1,25
107,24.97,161,12.1,E_m,1,1,25
107,24.96,269,22.3,E_m,1,1,25
107,24.96,604,33.9,E_m,1,1,25
107,25,976,36.5,E_m,1,1,25
107,25.06,1.36E+03,37.6,E_m,1,1,25
107,25.05,1.73E+03,38.3,E_m,1,1,25
108,20.98,51.8,0.916,E_m,1,1,20
108,20.99,89.6,5.05,E_m,1,1,20
108,20.93,149,11.3,E_m,1,1,20
108,20.93,265,20.3,E_m,1,1,20
108,20.95,607,28.8,E_m,1,1,20
108,21.02,990,29.6,E_m,1,1,20
108,20.94,1.37E+03,31.8,E_m,1,1,20
108,20.9,1.72E+03,32.4,E_m,1,1,20
109,29.43,59.4,-0.112,E_m,1,1,30
109,29.63,86.3,2.41,E_m,1,1,30
109,29.76,123,6.84,E_m,1,1,30
109,29.88,196,13.2,E_m,1,1,30
109,30,341,23.3,E_m,1,1,30
109,30.09,447,29.2,E_m,1,1,30
109,30.16,583,35.4,E_m,1,1,30
109,30.34,698,36.7,E_m,1,1,30
110,34.24,70.6,-0.294,E_m,1,1,35
110,34.44,87.4,0.682,E_m,1,1,35
110,34.37,111,2.52,E_m,1,1,35
110,35.23,718,20.7,E_m,1,1,35
110,35.35,768,20.8,E_m,1,1,35
110,35.44,941,19.6,E_m,1,1,35
110,35.63,1.03E+03,19.2,E_m,1,1,35
111,38.62,96.7,-0.748,E_m,1,1,40
111,38.32,103,0.23,E_m,1,1,40
111,38.61,140,1.46,E_m,1,1,40
111,38.69,152,3.58,E_m,1,1,40
111,39.18,294,11.4,E_m,1,1,40
111,39.17,356,15.1,E_m,1,1,40
111,39.11,394,15.4,E_m,1,1,40
111,39.17,424,14.9,E_m,1,1,40
111,39.04,512,18.7,E_m,1,1,40
111,38.95,525,18.5,E_m,1,1,40
112,34.19,64.3,-0.925,E_m,1,2,35
112,34.15,94.6,2.83,E_m,1,2,35
112,34.24,143,8.81,E_m,1,2,35
112,34.13,236,18.1,E_m,1,2,35
112,34.18,493,32.1,E_m,1,2,35
112,34.29,833,36.6,E_m,1,2,35
112,34.23,1.20E+03,38,E_m,1,2,35
112,34.24,1.54E+03,40.9,E_m,1,2,35
113,38.6,71.3,-1.55,E_m,1,2,40
113,38.69,99.8,1.59,E_m,1,2,40
113,38.51,144,6.38,E_m,1,2,40
113,38.65,220,14.3,E_m,1,2,40
113,38.74,442,29.7,E_m,1,2,40
113,38.54,703,38.2,E_m,1,2,40
113,38.19,1.06E+03,41.9,E_m,1,2,40
113,37.91,1.39E+03,43.8,E_m,1,2,40
114,30.23,61.5,-0.285,E_m,1,2,30
114,30.12,95.7,3.24,E_m,1,2,30
114,30.01,148,9.01,E_m,1,2,30
114,29.92,250,18.4,E_m,1,2,30
114,29.87,550,30.5,E_m,1,2,30
114,29.82,899,33.9,E_m,1,2,30
114,29.79,1.27E+03,35.9,E_m,1,2,30
114,29.7,1.64E+03,38.1,E_m,1,2,30
115,25.81,58.2,0.214,E_m,1,2,25
115,25.75,98.9,4.18,E_m,1,2,25
115,25.72,166,10,E_m,1,2,25
115,25.73,287,19,E_m,1,2,25
115,25.69,632,28.1,E_m,1,2,25
115,25.71,1.01E+03,30.3,E_m,1,2,25
115,25.78,1.39E+03,32.1,E_m,1,2,25
115,25.93,1.78E+03,33.6,E_m,1,2,25
116,21,55.5,0.518,E_m,1,2,20
116,20.94,94.8,4.43,E_m,1,2,20
116,20.74,161,10.2,E_m,1,2,20
116,20.71,284,18.1,E_m,1,2,20
116,20.97,643,23.6,E_m,1,2,20
116,20.98,1.02E+03,25.5,E_m,1,2,20
116,20.73,1.41E+03,26.2,E_m,1,2,20
116,20.67,1.79E+03,27.1,E_m,1,2,20
117,34.84,65.3,-0.912,E_m,1,3,35
117,35.21,96.2,2.48,E_m,1,3,35
117,35.06,147,7.54,E_m,1,3,35
117,34.92,238,16.1,E_m,1,3,35
117,35.03,496,29.8,E_m,1,3,35
117,35.09,852,33.7,E_m,1,3,35
117,35.27,1.21E+03,35.6,E_m,1,3,35
117,35.75,1.59E+03,38.4,E_m,1,3,35
118,30.65,61.4,-0.348,E_m,1,3,30
118,30.61,96.9,3.05,E_m,1,3,30
118,30.49,153,8.27,E_m,1,3,30
118,30.28,261,16.4,E_m,1,3,30
118,30.15,584,25.6,E_m,1,3,30
118,30.18,949,29.1,E_m,1,3,30
118,30.17,1.32E+03,30.6,E_m,1,3,30
118,30.21,1.70E+03,32.2,E_m,1,3,30
119,25.41,57.7,0.206,E_m,1,3,25
119,25.36,104,3.88,E_m,1,3,25
119,25.33,177,9.53,E_m,1,3,25
119,25.21,311,17.2,E_m,1,3,25
119,25.22,679,22.2,E_m,1,3,25
119,25.24,1.05E+03,24.8,E_m,1,3,25
119,25.3,1.43E+03,26.9,E_m,1,3,25
119,25.37,1.80E+03,28.2,E_m,1,3,25
120,21.07,54.3,0.695,E_m,1,3,20
120,21.05,94.7,4.11,E_m,1,3,20
120,20.86,161,9.38,E_m,1,3,20
120,20.75,289,16.2,E_m,1,3,20
120,20.67,664,18.7,E_m,1,3,20
120,20.69,1.06E+03,18.8,E_m,1,3,20
120,20.74,1.40E+03,27,E_m,1,3,20
120,20.74,1.80E+03,23.9,E_m,1,3,20
121,39.86,73.3,-1.71,E_m,1,3,40
121,40.15,108,0.531,E_m,1,3,40
121,39.87,162,4.23,E_m,1,3,40
121,40.09,260,9.76,E_m,1,3,40
121,40.11,483,21.2,E_m,1,3,40
121,40.09,728,28.6,E_m,1,3,40
121,40.14,1.01E+03,33.3,E_m,1,3,40
121,39.88,1.32E+03,36.1,E_m,1,3,40
122,34.95,64.4,-1.41,E_m,1,4,35
122,34.93,104,1.78,E_m,1,4,35
122,34.96,167,6.39,E_m,1,4,35
122,34.95,276,13.7,E_m,1,4,35
122,35.21,544,26.9,E_m,1,4,35
122,35.45,853,32.9,E_m,1,4,35
122,35.36,1.18E+03,35.9,E_m,1,4,35
122,35.18,1.51E+03,37.9,E_m,1,4,35
123,30.49,62.3,-0.557,E_m,1,4,30
123,30.49,98.3,2.41,E_m,1,4,30
123,30.42,157,7.24,E_m,1,4,30
123,30.33,267,14.8,E_m,1,4,30
123,30.36,563,26.2,E_m,1,4,30
123,30.21,917,30.5,E_m,1,4,30
123,30.29,1.28E+03,31.8,E_m,1,4,30
123,30.02,1.66E+03,33,E_m,1,4,30
124,25.55,58.2,0.134,E_m,1,4,25
124,25.31,97.1,3.89,E_m,1,4,25
124,25.07,163,8.99,E_m,1,4,25
124,24.85,287,16.6,E_m,1,4,25
124,24.61,637,23.3,E_m,1,4,25
124,24.52,1.01E+03,25.3,E_m,1,4,25
124,24.7,1.38E+03,27.6,E_m,1,4,25
124,24.85,1.76E+03,28.9,E_m,1,4,25
125,39.3,70.6,-1.88,E_m,1,4,40
125,39.13,108,0.577,E_m,1,4,40
125,39.06,168,4.31,E_m,1,4,40
125,39.31,270,10.3,E_m,1,4,40
125,39.63,514,21.3,E_m,1,4,40
125,39.75,774,29.2,E_m,1,4,40
125,40.07,1.05E+03,34,E_m,1,4,40
125,40.46,1.34E+03,37.7,E_m,1,4,40
126,34.09,63.5,-1.1,E_m,1,5,35
126,34.31,100,2.52,E_m,1,5,35
126,34.41,158,8.4,E_m,1,5,35
126,34.4,260,17.6,E_m,1,5,35
126,34.46,537,33.4,E_m,1,5,35
126,34.49,869,40.5,E_m,1,5,35
126,34.5,1.22E+03,43.3,E_m,1,5,35
126,34.6,1.58E+03,46.7,E_m,1,5,35
127,30.03,59.8,-0.276,E_m,1,5,30
127,30.03,97.5,3.74,E_m,1,5,30
127,29.94,160,9.81,E_m,1,5,30
127,29.9,271,19.2,E_m,1,5,30
127,29.99,585,30.8,E_m,1,5,30
127,30.05,941,35.3,E_m,1,5,30
127,30.07,1.32E+03,37.4,E_m,1,5,30
127,30.17,1.69E+03,38.8,E_m,1,5,30
128,25.06,58.2,0.218,E_m,1,5,25
128,24.98,103,4.82,E_m,1,5,25
128,24.89,174,11.1,E_m,1,5,25
128,24.72,308,19.4,E_m,1,5,25
128,24.72,672,24.9,E_m,1,5,25
128,24.69,1.04E+03,27.8,E_m,1,5,25
128,24.74,1.42E+03,29.4,E_m,1,5,25
128,24.74,1.80E+03,30.3,E_m,1,5,25
129,21.58,56.1,0.512,E_m,1,5,20
129,21.37,98.5,4.81,E_m,1,5,20
129,21.21,170,10.9,E_m,1,5,20
129,20.96,309,17.7,E_m,1,5,20
129,20.75,692,18.9,E_m,1,5,20
129,20.59,1.07E+03,21.5,E_m,1,5,20
129,20.53,1.45E+03,23.2,E_m,1,5,20
129,20.57,1.83E+03,25.1,E_m,1,5,20
130,39.27,69.2,-2.23,E_m,1,5,40
130,39.23,108,0.916,E_m,1,5,40
130,39.36,171,5.61,E_m,1,5,40
130,39.35,283,13.2,E_m,1,5,40
130,39.24,564,26.7,E_m,1,5,40
130,39.06,878,35,E_m,1,5,40
130,39.19,1.20E+03,40.3,E_m,1,5,40
130,39.26,1.55E+03,43.7,E_m,1,5,40
131,29.66,62.4,-0.503,H_a,1,1,30
131,29.79,106,2.07,H_a,1,1,30
131,29.67,174,5.95,H_a,1,1,30
131,29.6,297,12.6,H_a,1,1,30
131,29.65,931,33.6,H_a,1,1,30
131,29.75,1.25E+03,38.4,H_a,1,1,30
131,29.72,1.56E+03,40.6,H_a,1,1,30
132,34.42,68.4,-0.843,H_a,1,1,35
132,34.53,104,1.17,H_a,1,1,35
132,34.59,168,3.9,H_a,1,1,35
132,34.72,279,8.93,H_a,1,1,35
132,34.77,528,18.9,H_a,1,1,35
132,34.73,762,25.8,H_a,1,1,35
132,34.66,1.01E+03,29,H_a,1,1,35
132,34.69,1.32E+03,31.1,H_a,1,1,35
133,39.15,79.9,-0.974,H_a,1,1,40
133,39.06,120,-0.142,H_a,1,1,40
133,39.03,178,1.26,H_a,1,1,40
133,39.1,287,3.44,H_a,1,1,40
133,39.2,806,11.9,H_a,1,1,40
133,39.21,1.07E+03,14.6,H_a,1,1,40
133,39.14,1.36E+03,16.8,H_a,1,1,40
134,25.34,65.1,-0.324,H_a,1,1,25
134,24.77,109,0.813,H_a,1,1,25
134,24.78,179,2.78,H_a,1,1,25
134,24.66,307,6.32,H_a,1,1,25
134,25.11,591,14.7,H_a,1,1,25
134,24.81,922,20.9,H_a,1,1,25
134,24.81,1.26E+03,24.9,H_a,1,1,25
134,25.18,1.55E+03,27.7,H_a,1,1,25
135,21.8,64.8,-0.727,H_a,1,1,20
135,21.03,100,2.2,H_a,1,1,20
135,21.61,162,6.04,H_a,1,1,20
135,20.71,298,7.91,H_a,1,1,20
135,21.28,965,23.4,H_a,1,1,20
135,21.51,1.30E+03,25.2,H_a,1,1,20
135,20.83,1.64E+03,26.7,H_a,1,1,20
136,34.33,67.2,-0.758,H_a,1,2,35
136,34.38,95.3,1.64,H_a,1,2,35
136,34.37,142,5.15,H_a,1,2,35
136,34.5,225,11,H_a,1,2,35
136,34.49,423,22.5,H_a,1,2,35
136,34.69,615,29.5,H_a,1,2,35
136,34.9,786,31.8,H_a,1,2,35
136,35.07,975,33.8,H_a,1,2,35
137,30.86,67.2,-0.484,H_a,1,2,30
137,30.81,95.2,1.63,H_a,1,2,30
137,30.48,145,5.34,H_a,1,2,30
137,30.34,239,11.3,H_a,1,2,30
137,30.04,484,22.7,H_a,1,2,30
137,30.19,706,28.1,H_a,1,2,30
137,30.45,929,32.4,H_a,1,2,30
137,30.54,1.16E+03,35,H_a,1,2,30
138,25.88,57.9,0.0499,H_a,1,2,25
138,25.93,97.7,3.51,H_a,1,2,25
138,25.95,165,8.58,H_a,1,2,25
138,25.79,288,16.5,H_a,1,2,25
138,25.93,604,27.9,H_a,1,2,25
138,26.06,937,32.8,H_a,1,2,25
138,26.24,1.28E+03,35.5,H_a,1,2,25
138,26.07,1.65E+03,36.4,H_a,1,2,25
139,39.14,79.7,-0.896,H_a,1,2,40
139,39.05,109,0.168,H_a,1,2,40
139,38.92,153,1.87,H_a,1,2,40
139,39.22,239,4.01,H_a,1,2,40
139,39.6,435,7.75,H_a,1,2,40
139,39.72,639,10.4,H_a,1,2,40
139,39.81,882,12.1,H_a,1,2,40
139,39.71,1.10E+03,14.2,H_a,1,2,40
140,21.91,57.6,0.257,H_a,1,2,20
140,22.03,99.2,2.66,H_a,1,2,20
140,21.93,168,6.89,H_a,1,2,20
140,21.91,296,12.8,H_a,1,2,20
140,21.65,635,20.7,H_a,1,2,20
140,21.52,1.01E+03,23.2,H_a,1,2,20
140,21.81,1.35E+03,25,H_a,1,2,20
140,21.84,1.70E+03,26.7,H_a,1,2,20
141,34.65,70.4,-0.778,H_a,1,3,35
141,34.53,103,0.855,H_a,1,3,35
141,34.37,152,3.19,H_a,1,3,35
141,34.36,239,7.15,H_a,1,3,35
141,34.53,417,13.3,H_a,1,3,35
141,34.64,589,18.6,H_a,1,3,35
141,34.64,713,19.1,H_a,1,3,35
141,34.57,885,21.8,H_a,1,3,35
142,29.66,63.6,-0.313,H_a,1,3,30
142,29.45,94.4,1.8,H_a,1,3,30
142,29.27,152,5.81,H_a,1,3,30
142,29.16,265,12.4,H_a,1,3,30
142,29.26,553,22.8,H_a,1,3,30
142,29.39,825,27.9,H_a,1,3,30
142,29.53,1.10E+03,31.4,H_a,1,3,30
142,29.62,1.35E+03,34.3,H_a,1,3,30
143,25.98,60,-0.126,H_a,1,3,25
143,25.62,97.7,3.5,H_a,1,3,25
143,25.41,164,8.7,H_a,1,3,25
143,25.32,286,16.9,H_a,1,3,25
143,25.2,616,27.8,H_a,1,3,25
143,25.55,947,32,H_a,1,3,25
143,25.79,1.25E+03,34.8,H_a,1,3,25
143,26.2,1.49E+03,37.1,H_a,1,3,25
144,22.57,57.3,0.159,H_a,1,3,20
144,22.49,99.7,4.04,H_a,1,3,20
144,22.44,167,9.67,H_a,1,3,20
144,22.4,301,17.1,H_a,1,3,20
144,22.28,644,26.6,H_a,1,3,20
144,22.31,1.00E+03,30.3,H_a,1,3,20
144,22.35,1.36E+03,32.7,H_a,1,3,20
144,22.45,1.70E+03,35,H_a,1,3,20
145,40.21,84.6,-1.16,H_a,1,3,40
145,40.2,113,0.0113,H_a,1,3,40
145,40.19,168,1.35,H_a,1,3,40
145,40,262,3.61,H_a,1,3,40
145,39.95,494,7.27,H_a,1,3,40
145,40.25,739,8.89,H_a,1,3,40
145,40.31,1.00E+03,10.5,H_a,1,3,40
145,40.4,1.26E+03,11.4,H_a,1,3,40
146,34.42,73.5,-0.618,H_a,1,4,35
146,34.43,89.6,0.977,H_a,1,4,35
146,34.48,116,3.7,H_a,1,4,35
146,34.58,171,7.49,H_a,1,4,35
146,34.24,465,18.3,H_a,1,4,35
146,34.38,787,20.1,H_a,1,4,35
146,34.38,845,19.4,H_a,1,4,35
146,34.38,860,19.3,H_a,1,4,35
146,34.37,893,18.9,H_a,1,4,35
147,30.6,65.5,-0.374,H_a,1,4,30
147,30.49,88.1,1.45,H_a,1,4,30
147,30.44,128,4.48,H_a,1,4,30
147,30.41,207,9.81,H_a,1,4,30
147,30.37,382,17.8,H_a,1,4,30
147,30.5,510,21,H_a,1,4,30
147,30.36,641,24.1,H_a,1,4,30
147,30.18,778,27.1,H_a,1,4,30
148,25.6,59.7,-0.143,H_a,1,4,25
148,25.57,94.1,2.84,H_a,1,4,25
148,25.46,152,7.75,H_a,1,4,25
148,25.43,264,15.4,H_a,1,4,25
148,25.34,556,27.7,H_a,1,4,25
148,25.47,871,33.7,H_a,1,4,25
148,25.67,1.19E+03,36.7,H_a,1,4,25
148,25.73,1.52E+03,38.6,H_a,1,4,25
149,22,57.4,0.137,H_a,1,4,20
149,22,99.1,3.93,H_a,1,4,20
149,21.92,167,9.81,H_a,1,4,20
149,21.89,294,18,H_a,1,4,20
149,21.93,625,29.4,H_a,1,4,20
149,21.94,990,33.2,H_a,1,4,20
149,22.02,1.35E+03,35.8,H_a,1,4,20
149,22.14,1.71E+03,37.2,H_a,1,4,20
150,39.92,94.4,-1.08,H_a,1,4,40
150,39.77,113,-0.0588,H_a,1,4,40
150,39.73,155,1.19,H_a,1,4,40
150,39.66,226,3.16,H_a,1,4,40
150,39.84,737,11.7,H_a,1,4,40
150,39.85,738,11.7,H_a,1,4,40
150,39.82,896,12.9,H_a,1,4,40
151,34.8,66.7,-1.12,H_a,1,5,35
151,34.92,101,1.71,H_a,1,5,35
151,35.02,155,5.94,H_a,1,5,35
151,35.09,252,12.6,H_a,1,5,35
151,35.1,483,24.5,H_a,1,5,35
151,35.64,697,30.3,H_a,1,5,35
151,35.82,958,34.7,H_a,1,5,35
151,35.93,1.23E+03,36.8,H_a,1,5,35
152,30.58,64.1,-0.413,H_a,1,5,30
152,30.43,98.1,1.68,H_a,1,5,30
152,30.35,151,5.55,H_a,1,5,30
152,30.23,251,11.9,H_a,1,5,30
152,30.11,522,23.3,H_a,1,5,30
152,30.24,799,29.8,H_a,1,5,30
152,30.52,1.06E+03,33.2,H_a,1,5,30
152,30.72,1.26E+03,35,H_a,1,5,30
153,24.6,58.8,0.0418,H_a,1,5,25
153,24.61,97.4,3.07,H_a,1,5,25
153,24.54,165,7.61,H_a,1,5,25
153,24.53,286,14.7,H_a,1,5,25
153,24.47,619,24.4,H_a,1,5,25
153,24.41,990,27.6,H_a,1,5,25
153,24.32,1.36E+03,29.9,H_a,1,5,25
153,24.21,1.74E+03,30.9,H_a,1,5,25
154,20.79,56.8,0.36,H_a,1,5,20
154,20.54,96,5.1,H_a,1,5,20
154,20.4,174,8.29,H_a,1,5,20
154,20.19,312,14.4,H_a,1,5,20
154,20.12,665,21.5,H_a,1,5,20
154,19.93,1.05E+03,23.3,H_a,1,5,20
154,19.86,1.43E+03,25.3,H_a,1,5,20
154,19.83,1.82E+03,26.3,H_a,1,5,20
155,40.03,76.7,-1.46,H_a,1,5,40
155,40.09,103,0.571,H_a,1,5,40
155,39.93,153,3.43,H_a,1,5,40
155,39.66,244,7.98,H_a,1,5,40
155,39.7,458,17,H_a,1,5,40
155,39.84,672,22.4,H_a,1,5,40
155,39.85,905,26.3,H_a,1,5,40
155,39.79,1.14E+03,27.7,H_a,1,5,40
156,34.68,65.3,-0.939,H_a,1,6,35
156,34.88,98.2,2.3,H_a,1,6,35
156,35,151,7.44,H_a,1,6,35
156,35.06,252,15.7,H_a,1,6,35
156,35.07,498,30.1,H_a,1,6,35
156,35.04,798,37.9,H_a,1,6,35
156,35.04,1.12E+03,42.6,H_a,1,6,35
156,35.14,1.45E+03,45.5,H_a,1,6,35
157,30,61.6,-0.392,H_a,1,6,30
157,29.78,95.8,3,H_a,1,6,30
157,29.62,153,8.2,H_a,1,6,30
157,29.54,261,16.6,H_a,1,6,30
157,29.44,551,30.1,H_a,1,6,30
157,29.32,895,36.7,H_a,1,6,30
157,29.35,1.24E+03,40.4,H_a,1,6,30
157,29.37,1.59E+03,42.7,H_a,1,6,30
158,24.87,56.9,0.294,H_a,1,6,25
158,24.62,96.2,4.08,H_a,1,6,25
158,24.42,162,9.62,H_a,1,6,25
158,24.13,287,18,H_a,1,6,25
158,24.06,628,28.7,H_a,1,6,25
158,23.94,1.01E+03,31.9,H_a,1,6,25
158,23.97,1.39E+03,33.8,H_a,1,6,25
158,24.07,1.77E+03,36,H_a,1,6,25
159,20.24,54.8,0.551,H_a,1,6,20
159,20.18,97.4,4.18,H_a,1,6,20
159,20.15,165,9.45,H_a,1,6,20
159,20.17,293,16.8,H_a,1,6,20
159,20.14,643,24.3,H_a,1,6,20
159,20.09,1.02E+03,26.8,H_a,1,6,20
159,20.1,1.39E+03,29.2,H_a,1,6,20
159,20.24,1.74E+03,31.3,H_a,1,6,20
160,38.66,77.7,-1.2,H_a,1,6,40
160,38.67,102,0.612,H_a,1,6,40
160,38.46,143,3.42,H_a,1,6,40
160,38.19,219,7.85,H_a,1,6,40
160,37.94,343,13.6,H_a,1,6,40
160,37.65,446,17.5,H_a,1,6,40
160,37.45,584,21.3,H_a,1,6,40
160,37.3,713,23.3,H_a,1,6,40
